1	0.99325890654518211864
1	0.99999999999428412778
1	1.00000000000000000000
1	1.00000000000000000000
1	0.99997039780639018769
1	1.00000000000000000000
1	0.99999999999999822364
1	0.99999999999985167420
1	0.99486085835644566533
1	0.99919706295284682618
1	0.99985210233917132250
1	1.00000000000000000000
1	0.99999998198855910569
1	0.99999999748428192170
1	0.99999826783379408557
1	0.99999943050504025432
1	0.99999999999997868372
1	0.99999999994438026896
1	0.99642184184663107338
1	0.99997962837802678582
1	0.99999999999501154591
1	0.99986318234469639954
1	0.99989029421698860656
1	0.99964318289118447858
1	0.99971049703897985061
1	0.99996492748128917860
1	0.99999953255362972193
1	1.00000000000000000000
1	0.99996530798577321075
1	1.00000000000000000000
1	0.99999999999839883635
1	1.00000000000000000000
1	0.99999999999294009179
1	1.00000000000000000000
1	0.99999999990910870551
1	0.99938121982028538248
1	0.99999999999972355447
1	0.92645527358662060902
1	0.99806072795949740684
1	0.99999999975176434575
1	0.99999956578536841612
1	0.98823601415329309638
1	1.00000000000000000000
1	0.99997534055063852509
1	0.99994594096789868320
1	1.00000000000000000000
1	1.00000000000000000000
1	0.99779444772861247692
1	0.99999978138958045548
1	0.99999988894177149756
1	1.00000000000000000000
1	0.99973902543165138468
1	0.99816724053340566414
1	0.99999999998147282021
1	0.99999999988734078471
1	0.99999999999885358370
1	0.99999739041799440287
1	0.99999923802194645717
1	0.99999998850505800174
1	0.99999999988922616545
1	0.99999999104048187260
1	1.00000000000000000000
1	0.99973029347906361419
1	0.99999994066655828462
1	1.00000000000000000000
1	0.99999929285970301507
1	0.99999957390898652765
1	0.99999999999688604646
1	1.00000000000000000000
1	0.99999999999988253840
1	1.00000000000000000000
1	0.99999999999936028949
1	0.99999964100398652800
1	1.00000000000000000000
1	0.99999999849856791023
1	0.99999999934985539518
1	0.99999999999989208632
1	0.99960997383530703075
1	0.98876037150913331786
1	0.99999999615301904399
1	1.00000000000000000000
1	0.99999999999524469274
1	0.99958869056715904389
1	0.99512729162009438966
1	0.99999999743992340484
1	0.99999999999999977796
1	0.99999999700846697870
1	0.99994394440864131646
1	0.99962351579507813248
1	1.00000000000000000000
1	0.99996132063367926257
1	1.00000000000000000000
1	0.89426349308022456963
1	0.99894691887177466949
1	0.99999837507314015550
1	0.99995086426177681727
1	0.99999977356357394598
1	0.99999999990366261748
1	0.95530585351604879740
1	1.00000000000000000000
1	0.98312370064339238418
1	0.99999999999995625721
1	0.99999986595824452706
1	0.99999999999956967756
1	0.99999998761045139073
1	0.99999854770496332534
1	1.00000000000000000000
1	0.99999999907090231233
1	0.99999999965373853605
1	0.99999792314878421795
1	0.99999999893080704361
1	1.00000000000000000000
1	0.99999999999999400480
1	0.99999999998268473966
1	1.00000000000000000000
1	0.99999999968879982326
1	0.99999999982030307599
1	0.98733045318579715222
1	0.99986384222721302883
1	0.99999999990644306003
1	0.99988719127969882816
1	0.99999999999996269651
1	0.99254410747238430712
1	0.98910546851153191561
1	0.99991063066113938795
1	0.99539484822528245811
1	0.99936082548457938479
1	0.99951331635893347904
1	1.00000000000000000000
1	0.99999999886020507489
1	0.99999649260847756072
1	0.99999999998750799257
1	0.99907651974241484805
1	0.99999999999999977796
1	0.99999303985544063522
1	0.99999999999741318035
1	0.99871027978585436014
1	0.99999999974979569828
1	0.99654287817105347003
1	0.62457125877823516102
1	0.99999999999999977796
1	0.99999999861790000999
1	0.99994911573630762547
1	0.99999997274788288149
1	0.99967383298927059432
1	0.99984134621432541046
1	0.85863526767152853481
1	1.00000000000000000000
1	0.99039643171795377352
1	0.99999999999999134026
1	0.99998909077817554891
1	0.99999999999998845368
1	0.99999939223345346573
1	1.00000000000000000000
1	1.00000000000000000000
1	0.99999999401120409637
1	0.99999999982781373475
1	0.99997518553254594043
1	1.00000000000000000000
1	0.99994060121512695627
1	0.98765814212182134746
1	1.00000000000000000000
1	0.99989977269129182158
1	0.99999999999999933387
1	0.99999953999712776209
1	0.83376306006703981843
1	0.99999999999927480232
1	0.99999999977817366492
1	0.99999999999960720309
1	0.99893707551805321909
1	0.99999998150705537991
1	0.99189530684382865022
1	1.00000000000000000000
1	1.00000000000000000000
1	0.99999999184054499946
1	0.99999999999999844569
1	0.99998776640861464227
1	1.00000000000000000000
1	0.99986958117439261873
1	0.99999999999959410246
1	1.00000000000000000000
1	0.99776881370164660634
1	0.99983828730533830242
1	0.99999999999999955591
1	0.99997135972291584238
1	0.99532449758074759139
1	0.99859055551409592333
1	1.00000000000000000000
1	1.00000000000000000000
1	0.99999974996866558552
1	0.99999814407141263128
1	0.99999999981323184350
1	0.99999999992102384105
1	0.90773117361441801876
1	0.93950056821754390768
1	0.99998094723083541524
1	0.99999954298088755689
1	1.00000000000000000000
1	0.99999999999981370458
1	1.00000000000000000000
1	0.99999950444209662059
1	1.00000000000000000000
1	0.99999999981095455404
1	0.99999999998500999077
1	0.99163793385382770218
1	0.99999999942289985455
1	0.99998465511671474903
1	0.99993517498771866681
1	0.99997965172827063540
1	1.00000000000000000000
1	0.99991047611681016516
1	0.99990317335219514039
1	0.99999622757998907208
1	0.99999949678005972675
1	0.99999999989230303754
1	1.00000000000000000000
1	1.00000000000000000000
1	0.99999999908845338403
1	0.99999997334568035967
1	0.99999999977727727085
1	0.99820678441895793753
1	0.99999999999872524192
1	0.99999999998616373453
1	0.99999990158746399072
1	0.99999993177665658095
1	0.99790378945726943005
1	0.99999998593441596917
1	0.99999750491304939537
1	0.99999999999962851938
1	0.97371513624381644814
1	1.00000000000000000000
1	0.99971701826350445330
1	0.99999999909384462704
1	0.99949244030288497687
1	0.99999999999941402429
1	0.99870833198773600881
1	0.99999999999788879990
1	0.99999999996282840087
1	1.00000000000000000000
0	0.11463141467066260970
1	0.97958808978569833492
1	1.00000000000000000000
1	1.00000000000000000000
1	0.99999999997350497161
1	1.00000000000000000000
1	1.00000000000000000000
1	0.99999972101615342002
1	0.99439957262710676478
1	1.00000000000000000000
1	1.00000000000000000000
1	0.99996530798577321075
1	0.99999999555901109005
1	0.99999989295583524562
1	1.00000000000000000000
1	0.99995067113995028674
1	0.99999999999984146015
1	0.99999414469964809093
1	0.99972506149897832906
1	0.99999924691045438685
1	0.99999999998469224494
1	0.99999610749286560463
1	0.98468058111802547749
1	0.99999999986582466249
1	0.99999997459417211410
1	1.00000000000000000000
1	0.99995882350226594770
1	0.99999999999847055676
1	0.99999999824626217837
1	1.00000000000000000000
1	0.99999890425527671045
1	1.00000000000000000000
1	0.99999999999996203037
1	0.57531183112200379171
1	1.00000000000000000000
1	0.99801046032462414903
1	0.99998417834289032857
1	1.00000000000000000000
1	1.00000000000000000000
1	1.00000000000000000000
1	0.99732932937101415050
1	0.99999999999996913580
1	0.99999999974192954610
1	0.99978864166850878181
1	0.99999999896818736467
1	0.97867858697596932238
1	0.99999999999092281655
1	0.61434098825340643923
1	0.99999972184065122338
1	0.99999999999994204636
1	0.99999999879670520286
1	0.99999118332695891009
1	0.99619725985228080312
1	1.00000000000000000000
1	0.99999942693451560061
1	1.00000000000000000000
1	0.99999999933361616300
1	1.00000000000000000000
1	1.00000000000000000000
1	1.00000000000000000000
1	0.99999999999989763744
1	0.99999999928201788180
1	0.98856417927379292010
1	0.99999999999999911182
1	0.99999460092554748325
1	0.99999999808901218756
1	1.00000000000000000000
1	0.99999815888338416947
1	0.99609270062108046240
1	1.00000000000000000000
1	1.00000000000000000000
1	0.98029174318532608101
1	0.99949086030025346972
1	0.99999643553861794487
1	0.99999999999655142524
1	1.00000000000000000000
1	1.00000000000000000000
1	0.99999996561562387587
1	0.96216754377648305852
1	0.99999998684175195329
1	0.99999999987327337081
1	1.00000000000000000000
1	1.00000000000000000000
1	0.99987522284681729090
1	0.99999999804602435205
1	1.00000000000000000000
1	0.85755380208198594971
1	0.99999990414712358611
1	0.99999999999928257388
1	0.99994570538042304442
1	0.99969688208660700823
1	0.99999999984469600811
1	0.99992820895834488848
1	0.99998996779128124235
1	0.99999999992875276966
1	1.00000000000000000000
1	0.99998952871934909670
1	0.99999999700846697870
1	0.99986166651308672204
1	1.00000000000000000000
1	0.99999999999999555911
1	0.99999999999999866773
1	0.99999999999040389831
1	1.00000000000000000000
1	0.99998633342785914202
1	0.99999776479815694064
1	0.99615305252842090145
1	0.97979501663718060467
1	0.99994897698777929218
1	0.99378513542587887386
1	0.99999838132233032084
1	0.99972850931110202044
1	0.99999914992858351948
1	0.99999999997058730550
1	1.00000000000000000000
1	0.91319776901834637250
1	0.97830947123030898016
1	0.97893699363165387339
1	0.99999999272577833054
1	0.96052471143684647892
1	0.99939771001930466365
1	0.98571681259739796221
1	0.99999999999846989063
1	1.00000000000000000000
1	0.99801514398300472664
1	0.99996853581746358852
1	0.99999999996159494309
1	1.00000000000000000000
1	0.99999341607952174638
1	0.99942900766141662405
1	1.00000000000000000000
1	0.97948549377300087038
1	0.99999999994523114388
1	0.99999999996717514605
1	1.00000000000000000000
1	0.99999999835384123514
1	1.00000000000000000000
1	0.98204391713682170906
1	0.99998159874821679338
1	0.99999999995299559963
1	0.99891431630859461865
1	0.99999999999999289457
1	0.99999996393749790435
1	0.99968179332018980432
1	0.99999994865429187030
1	0.99155876619800786820
1	1.00000000000000000000
1	1.00000000000000000000
1	0.99999843790609055372
1	0.99900193869796816148
1	0.99999991430413270876
1	0.99999664182778069677
1	0.99999999990631338598
1	0.99965683778338088050
1	0.99999999987711785110
1	0.99999999894404689726
1	1.00000000000000000000
1	1.00000000000000000000
1	0.99921509844208855622
1	1.00000000000000000000
1	0.99999999978239917375
1	0.99999999999794386696
1	0.99996298910698588891
1	0.99999645754739174830
1	0.99995958836112308621
1	0.99994724243751309523
1	0.99988980050828990542
1	0.99999996388884992982
1	0.99888143211626978513
1	0.99999952113070011972
1	0.99999834565504264194
1	0.94224331308807518504
1	1.00000000000000000000
1	0.99999999992178945085
1	0.99601711577050588975
1	1.00000000000000000000
1	0.92002511827689004154
1	0.99785291640835194205
1	1.00000000000000000000
1	0.99860984752988468660
1	0.99999999206538070506
1	0.99999996993891704378
1	0.99999930182735374817
1	0.99939543368701988513
1	1.00000000000000000000
1	0.99924494121002516156
1	0.98948760497962218174
1	1.00000000000000000000
1	1.00000000000000000000
1	1.00000000000000000000
1	1.00000000000000000000
1	0.99999999999998023803
1	1.00000000000000000000
1	0.99999999999999977796
1	1.00000000000000000000
1	0.99999999515805071404
1	0.99999999991418042633
1	1.00000000000000000000
1	1.00000000000000000000
1	0.99994970943308403299
1	1.00000000000000000000
1	0.99999999939454498055
1	1.00000000000000000000
1	0.99999287660227986763
1	0.99999991663631415673
1	0.99999999999998134825
1	0.99999999134620998209
1	0.99999994587148877123
1	0.99543703254389093171
1	1.00000000000000000000
1	1.00000000000000000000
1	0.99999996271097557621
1	1.00000000000000000000
1	0.99999326397013366119
1	1.00000000000000000000
1	0.99999998888666363772
1	0.99996768081491727020
1	0.99975713910613139834
1	0.99998907972850081816
1	0.99999990602455191002
1	0.98585430266073070804
1	0.99999899075553810857
1	0.99999999997627631032
1	1.00000000000000000000
1	0.99999999981749954081
1	0.99547648931495580360
0	0.00533175176115378499
1	0.99999919956117755415
0	0.00000017343875013135
1	0.99945572059931420128
1	0.88709205243534217100
1	1.00000000000000000000
1	1.00000000000000000000
1	0.99999999985628518218
1	0.91106638860630329013
1	0.99986571022775061479
1	1.00000000000000000000
1	1.00000000000000000000
1	0.99999999999997091216
1	0.99999999999999977796
1	0.99999993740740522608
1	0.99998946598006210884
1	0.99998844319962976179
1	0.99999999999999977796
1	0.99892827781487569805
1	0.99999999999999777955
1	0.99993160899518962470
1	0.99966239103408738309
1	0.99999989835882685529
1	0.99999992639345924861
1	0.99999967607432005412
1	0.99999999999880007095
1	0.99999999989546606294
1	1.00000000000000000000
1	0.99999979052475118646
1	0.99999946595917432735
1	0.99998597537793620926
1	0.99311054521522035277
1	0.99999999999999622524
1	0.99988161141117426478
1	0.99999158235171081710
1	0.99999986218828229578
1	1.00000000000000000000
1	0.99947996705316610733
1	0.99956007800251900353
1	0.99876498569791516413
1	1.00000000000000000000
1	1.00000000000000000000
1	0.99940156438521898785
1	1.00000000000000000000
1	1.00000000000000000000
1	0.61652783857735204975
1	0.94440595017548933932
1	0.99999997073491408983
1	0.99999999436941755526
1	0.99999942330139157676
1	0.99999946983140119983
1	0.99940544110849560688
1	1.00000000000000000000
1	1.00000000000000000000
1	0.99969171936865353079
1	0.99999273305147740043
1	0.99999998476445894902
1	0.94465105719238540161
1	1.00000000000000000000
1	0.97280684804991368608
1	0.98892163528313914433
1	0.96186925727970651323
1	1.00000000000000000000
1	0.99992045532205109382
1	0.99999999999803046435
1	1.00000000000000000000
1	0.99999999973271003206
1	0.99999936110620535334
1	0.99999995961676091394
1	0.99999904743414258501
1	1.00000000000000000000
1	0.99959691984831733347
1	0.99961527897206792215
1	1.00000000000000000000
1	0.61102831068236374001
1	0.93495707570445296675
1	0.99999999890577040418
1	0.99999999716294718510
1	0.99825779311803031213
1	0.99999999999999911182
1	0.99915463724483744024
1	1.00000000000000000000
1	1.00000000000000000000
1	0.99953192825025816148
1	0.99999460178385679576
1	0.99998395631043535126
1	0.99999968923453352865
1	0.99999680522033129737
1	0.99999997961390918455
1	0.99890190247721932781
1	0.99999942144819120582
1	0.99987924747416723203
1	1.00000000000000000000
1	1.00000000000000000000
1	0.99999999999999067413
1	0.99999999951354490157
1	0.99999984050435120064
1	1.00000000000000000000
1	0.99838182937463837430
1	0.95233439832647648338
1	0.99999950131752712856
1	0.99999999578218412566
1	0.99999999999998601119
1	0.99985235653168902381
1	1.00000000000000000000
1	0.99999935178236254441
1	0.99996298009497075476
1	1.00000000000000000000
1	1.00000000000000000000
1	0.99999861443010429340
1	1.00000000000000000000
1	0.99999999999999933387
1	0.66229309267527225469
1	0.99999999871782097038
1	0.99995476815237338553
1	1.00000000000000000000
1	1.00000000000000000000
1	0.99994474764121976662
1	0.99999559252489655936
1	0.99999164506726478940
1	0.94440595017548933932
1	1.00000000000000000000
1	1.00000000000000000000
1	0.98807160999850862648
0	0.00007401811173342832
1	0.99930717390578094328
1	0.99999999999992317257
1	0.99442180789553258347
1	1.00000000000000000000
1	0.99999999997405697449
1	0.99999988047541121805
1	0.99429396117210733230
1	1.00000000000000000000
1	0.99920960000361747078
1	0.92959768419015731400
1	0.99997361575403476142
1	0.99956871996166496430
0	0.37091224717117921017
1	0.99999901188770357052
1	0.99999999949305151681
1	0.99988160978835816106
1	0.99999999999991939781
1	0.99999999978327558381
1	0.99999999992500288037
1	0.99949869901471932732
1	0.99969781150242797985
1	0.99982410600416582458
1	0.99990474232958570511
1	0.99999999992825250317
1	0.99877178727844040385
1	0.99940463696223691414
1	0.99926833250368662931
1	0.99999999948520312820
1	0.96100747622227944422
1	0.99999749070628118908
1	1.00000000000000000000
1	0.99999922032560595309
1	0.99815723744479345481
1	1.00000000000000000000
1	0.99623392302800228837
1	0.99999999999963540276
1	0.99999991701035262359
1	0.99999998787373656217
1	0.84175436835730599316
1	0.99999999851172316490
1	1.00000000000000000000
1	0.99999997025636933046
1	0.99999789642750280816
1	0.99972781398155363686
1	0.99999162721401191334
1	1.00000000000000000000
1	0.99007923977156875317
1	0.99999997931251849437
1	0.99973846407270883230
1	1.00000000000000000000
1	0.98501159447746233777
1	0.99999999999540523099
1	0.99999999999646616011
1	0.99999999985607468389
1	0.99999390804766541407
1	1.00000000000000000000
1	0.99999999985678678094
1	0.99999999996988941930
1	0.99999996875645746908
1	1.00000000000000000000
1	0.99863606071599797520
1	1.00000000000000000000
1	0.99999997346616487093
1	1.00000000000000000000
1	0.99999999979492204538
1	0.99999999999988609112
1	1.00000000000000000000
1	0.96225779785852560977
1	1.00000000000000000000
1	0.99999902245687077862
1	0.99998878556708903353
1	0.99877412257161291009
1	0.99999984349384452020
1	0.99999759845845548334
1	0.99999999990883692291
1	0.99999998036461523743
0	0.00000005214461634618
1	0.99959737475407040019
1	0.99999975247286587710
1	0.99999998884908702923
1	0.99986466852661082250
1	0.99999997663345008281
1	1.00000000000000000000
0	0.00089326586652805902
1	0.99778924306242411379
1	0.99980255353278069119
1	0.99999999999555222452
1	0.99999964779194383535
1	0.99999994450746254593
1	0.99997318934534840107
1	0.99943486094731714964
1	0.99981274450753876426
1	0.99834351165193246924
1	0.99820678441895793753
1	0.99999826320613660613
1	1.00000000000000000000
1	1.00000000000000000000
1	0.99996408898792377151
1	0.99999781277951815817
1	0.99992955159164098600
1	0.99975372288991171121
1	0.99999999957721286137
1	0.99999999977281639474
1	0.99999827200076973899
1	0.99999999999756883362
1	1.00000000000000000000
1	0.99998292604500671477
1	0.86169612798263295339
1	0.99999999998952859848
1	0.99999999999994337863
1	1.00000000000000000000
1	0.99634356242054533670
1	0.93677149682849158996
1	0.99987265111315104527
1	1.00000000000000000000
1	0.99999998653569677209
1	1.00000000000000000000
1	1.00000000000000000000
1	1.00000000000000000000
1	0.99999999999999955591
1	1.00000000000000000000
1	0.99999971800405806910
1	0.99999999793339688914
1	0.99999999640188796945
1	0.99999999978230214026
1	0.99999999514780402166
1	1.00000000000000000000
1	0.99968108460109683655
1	0.99988665268966836486
1	0.99582607917248577856
1	0.99999894426164159800
1	1.00000000000000000000
1	0.99998992553027687968
1	0.99937905390321146726
1	0.99999999391132199378
1	0.99999977134530781964
1	0.99999999999983790744
1	0.99976805493096032595
1	0.99999995094483340452
1	0.99999973109546436145
1	0.99999999999952970953
1	0.99996089898291218301
1	1.00000000000000000000
1	0.97890900895958499195
1	0.99966370672802373765
1	0.99999999999227973113
1	0.99891124977957046482
1	0.99999986393556949960
1	0.99999968443300024656
1	0.99999911544055342105
1	0.99999321028535270717
1	0.99999999996548205594
1	0.99999999951015272615
1	0.99999808814334845142
1	1.00000000000000000000
1	0.99999996528156886999
1	0.97234924142887302345
1	0.99999999999998623323
1	0.99999999997949129416
1	0.99010387031323277007
1	1.00000000000000000000
1	0.99999999999999977796
1	0.98455426599269468824
1	0.99974865659879574853
1	1.00000000000000000000
1	0.99999999999999955591
0	0.41023654436509110477
1	0.99997389572434125515
1	0.99999985282152981103
1	0.99999999999252819904
1	0.99988398697519720315
1	0.99999959445096153754
1	1.00000000000000000000
1	0.99869882446747548777
1	0.99999999998189803563
1	1.00000000000000000000
1	0.99999956327992234328
1	0.99999999999999955591
1	1.00000000000000000000
1	0.99994022049860553647
1	0.94349056876064185673
1	0.99999993935107844845
1	1.00000000000000000000
1	1.00000000000000000000
1	0.99999999999998356870
1	0.99999999999999644729
1	0.99998795112650584738
1	0.99999904191080735139
1	0.99998210092529649096
1	0.99999999999869837453
1	0.99946209104413952229
1	1.00000000000000000000
1	0.99997186293004614033
1	0.98915424592271916637
1	0.99999999999996225242
1	1.00000000000000000000
1	0.99999999999999267253
1	0.99999867141339982002
1	0.99999999999994759747
1	1.00000000000000000000
1	1.00000000000000000000
1	0.99457188924724149182
1	0.99919338431071125228
1	0.99999999961577668017
1	1.00000000000000000000
1	0.99998619081739392733
1	0.99999145782927534309
1	1.00000000000000000000
1	0.99999999998346678076
1	1.00000000000000000000
1	0.99992963359053088634
1	0.99999999672156802966
1	0.99999999999999955591
1	0.99999999434564412759
1	1.00000000000000000000
1	0.99999994656736723719
1	0.99994344130794399206
1	0.98567266420979382513
1	1.00000000000000000000
1	0.99940944761155947607
1	0.99994818262626483651
1	1.00000000000000000000
1	1.00000000000000000000
1	0.76501560653939926215
1	1.00000000000000000000
1	0.99999999999998556710
1	0.96319878021318705574
1	0.99995813771188823971
1	0.99996126434807153238
1	0.50823331719586473110
1	0.99907576520111618379
1	0.95723415447321558158
1	0.99999863580940873131
1	0.99999985523932244380
1	0.99995318865396465302
1	0.99962506425536601373
1	0.99999999996479016495
1	1.00000000000000000000
1	0.99999999988960919239
1	0.99997518553254594043
1	0.99952712032645740781
1	1.00000000000000000000
1	0.99986239977314828042
1	0.99999999998736011086
1	0.99999999999999955591
1	0.99973846407270883230
1	0.99962239450125212059
1	0.99998715408322447207
1	0.99999782384010982295
1	1.00000000000000000000
1	0.99450356883055668344
1	0.99999999999979061194
1	0.99999999999651101312
1	0.99999999895783853177
1	1.00000000000000000000
1	0.99997837039767845102
1	0.99999999990582644216
1	0.99991276467424972108
1	1.00000000000000000000
1	0.99999756041109721938
1	0.99999999999996602718
1	0.99999994883339771157
1	0.99165886026663696562
1	0.99999916136398481203
1	1.00000000000000000000
1	0.99999999995708699352
1	1.00000000000000000000
1	0.99999997247255045796
1	0.99999999999999977796
1	0.99999994137069136979
1	0.99894175801379103685
1	1.00000000000000000000
1	0.99948531840087795342
1	0.99999964332069724016
1	0.99999862082267376717
1	0.99999999999120592342
1	1.00000000000000000000
1	0.99999999999726929545
1	0.99999999990751109458
1	1.00000000000000000000
1	0.89010311132110819798
1	0.99992263313167462080
1	1.00000000000000000000
1	0.99994384074669429019
1	0.99999120563216659097
1	0.97413036583548950897
1	0.99998401971838735136
1	0.99999999787781113092
1	0.99999999993005705967
1	0.99999950300965922967
1	0.99999991667038867771
1	0.99999999999999844569
1	0.99139776543345159432
1	0.99999752568828381705
1	0.99978214532493370204
1	1.00000000000000000000
1	1.00000000000000000000
1	0.99945925931981116630
1	0.94196401931581896783
1	0.99738169880189697647
1	0.99998890983018939860
1	0.99999999999999977796
1	0.99991407249006858393
1	0.99934422544052725623
1	1.00000000000000000000
1	0.66014597206708458543
1	0.99999959804819649190
1	0.99107944823568239201
1	0.99997961323757922347
1	0.84377593290264907289
1	1.00000000000000000000
1	0.95477645785480602658
1	1.00000000000000000000
1	0.99617632064802863479
1	0.99999934855005034873
1	0.99999999999874589207
1	0.97289078124937522496
1	0.99927940509300217098
1	0.99994407441261268232
1	0.97544386369992341912
1	0.99999999999998889777
0	0.20230719146267170383
1	0.99999961638985845891
1	0.99986083846394735453
1	1.00000000000000000000
1	1.00000000000000000000
1	1.00000000000000000000
1	1.00000000000000000000
1	0.99999554738705886958
1	1.00000000000000000000
1	0.99999990546938311020
1	0.99999999422842500429
1	1.00000000000000000000
1	0.99992837374021181773
1	0.99999999972755659883
1	0.99740226612155902242
1	0.99999999999998268052
1	1.00000000000000000000
1	0.99999999878116163643
1	0.99999999993774935092
1	1.00000000000000000000
1	0.99099672052454668147
1	0.99841706092819604290
1	0.99999874504739838521
1	1.00000000000000000000
1	1.00000000000000000000
1	0.99999999999999777955
1	0.97478981202239556314
1	0.98588118840477234617
1	0.99999999671620187769
1	1.00000000000000000000
1	0.92099948324556346613
1	0.99999451813683248869
1	1.00000000000000000000
1	1.00000000000000000000
1	0.99999999961390573233
1	0.99810137100607376759
1	0.99966845025992279172
1	0.99999999998560529235
1	0.95765045475596066726
1	0.99998815710526733902
1	0.99999999999999933387
1	0.65176284738305512167
1	0.99999769843932007074
1	1.00000000000000000000
1	1.00000000000000000000
1	0.99999999842993902988
1	0.99996005655256048339
1	0.99999999999999977796
1	1.00000000000000000000
1	0.99951078406315285729
1	0.99999999999991562305
1	0.99478174104932870492
1	0.99970022225828047979
1	0.99999999990877119771
1	0.99999999987759125020
1	0.99903947451892549658
1	0.99999974668560098756
1	0.99999999999887800861
1	0.99999836938615904725
1	0.99999998524322442073
1	0.99999999760568458740
1	0.99999999043296294854
1	0.99976375387900995317
1	1.00000000000000000000
1	1.00000000000000000000
1	1.00000000000000000000
1	1.00000000000000000000
1	0.99999999413642104429
1	0.99999999988411780727
1	0.99149470330734945644
1	1.00000000000000000000
1	0.99999999976923414913
1	0.99720525751057598196
1	1.00000000000000000000
1	0.99999699844197975640
1	0.99999587567196868143
1	0.99999999994057509056
1	1.00000000000000000000
1	0.99951840900384991695
1	0.99999999868934486003
1	0.99999564733358270452
1	0.99999999999978861354
1	0.99999999999829847219
1	0.97524978605203449522
1	0.99944383274357195823
1	0.99990681322894114924
1	0.99999999999999955591
1	0.94994529617098322216
1	0.99999999900719660495
0	0.00589389979241322463
0	0.37676238617065749281
0	0.00000481840351567019
0	0.46955924992341513402
0	0.08291916043644226297
0	0.00083888720395287268
0	0.00000145656269544972
0	0.00000000000000000000
0	0.00000084218507052962
0	0.00000001448471183398
0	0.00000911758697324763
0	0.00355409595703464962
0	0.45586807742264023879
0	0.00000954397283780220
0	0.00001976907052950027
0	0.00000001379087846483
0	0.03267774504334836766
0	0.00347703403314054884
0	0.00000000206759044535
0	0.00000513651231358616
0	0.00243631904054407910
0	0.00000000000000042682
0	0.00000001608183717646
0	0.05208041438974895382
0	0.00000174017471312048
0	0.08469894793159003787
0	0.00000084645043166521
0	0.00071893227546725798
0	0.00112371846967182346
0	0.00002026285054946363
0	0.03914170030693817082
0	0.00000085321389350045
0	0.00237195976888816959
0	0.01556577314637962693
0	0.00000000257103215909
0	0.00054277550961153722
0	0.00000417621254900655
0	0.00000000764821607676
0	0.00000000016734367390
0	0.00000000005896776165
0	0.00002912983115034493
0	0.00071974358164264476
0	0.00000000003539119018
0	0.00111118201936115683
0	0.00000000000000000226
0	0.00000000017153750362
0	0.02798684042849095346
0	0.01736922064903817856
0	0.00003861374130379242
0	0.00023150333894461620
0	0.42581874700853777904
0	0.41604727965579829663
0	0.04931500504616210395
0	0.00003923737820679264
0	0.02563716051283086370
0	0.00006144630943216591
0	0.21880375044426300657
0	0.00342028376198344952
0	0.00105063075708543741
0	0.00493827738476754902
0	0.00000684022908158942
0	0.00000000030957375368
0	0.00000541149064702703
0	0.00000000378465208907
0	0.00000005637864226591
0	0.00012966565494443663
0	0.04945280116344032834
0	0.00084390929062840958
0	0.00219341556503584428
0	0.00001582728825828078
0	0.00001254385264242113
0	0.00206478982710823567
0	0.02521959171486555171
0	0.00039550160515914337
0	0.00000001027541689183
0	0.00589254341391184065
0	0.00000072784398902447
0	0.00063416458117649733
0	0.00003715026286403278
0	0.00000000034527672849
0	0.00033196288020691521
0	0.00382676309990536735
0	0.00000000000000000000
0	0.00000343312823750762
0	0.00000000000023599578
0	0.00027914181177210857
0	0.00000000015100989087
0	0.00000018443544868116
0	0.00001078595947890353
0	0.00053366976825598234
0	0.00000002459978330262
0	0.00371006916144046460
0	0.02107016685800878683
0	0.00017212408862189669
0	0.00020255634879838457
0	0.00001766265847722631
0	0.03929568273448242471
0	0.00031147933542854239
0	0.00000190692363112457
0	0.04959235846238266993
0	0.00000000000000000031
0	0.00177649214427979055
0	0.00071970855998299574
0	0.00969116660503556090
0	0.00478496486838855643
0	0.00000002549719911407
0	0.00000687348365910639
0	0.14131315352003456787
0	0.00319224080834621315
0	0.00027416528873264179
0	0.00007357124669099525
0	0.00011445463823483739
0	0.00000078921764414071
0	0.00972573958060724691
0	0.00970058722300872443
0	0.07195613415726527518
0	0.00000000032387803494
0	0.00000000206750074861
0	0.00657781920388413825
0	0.02730772428066071192
0	0.00000000000041059968
0	0.24570762038795351812
0	0.00000000177371640468
0	0.02264767135816628599
0	0.00035181643077008206
0	0.00000000000014489415
0	0.00000000000937086561
0	0.00150762177994499423
0	0.00000000136448496384
0	0.01812341177500282827
0	0.00000810311420028106
0	0.00942741022062945286
0	0.00620052767305769460
0	0.00000005540375040248
0	0.30936115094975896733
0	0.01222440646924265184
0	0.48812257561407323969
0	0.00504345843590956865
0	0.00000000000383077482
1	0.55548313656037850983
0	0.00000000151724504923
0	0.00286847393160015928
0	0.02265008176364757472
0	0.22332068218266912241
0	0.00001772780136782731
0	0.00000282907591048895
0	0.00000052447564126764
0	0.00000281698692003104
0	0.13514684028756218659
0	0.07480671441854459813
0	0.01942594825837191952
0	0.00000000000388200059
0	0.26799005026112110439
0	0.00283291086507298038
0	0.02225546929189222561
0	0.00000327334131709084
0	0.00001739905116475534
0	0.00001167081561066207
0	0.00000101233266383914
0	0.12008655963827775948
1	0.99951167409046282053
0	0.07248569976363918033
1	0.85443739530730278275
0	0.00523930283545821860
0	0.18263230993535856106
0	0.00001507038089722330
0	0.00000733903094085941
0	0.00252352269558394531
0	0.00051418560444010779
0	0.00000068452077471026
0	0.00028808998295643928
1	0.51624093690187522476
1	0.99999991499153095820
0	0.00002184109626606323
0	0.02199109324632286810
0	0.00285395264958115090
0	0.00125014660196823670
0	0.02717785622103273055
0	0.00001357873793556965
0	0.00001735317366462155
0	0.00000941532117559093
0	0.00000091052632743901
0	0.00000372318366151395
0	0.45110569985642451352
0	0.00000003091669707782
0	0.00000000000000000052
0	0.22079030074082126034
0	0.00000067980792447259
0	0.00000000405460113720
0	0.00006525471334135500
0	0.06360832523909180913
0	0.00471487519545734941
0	0.00001294899783444749
0	0.00190395058677699782
0	0.00095907450799508401
0	0.00000411885877535495
0	0.01036066396247785001
0	0.01458762165444216045
0	0.03005502604292380892
0	0.03608052674781916241
0	0.10537904809127038308
0	0.00124838679362553441
0	0.25912495761302828390
0	0.00193018317692584705
0	0.00282731154577991421
0	0.00000023255142492585
0	0.00000000000000000000
0	0.00000017558822863253
0	0.17604559469647648728
0	0.00000961166761888607
0	0.00000050589287054665
1	0.99991295974560301385
0	0.00000001770629259571
0	0.00014411572429691124
0	0.40609867072032690416
0	0.00000000067845287021
0	0.00067741969395864984
0	0.00179551677727358278
0	0.00000000000000000040
0	0.00000062020039108931
0	0.41329909564250055798
0	0.00007248526579449475
0	0.10872970822620491027
0	0.02439119454852185787
0	0.00000000874898850067
0	0.00448264570229149530
0	0.00089347140055853497
0	0.00000000000000000000
0	0.12927926627078020760
0	0.00109386039272186641
0	0.00146102795575554843
0	0.00000044350640134279
0	0.00592545196604817373
0	0.00193924022073803794
0	0.00000000766744551950
1	0.97712575484023345140
0	0.00000258385054695398
0	0.46132951530702565046
0	0.00000000000015948768
0	0.00005872996446355752
0	0.00000000206123917373
0	0.00001153392354119926
0	0.00000000617820273304
0	0.01026985845721464785
0	0.00003034813803367474
0	0.01059763982383862303
0	0.17377131397636147447
0	0.00034862767167910937
0	0.00001402590339022836
0	0.00000000000000000000
0	0.42374289537109055548
1	0.62728469083237781145
0	0.17069189608328302898
0	0.00000000258720794279
0	0.00000014128621847511
0	0.00470238041847161840
0	0.00000001499896081025
0	0.00001033315689541698
0	0.00029214875404143091
0	0.00002083256838122840
0	0.03936700211906210556
0	0.00000972123365959207
0	0.05656377406705724586
0	0.00000204255005969698
0	0.00000000008317705548
0	0.00001614080363554899
0	0.00007705742997383872
0	0.00021929552238759352
1	0.89600401456652400967
0	0.00103108235085772265
0	0.01536862553834532005
0	0.06489377924502033601
0	0.02911475670791305315
0	0.00012950890754787726
0	0.00000000957410866560
0	0.00000000024667930944
0	0.00024075764760182511
0	0.00461142658141940574
1	0.66722266622404657888
0	0.00656022578711329060
0	0.00089141017958438711
0	0.00014715183870233608
0	0.04412883562189010012
0	0.00048040966722423978
0	0.00000061329461884585
0	0.16867734600623726648
1	0.99997055524267908222
0	0.00000000000048665084
0	0.03080903213445617891
0	0.00000145656269544972
0	0.07607734559552055409
0	0.00000000000269311300
0	0.00000000000000000024
0	0.02057412388456461225
0	0.00010105150094870542
0	0.01725319440819424524
0	0.00398577448806197113
0	0.06312887452343583783
0	0.00032403888710320910
0	0.00010634027204779173
0	0.06424391856906702669
0	0.00000001115155475035
0	0.00001220443314665963
0	0.00000000019404967100
0	0.02235944817504481943
0	0.00005315190906516726
0	0.00000000000000726904
0	0.00000000000169725225
0	0.00014531128351754542
0	0.00014696141597124235
0	0.00001909267579531647
0	0.00004558792611389349
0	0.00000142320827617187
0	0.03439735962470185510
0	0.02032209863270445852
0	0.05516641271947811398
0	0.00000493113817530799
0	0.00288176829254051334
0	0.00000000000982982962
0	0.00000085670588404433
0	0.00152338407721659881
0	0.29071847275310686021
0	0.00000027048547187445
0	0.01995533137775458779
0	0.00000000045406595492
0	0.00001304066717237484
0	0.01681627822192877444
0	0.16684426768478893832
0	0.00000000000000000000
0	0.03141848755002134286
0	0.00000024734464176248
0	0.48812257561407323969
0	0.00001882452829067319
0	0.20190722631205798576
0	0.00030734896644749786
0	0.00027799874756246685
0	0.00307431535950386352
0	0.05163467489217261897
0	0.00198310131774899782
0	0.43498509489698350405
0	0.03007850821480727993
0	0.00000000000000016029
0	0.00340448946100372404
0	0.00000023863738665515
0	0.00002157498198317324
0	0.00654845230264768964
0	0.03759406792082783944
0	0.00002037548950200807
0	0.00793639465270478024
0	0.00000161537559433632
0	0.05681573387067390124
0	0.02535929012296181048
0	0.04609989044429988608
0	0.02288593786181651255
0	0.01310128462412035559
0	0.15800898969150137252
0	0.13134213213220446992
0	0.00092947074564604833
0	0.00000041307529331305
0	0.00194773632662521607
0	0.00041531090329803235
0	0.01164678277233309814
0	0.00000001034806902627
