NEG
NEG
POS
NEG
POS
NEG
POS
NEG
POS
NEG
POS
POS
NEG
NEG
NEG
POS
NEG
NEG
POS
NEG
POS
POS
NEG
POS
NEG
NEG
NEG
NEG
POS
POS
POS
NEG
NEG
NEG
POS
NEG
NEG
POS
POS
POS
NEG
NEG
POS
POS
POS
NEG
NEG
POS
POS
NEG
NEG
POS
POS
NEG
POS
POS
POS
POS
POS
NEG
POS
NEG
NEG
POS
POS
POS
NEG
NEG
NEG
NEG
NEG
NEG
NEG
POS
POS
POS
NEG
NEG
NEG
NEG
POS
POS
NEG
NEG
NEG
NEG
NEG
POS
POS
POS
NEG
POS
NEG
POS
NEG
POS
POS
NEG
NEG
POS
NEG
NEG
NEG
POS
POS
POS
POS
NEG
POS
POS
NEG
POS
POS
POS
NEG
POS
NEG
POS
NEG
NEG
POS
NEG
NEG
NEG
POS
NEG
POS
POS
POS
NEG
POS
POS
NEG
NEG
NEG
POS
POS
NEG
POS
NEG
NEG
NEG
NEG
NEG
NEG
POS
NEG
NEG
NEG
POS
NEG
POS
NEG
NEG
NEG
POS
NEG
POS
POS
NEG
POS
NEG
NEG
POS
POS
NEG
POS
NEG
POS
POS
POS
NEG
POS
NEG
NEG
POS
NEG
NEG
NEG
NEG
POS
NEG
POS
NEG
POS
NEG
POS
POS
NEG
POS
NEG
NEG
NEG
NEG
NEG
NEG
POS
NEG
POS
NEG
POS
NEG
NEG
POS
NEG
POS
POS
POS
NEG
POS
POS
POS
POS
POS
NEG
NEG
POS
POS
POS
NEG
NEG
POS
POS
NEG
NEG
NEG
NEG
NEG
POS
POS
NEG
NEG
NEG
NEG
POS
NEG
POS
POS
NEG
POS
POS
POS
NEG
NEG
POS
POS
POS
NEG
NEG
NEG
NEG
POS
NEG
NEG
POS
NEG
POS
POS
NEG
POS
POS
POS
POS
POS
NEG
POS
NEG
POS
POS
NEG
NEG
POS
NEG
NEG
NEG
POS
POS
POS
POS
NEG
NEG
POS
NEG
NEG
NEG
NEG
POS
POS
NEG
POS
POS
NEG
NEG
NEG
NEG
NEG
NEG
POS
NEG
POS
NEG
NEG
NEG
NEG
NEG
NEG
POS
POS
NEG
POS
NEG
POS
NEG
POS
NEG
NEG
POS
NEG
NEG
NEG
NEG
NEG
NEG
POS
POS
NEG
NEG
POS
NEG
POS
NEG
POS
NEG
NEG
NEG
POS
POS
NEG
POS
NEG
POS
NEG
NEG
NEG
NEG
POS
NEG
NEG
NEG
NEG
NEG
NEG
POS
NEG
POS
NEG
NEG
NEG
NEG
NEG
POS
POS
NEG
NEG
POS
NEG
NEG
NEG
POS
POS
NEG
NEG
POS
POS
NEG
POS
POS
POS
POS
POS
POS
NEG
POS
POS
POS
NEG
POS
POS
NEG
NEG
POS
NEG
NEG
POS
POS
NEG
NEG
NEG
POS
POS
NEG
NEG
POS
POS
NEG
POS
POS
POS
NEG
POS
NEG
NEG
POS
POS
POS
POS
NEG
NEG
NEG
POS
NEG
NEG
NEG
NEG
POS
NEG
POS
NEG
POS
NEG
NEG
NEG
POS
POS
POS
NEG
NEG
NEG
NEG
POS
NEG
NEG
POS
NEG
POS
NEG
NEG
NEG
NEG
NEG
NEG
NEG
NEG
POS
NEG
POS
POS
NEG
NEG
POS
POS
POS
POS
NEG
POS
NEG
POS
POS
NEG
POS
NEG
NEG
NEG
POS
NEG
NEG
POS
NEG
POS
POS
POS
NEG
POS
NEG
NEG
NEG
POS
POS
POS
NEG
POS
POS
NEG
NEG
NEG
NEG
NEG
POS
NEG
NEG
POS
NEG
POS
NEG
NEG
POS
NEG
POS
NEG
POS
POS
POS
NEG
POS
NEG
NEG
NEG
NEG
POS
NEG
NEG
POS
POS
NEG
POS
NEG
NEG
NEG
NEG
NEG
POS
NEG
NEG
NEG
NEG
POS
NEG
NEG
POS
NEG
NEG
POS
NEG
NEG
POS
NEG
NEG
NEG
NEG
POS
POS
POS
POS
NEG
NEG
POS
POS
POS
NEG
POS
NEG
NEG
POS
NEG
POS
NEG
NEG
NEG
NEG
POS
POS
NEG
NEG
POS
NEG
POS
POS
POS
POS
POS
NEG
NEG
POS
NEG
POS
POS
NEG
NEG
NEG
POS
POS
POS
NEG
POS
POS
POS
NEG
NEG
NEG
POS
POS
NEG
NEG
NEG
NEG
POS
NEG
POS
POS
NEG
POS
NEG
POS
NEG
POS
NEG
NEG
NEG
NEG
NEG
POS
POS
NEG
POS
NEG
POS
POS
NEG
NEG
POS
NEG
POS
POS
NEG
NEG
NEG
POS
NEG
NEG
NEG
POS
NEG
POS
POS
POS
NEG
POS
POS
NEG
NEG
POS
NEG
NEG
NEG
NEG
POS
POS
POS
POS
POS
NEG
NEG
NEG
POS
NEG
NEG
POS
NEG
NEG
NEG
POS
NEG
NEG
NEG
NEG
NEG
NEG
NEG
NEG
NEG
NEG
NEG
POS
NEG
POS
NEG
POS
POS
NEG
NEG
NEG
NEG
NEG
POS
NEG
POS
NEG
NEG
NEG
POS
NEG
NEG
POS
POS
POS
POS
NEG
NEG
POS
NEG
NEG
NEG
POS
POS
NEG
NEG
NEG
POS
NEG
NEG
NEG
POS
POS
NEG
NEG
POS
NEG
POS
POS
POS
NEG
POS
POS
POS
NEG
POS
NEG
NEG
POS
NEG
POS
POS
POS
NEG
NEG
POS
POS
NEG
POS
NEG
POS
POS
NEG
NEG
NEG
POS
NEG
NEG
NEG
NEG
POS
NEG
POS
POS
POS
NEG
NEG
NEG
POS
POS
NEG
NEG
NEG
NEG
NEG
NEG
NEG
NEG
NEG
NEG
NEG
POS
POS
NEG
POS
NEG
POS
NEG
NEG
POS
POS
NEG
POS
NEG
POS
NEG
POS
NEG
POS
NEG
NEG
POS
NEG
POS
POS
POS
NEG
POS
NEG
POS
NEG
POS
POS
NEG
NEG
POS
NEG
POS
NEG
POS
POS
NEG
POS
POS
POS
NEG
NEG
NEG
NEG
NEG
POS
NEG
POS
NEG
POS
NEG
POS
NEG
POS
NEG
POS
NEG
NEG
NEG
POS
NEG
POS
POS
NEG
NEG
POS
POS
NEG
NEG
NEG
POS
NEG
NEG
POS
NEG
POS
NEG
POS
POS
POS
NEG
POS
NEG
NEG
NEG
NEG
NEG
NEG
NEG
POS
NEG
NEG
POS
POS
POS
POS
POS
NEG
NEG
POS
NEG
POS
NEG
NEG
NEG
POS
POS
NEG
POS
NEG
POS
NEG
NEG
NEG
POS
NEG
NEG
POS
POS
NEG
NEG
NEG
POS
NEG
POS
POS
POS
NEG
POS
POS
POS
NEG
NEG
POS
NEG
POS
POS
NEG
POS
POS
NEG
NEG
NEG
NEG
POS
NEG
NEG
NEG
NEG
POS
NEG
NEG
POS
POS
NEG
POS
NEG
NEG
NEG
NEG
POS
NEG
NEG
POS
POS
NEG
NEG
POS
POS
NEG
POS
NEG
POS
NEG
NEG
POS
POS
POS
POS
POS
NEG
NEG
POS
NEG
POS
POS
NEG
POS
POS
NEG
POS
POS
POS
NEG
NEG
NEG
POS
NEG
POS
NEG
NEG
NEG
NEG
NEG
NEG
NEG
POS
POS
NEG
NEG
POS
POS
NEG
POS
NEG
POS
NEG
NEG
POS
NEG
NEG
NEG
NEG
NEG
NEG
NEG
POS
NEG
POS
NEG
NEG
POS
NEG
POS
NEG
POS
NEG
POS
POS
POS
NEG
POS
POS
POS
POS
NEG
NEG
NEG
NEG
POS
NEG
NEG
NEG
NEG
POS
POS
POS
NEG
POS
POS
POS
NEG
NEG
NEG
NEG
POS
NEG
NEG
NEG
NEG
POS
NEG
NEG
POS
NEG
NEG
POS
POS
POS
NEG
POS
POS
NEG
POS
NEG
POS
POS
POS
POS
NEG
POS
NEG
POS
POS
NEG
NEG
NEG
NEG
POS
POS
NEG
NEG
POS
NEG
NEG
POS
NEG
NEG
POS
NEG
NEG
POS
POS
POS
POS
NEG
POS
POS
NEG
POS
NEG
POS
NEG
POS
NEG
NEG
POS
POS
POS
NEG
POS
NEG
NEG
POS
NEG
NEG
NEG
NEG
POS
POS
NEG
NEG
NEG
POS
NEG
NEG
NEG
NEG
POS
NEG
NEG
POS
NEG
NEG
POS
NEG
POS
NEG
NEG
POS
POS
NEG
NEG
NEG
POS
NEG
POS
NEG
NEG
POS
NEG
NEG
NEG
NEG
NEG
NEG
NEG
POS
POS
POS
POS
POS
NEG
POS
POS
NEG
POS
NEG
NEG
POS
NEG
NEG
NEG
NEG
NEG
NEG
POS
NEG
POS
NEG
NEG
POS
NEG
NEG
NEG
NEG
NEG
NEG
POS
NEG
NEG
NEG
NEG
NEG
POS
NEG
POS
NEG
NEG
NEG
NEG
NEG
NEG
POS
POS
NEG
NEG
NEG
POS
NEG
POS
POS
POS
POS
POS
POS
POS
NEG
NEG
POS
NEG
NEG
POS
POS
POS
NEG
NEG
NEG
NEG
POS
NEG
NEG
POS
POS
NEG
NEG
POS
POS
POS
NEG
NEG
POS
NEG
NEG
POS
NEG
NEG
POS
POS
NEG
NEG
NEG
NEG
POS
POS
NEG
POS
POS
NEG
NEG
POS
NEG
NEG
POS
POS
POS
POS
POS
POS
POS
NEG
NEG
POS
NEG
NEG
NEG
POS
NEG
POS
NEG
POS
NEG
POS
NEG
POS
NEG
POS
POS
POS
NEG
NEG
POS
NEG
NEG
POS
POS
POS
POS
POS
POS
POS
NEG
NEG
POS
NEG
NEG
NEG
POS
POS
POS
POS
NEG
NEG
NEG
POS
POS
POS
NEG
POS
POS
POS
NEG
POS
POS
NEG
POS
NEG
POS
POS
NEG
NEG
NEG
NEG
NEG
POS
POS
NEG
POS
NEG
POS
NEG
NEG
NEG
POS
NEG
NEG
NEG
NEG
NEG
NEG
NEG
NEG
NEG
NEG
POS
POS
NEG
NEG
NEG
NEG
POS
NEG
NEG
NEG
POS
NEG
NEG
NEG
POS
NEG
POS
POS
POS
NEG
NEG
POS
POS
NEG
POS
POS
NEG
NEG
POS
NEG
NEG
POS
NEG
POS
POS
POS
NEG
NEG
POS
NEG
POS
POS
NEG
NEG
POS
POS
NEG
POS
POS
POS
NEG
NEG
POS
POS
NEG
POS
POS
NEG
NEG
POS
NEG
POS
NEG
POS
NEG
POS
NEG
NEG
NEG
NEG
NEG
NEG
POS
POS
NEG
NEG
POS
NEG
POS
NEG
POS
POS
NEG
POS
NEG
NEG
NEG
NEG
POS
POS
NEG
POS
NEG
NEG
POS
POS
POS
NEG
NEG
NEG
POS
NEG
NEG
POS
NEG
POS
POS
POS
POS
NEG
NEG
POS
POS
NEG
POS
NEG
NEG
NEG
NEG
POS
NEG
POS
POS
POS
NEG
NEG
NEG
POS
POS
POS
POS
POS
NEG
NEG
NEG
NEG
NEG
NEG
NEG
POS
NEG
POS
POS
NEG
NEG
POS
POS
POS
POS
NEG
NEG
POS
NEG
NEG
POS
NEG
NEG
NEG
NEG
NEG
NEG
POS
NEG
POS
NEG
POS
POS
NEG
POS
NEG
POS
NEG
NEG
POS
NEG
NEG
NEG
POS
POS
NEG
POS
POS
NEG
NEG
POS
NEG
NEG
POS
POS
POS
NEG
POS
POS
NEG
POS
NEG
NEG
NEG
NEG
POS
POS
POS
POS
NEG
NEG
POS
NEG
POS
POS
NEG
NEG
NEG
NEG
NEG
NEG
NEG
POS
NEG
POS
NEG
NEG
NEG
NEG
POS
NEG
POS
NEG
NEG
NEG
NEG
NEG
POS
NEG
NEG
NEG
NEG
POS
POS
POS
POS
POS
NEG
POS
NEG
NEG
NEG
POS
POS
POS
NEG
NEG
POS
POS
NEG
POS
NEG
NEG
NEG
POS
NEG
NEG
POS
POS
POS
NEG
NEG
POS
POS
NEG
NEG
NEG
NEG
NEG
POS
POS
NEG
POS
NEG
NEG
NEG
POS
POS
NEG
POS
POS
POS
NEG
POS
NEG
POS
POS
POS
POS
POS
NEG
NEG
POS
POS
POS
NEG
POS
NEG
NEG
NEG
NEG
POS
POS
NEG
POS
POS
POS
NEG
NEG
NEG
NEG
POS
NEG
NEG
NEG
NEG
NEG
NEG
NEG
POS
NEG
NEG
NEG
NEG
NEG
POS
NEG
NEG
NEG
NEG
NEG
POS
NEG
POS
NEG
NEG
POS
NEG
POS
NEG
NEG
POS
POS
NEG
POS
POS
POS
POS
POS
NEG
NEG
NEG
NEG
NEG
NEG
POS
NEG
NEG
NEG
POS
POS
NEG
NEG
POS
POS
NEG
NEG
POS
NEG
NEG
POS
NEG
POS
NEG
NEG
POS
NEG
POS
NEG
NEG
POS
POS
NEG
NEG
POS
POS
NEG
POS
POS
POS
NEG
POS
NEG
NEG
POS
NEG
POS
POS
POS
NEG
NEG
POS
POS
NEG
POS
NEG
POS
NEG
POS
NEG
NEG
POS
NEG
POS
NEG
NEG
NEG
NEG
POS
NEG
POS
POS
NEG
POS
NEG
POS
NEG
POS
POS
NEG
NEG
POS
NEG
NEG
NEG
POS
NEG
POS
NEG
NEG
POS
POS
NEG
NEG
NEG
POS
POS
NEG
NEG
NEG
POS
POS
NEG
NEG
POS
POS
NEG
NEG
POS
POS
POS
NEG
POS
NEG
POS
NEG
NEG
NEG
POS
NEG
POS
POS
POS
POS
NEG
NEG
NEG
NEG
POS
NEG
NEG
NEG
NEG
NEG
POS
NEG
POS
POS
NEG
NEG
NEG
POS
POS
POS
POS
NEG
NEG
POS
NEG
NEG
POS
NEG
NEG
NEG
NEG
NEG
NEG
NEG
POS
NEG
POS
POS
NEG
POS
POS
NEG
NEG
POS
NEG
POS
NEG
POS
NEG
NEG
NEG
NEG
POS
NEG
NEG
NEG
NEG
NEG
NEG
NEG
NEG
POS
POS
NEG
NEG
NEG
POS
NEG
POS
NEG
NEG
POS
POS
NEG
POS
POS
POS
NEG
NEG
POS
POS
NEG
POS
POS
NEG
NEG
POS
NEG
POS
NEG
NEG
POS
NEG
POS
NEG
POS
POS
NEG
POS
NEG
NEG
POS
NEG
NEG
POS
NEG
NEG
POS
POS
NEG
NEG
NEG
NEG
POS
NEG
NEG
POS
POS
NEG
POS
POS
POS
NEG
NEG
NEG
NEG
POS
POS
POS
POS
POS
POS
POS
POS
NEG
NEG
POS
POS
POS
NEG
POS
POS
NEG
POS
POS
POS
POS
NEG
POS
NEG
NEG
POS
NEG
NEG
NEG
NEG
NEG
POS
POS
POS
POS
NEG
POS
NEG
POS
POS
POS
NEG
NEG
NEG
NEG
NEG
POS
POS
POS
NEG
NEG
NEG
NEG
POS
NEG
NEG
NEG
POS
NEG
POS
POS
POS
NEG
NEG
NEG
NEG
NEG
NEG
POS
NEG
POS
NEG
NEG
POS
NEG
NEG
NEG
POS
NEG
POS
NEG
NEG
NEG
POS
POS
NEG
POS
NEG
NEG
POS
NEG
NEG
POS
POS
NEG
NEG
POS
POS
POS
NEG
POS
POS
NEG
NEG
NEG
POS
POS
NEG
NEG
POS
POS
POS
POS
NEG
NEG
POS
POS
POS
POS
POS
POS
NEG
POS
NEG
NEG
NEG
POS
POS
NEG
POS
NEG
POS
NEG
NEG
POS
POS
POS
NEG
NEG
NEG
POS
POS
POS
NEG
NEG
NEG
NEG
POS
NEG
POS
NEG
POS
POS
NEG
NEG
NEG
NEG
NEG
NEG
POS
NEG
NEG
POS
POS
NEG
NEG
POS
POS
NEG
POS
NEG
POS
NEG
NEG
POS
NEG
NEG
POS
NEG
NEG
NEG
NEG
POS
POS
NEG
NEG
POS
NEG
NEG
POS
POS
NEG
POS
POS
NEG
POS
NEG
POS
POS
NEG
POS
POS
NEG
POS
POS
NEG
POS
POS
POS
NEG
NEG
POS
NEG
POS
POS
NEG
POS
NEG
NEG
NEG
NEG
NEG
NEG
POS
NEG
POS
NEG
NEG
POS
POS
POS
NEG
POS
POS
NEG
POS
NEG
NEG
POS
POS
NEG
POS
NEG
NEG
NEG
POS
POS
NEG
POS
POS
POS
NEG
NEG
POS
NEG
NEG
POS
POS
POS
NEG
NEG
NEG
NEG
POS
POS
POS
NEG
POS
NEG
NEG
NEG
POS
NEG
POS
NEG
NEG
NEG
POS
NEG
NEG
POS
POS
NEG
NEG
NEG
NEG
NEG
NEG
NEG
POS
NEG
POS
NEG
POS
POS
NEG
NEG
NEG
POS
NEG
POS
POS
NEG
NEG
POS
NEG
POS
POS
NEG
NEG
POS
POS
POS
POS
POS
POS
POS
POS
POS
POS
POS
POS
NEG
NEG
POS
POS
POS
POS
POS
POS
NEG
NEG
POS
NEG
POS
POS
POS
NEG
NEG
POS
NEG
NEG
NEG
NEG
NEG
NEG
POS
POS
POS
NEG
NEG
POS
POS
POS
NEG
NEG
POS
POS
POS
NEG
POS
POS
NEG
POS
POS
POS
POS
NEG
POS
NEG
POS
POS
POS
POS
NEG
NEG
NEG
NEG
NEG
POS
NEG
POS
POS
POS
POS
NEG
NEG
POS
NEG
POS
POS
POS
POS
NEG
POS
POS
NEG
NEG
POS
NEG
NEG
POS
POS
POS
NEG
POS
POS
POS
POS
NEG
NEG
NEG
POS
POS
NEG
NEG
POS
NEG
NEG
POS
POS
NEG
POS
NEG
POS
POS
NEG
POS
NEG
NEG
POS
NEG
POS
NEG
NEG
NEG
NEG
NEG
POS
POS
POS
NEG
NEG
NEG
NEG
POS
NEG
POS
POS
NEG
NEG
NEG
NEG
POS
POS
NEG
NEG
NEG
NEG
POS
NEG
NEG
POS
POS
POS
POS
NEG
POS
NEG
POS
POS
NEG
NEG
POS
NEG
NEG
POS
NEG
POS
POS
POS
NEG
NEG
NEG
POS
POS
NEG
POS
POS
POS
NEG
POS
NEG
POS
NEG
NEG
NEG
NEG
POS
NEG
POS
NEG
NEG
NEG
POS
NEG
POS
POS
POS
POS
NEG
POS
NEG
POS
NEG
POS
POS
NEG
NEG
POS
NEG
NEG
POS
NEG
NEG
NEG
NEG
POS
NEG
NEG
NEG
NEG
POS
NEG
NEG
NEG
NEG
NEG
NEG
NEG
NEG
POS
NEG
NEG
NEG
POS
POS
NEG
NEG
NEG
POS
NEG
POS
POS
POS
NEG
POS
POS
NEG
POS
NEG
POS
NEG
POS
NEG
POS
NEG
POS
NEG
NEG
NEG
NEG
POS
POS
POS
POS
NEG
POS
NEG
POS
POS
NEG
POS
NEG
NEG
NEG
NEG
NEG
NEG
POS
NEG
POS
NEG
NEG
NEG
NEG
POS
POS
NEG
NEG
NEG
NEG
NEG
NEG
POS
NEG
NEG
NEG
NEG
NEG
POS
NEG
POS
POS
NEG
NEG
NEG
NEG
NEG
NEG
POS
NEG
NEG
NEG
POS
NEG
POS
POS
NEG
NEG
NEG
NEG
NEG
POS
NEG
POS
NEG
NEG
NEG
POS
POS
NEG
POS
NEG
NEG
POS
NEG
POS
NEG
NEG
NEG
POS
POS
NEG
NEG
POS
NEG
NEG
NEG
POS
POS
NEG
POS
POS
POS
NEG
NEG
NEG
POS
POS
POS
NEG
POS
NEG
POS
NEG
POS
NEG
NEG
POS
NEG
POS
NEG
NEG
POS
NEG
POS
POS
NEG
NEG
POS
POS
POS
POS
POS
NEG
POS
NEG
NEG
NEG
POS
POS
POS
POS
NEG
NEG
NEG
POS
NEG
POS
NEG
NEG
NEG
NEG
NEG
NEG
NEG
NEG
POS
POS
NEG
POS
POS
NEG
NEG
POS
POS
NEG
NEG
POS
NEG
POS
NEG
POS
NEG
NEG
POS
NEG
NEG
NEG
NEG
POS
POS
POS
POS
NEG
NEG
NEG
NEG
POS
NEG
POS
NEG
NEG
POS
POS
POS
POS
NEG
NEG
POS
NEG
NEG
NEG
NEG
POS
NEG
NEG
POS
NEG
NEG
NEG
NEG
NEG
NEG
POS
NEG
POS
POS
POS
NEG
POS
NEG
POS
POS
NEG
NEG
NEG
POS
NEG
POS
NEG
NEG
NEG
POS
NEG
POS
NEG
POS
POS
NEG
NEG
NEG
NEG
NEG
NEG
POS
NEG
NEG
POS
NEG
NEG
POS
NEG
NEG
NEG
NEG
NEG
NEG
POS
NEG
NEG
NEG
NEG
POS
NEG
POS
NEG
POS
POS
POS
NEG
NEG
NEG
POS
NEG
NEG
POS
NEG
POS
NEG
NEG
NEG
POS
NEG
NEG
NEG
POS
NEG
POS
NEG
POS
NEG
NEG
POS
NEG
NEG
POS
POS
NEG
POS
NEG
POS
POS
POS
NEG
POS
NEG
NEG
POS
POS
POS
POS
NEG
POS
POS
POS
NEG
POS
POS
POS
NEG
POS
POS
NEG
NEG
POS
POS
NEG
NEG
NEG
NEG
POS
NEG
POS
NEG
POS
NEG
POS
POS
NEG
NEG
POS
NEG
NEG
NEG
POS
NEG
NEG
NEG
POS
NEG
POS
POS
NEG
POS
POS
POS
NEG
POS
NEG
POS
NEG
NEG
POS
NEG
POS
NEG
NEG
NEG
POS
POS
NEG
POS
POS
NEG
POS
NEG
NEG
NEG
NEG
NEG
NEG
POS
POS
POS
POS
POS
POS
POS
POS
POS
NEG
NEG
NEG
POS
POS
NEG
POS
POS
POS
POS
NEG
NEG
POS
POS
NEG
POS
NEG
POS
NEG
POS
POS
NEG
POS
POS
POS
NEG
POS
NEG
POS
POS
NEG
NEG
NEG
NEG
POS
NEG
POS
POS
NEG
NEG
NEG
NEG
POS
NEG
NEG
POS
POS
NEG
NEG
POS
POS
NEG
NEG
POS
POS
NEG
POS
NEG
NEG
POS
POS
NEG
POS
POS
NEG
NEG
NEG
POS
NEG
POS
NEG
POS
POS
POS
POS
NEG
NEG
NEG
POS
POS
POS
NEG
NEG
NEG
NEG
NEG
POS
NEG
POS
POS
POS
POS
POS
NEG
POS
NEG
POS
NEG
NEG
NEG
NEG
NEG
NEG
NEG
NEG
NEG
NEG
NEG
NEG
POS
NEG
NEG
NEG
NEG
POS
POS
POS
NEG
POS
POS
NEG
POS
POS
NEG
POS
NEG
NEG
POS
NEG
POS
NEG
NEG
POS
NEG
POS
POS
NEG
POS
NEG
NEG
POS
NEG
NEG
NEG
NEG
POS
NEG
POS
NEG
NEG
NEG
POS
NEG
POS
NEG
POS
POS
NEG
POS
POS
POS
POS
NEG
POS
POS
NEG
NEG
POS
NEG
POS
NEG
POS
POS
NEG
POS
NEG
NEG
POS
POS
POS
POS
POS
NEG
NEG
NEG
NEG
NEG
POS
NEG
POS
NEG
NEG
NEG
NEG
POS
NEG
POS
NEG
POS
POS
NEG
NEG
POS
NEG
NEG
POS
POS
NEG
NEG
NEG
POS
NEG
NEG
POS
NEG
NEG
NEG
POS
POS
NEG
POS
POS
NEG
NEG
NEG
NEG
NEG
POS
NEG
POS
POS
POS
NEG
POS
NEG
POS
POS
NEG
POS
POS
POS
NEG
NEG
NEG
POS
NEG
POS
POS
NEG
NEG
NEG
NEG
NEG
POS
POS
POS
NEG
POS
NEG
POS
POS
POS
POS
NEG
POS
POS
POS
NEG
NEG
NEG
POS
POS
NEG
NEG
NEG
NEG
POS
NEG
NEG
NEG
NEG
POS
POS
POS
NEG
NEG
NEG
POS
NEG
POS
POS
NEG
NEG
POS
POS
NEG
POS
POS
POS
NEG
POS
NEG
NEG
NEG
NEG
NEG
POS
NEG
NEG
POS
POS
POS
NEG
POS
NEG
NEG
NEG
NEG
POS
NEG
NEG
NEG
NEG
POS
NEG
NEG
NEG
NEG
NEG
POS
NEG
POS
POS
NEG
POS
POS
POS
NEG
NEG
NEG
NEG
POS
POS
NEG
POS
POS
NEG
POS
NEG
NEG
NEG
NEG
NEG
NEG
POS
NEG
NEG
POS
NEG
POS
POS
NEG
POS
POS
NEG
NEG
POS
NEG
NEG
NEG
POS
NEG
NEG
NEG
NEG
NEG
POS
POS
POS
NEG
POS
POS
POS
POS
NEG
NEG
POS
POS
POS
NEG
NEG
NEG
POS
POS
NEG
POS
POS
POS
POS
NEG
NEG
NEG
POS
NEG
POS
NEG
POS
NEG
POS
POS
NEG
POS
NEG
POS
NEG
POS
POS
POS
NEG
POS
POS
NEG
POS
POS
POS
NEG
NEG
POS
POS
POS
NEG
NEG
POS
NEG
NEG
NEG
NEG
POS
NEG
POS
POS
NEG
POS
POS
POS
NEG
NEG
POS
NEG
NEG
NEG
NEG
POS
NEG
POS
NEG
NEG
POS
NEG
NEG
POS
NEG
POS
POS
POS
NEG
NEG
NEG
NEG
POS
NEG
POS
POS
POS
POS
NEG
POS
POS
POS
NEG
POS
NEG
POS
NEG
POS
NEG
NEG
NEG
NEG
POS
POS
NEG
NEG
POS
POS
POS
POS
POS
POS
POS
NEG
POS
NEG
POS
POS
POS
POS
POS
POS
NEG
NEG
POS
POS
POS
NEG
POS
NEG
NEG
NEG
POS
NEG
POS
POS
NEG
NEG
NEG
NEG
NEG
POS
POS
POS
POS
POS
NEG
NEG
POS
POS
NEG
NEG
POS
NEG
POS
NEG
POS
POS
POS
NEG
NEG
NEG
NEG
NEG
POS
POS
POS
POS
POS
NEG
NEG
POS
NEG
POS
POS
NEG
POS
POS
POS
POS
NEG
NEG
NEG
NEG
POS
NEG
POS
POS
POS
POS
POS
POS
NEG
NEG
POS
POS
POS
POS
NEG
NEG
NEG
NEG
POS
POS
NEG
POS
NEG
POS
NEG
NEG
NEG
NEG
NEG
NEG
NEG
NEG
NEG
NEG
POS
POS
POS
NEG
POS
POS
POS
POS
POS
NEG
NEG
NEG
NEG
POS
POS
POS
NEG
NEG
NEG
POS
POS
NEG
NEG
POS
NEG
POS
POS
POS
NEG
NEG
NEG
NEG
NEG
NEG
POS
POS
POS
NEG
POS
POS
POS
NEG
NEG
NEG
POS
POS
POS
NEG
NEG
NEG
POS
POS
NEG
NEG
POS
NEG
POS
NEG
NEG
NEG
POS
POS
POS
NEG
POS
POS
POS
NEG
NEG
POS
NEG
POS
NEG
NEG
POS
NEG
NEG
POS
POS
POS
NEG
POS
POS
NEG
POS
NEG
POS
NEG
NEG
POS
POS
NEG
NEG
POS
NEG
NEG
NEG
POS
POS
POS
NEG
POS
POS
NEG
NEG
NEG
POS
NEG
NEG
POS
NEG
POS
NEG
NEG
NEG
NEG
POS
NEG
POS
NEG
NEG
NEG
NEG
NEG
POS
NEG
NEG
POS
NEG
POS
NEG
POS
POS
NEG
POS
POS
NEG
NEG
NEG
NEG
POS
NEG
NEG
POS
POS
POS
NEG
NEG
NEG
POS
NEG
NEG
NEG
NEG
POS
POS
NEG
POS
NEG
POS
NEG
NEG
NEG
POS
NEG
NEG
POS
NEG
NEG
NEG
POS
NEG
NEG
POS
POS
POS
POS
POS
POS
POS
NEG
NEG
NEG
NEG
NEG
NEG
NEG
NEG
NEG
POS
POS
NEG
NEG
NEG
POS
NEG
NEG
NEG
NEG
NEG
NEG
NEG
POS
POS
NEG
POS
POS
NEG
POS
NEG
NEG
POS
NEG
POS
NEG
NEG
POS
NEG
NEG
POS
NEG
NEG
NEG
NEG
POS
NEG
POS
POS
NEG
POS
NEG
NEG
NEG
NEG
NEG
POS
POS
NEG
NEG
POS
NEG
NEG
NEG
NEG
POS
POS
POS
POS
POS
NEG
NEG
NEG
POS
POS
POS
NEG
POS
NEG
NEG
NEG
NEG
NEG
NEG
NEG
POS
NEG
NEG
NEG
POS
POS
POS
NEG
NEG
POS
POS
POS
NEG
NEG
NEG
POS
POS
NEG
NEG
NEG
POS
POS
POS
NEG
NEG
POS
POS
NEG
NEG
NEG
POS
NEG
POS
POS
POS
NEG
NEG
NEG
NEG
NEG
POS
NEG
POS
NEG
NEG
POS
NEG
NEG
POS
NEG
NEG
POS
POS
NEG
NEG
NEG
POS
POS
POS
NEG
NEG
NEG
NEG
POS
POS
NEG
POS
NEG
POS
NEG
NEG
NEG
POS
POS
NEG
NEG
NEG
POS
NEG
POS
POS
NEG
NEG
POS
NEG
NEG
NEG
NEG
NEG
NEG
NEG
POS
NEG
NEG
POS
NEG
NEG
POS
POS
NEG
NEG
NEG
NEG
NEG
POS
NEG
NEG
NEG
POS
NEG
NEG
POS
NEG
NEG
NEG
POS
POS
POS
NEG
NEG
NEG
POS
NEG
POS
POS
NEG
POS
POS
POS
POS
NEG
NEG
POS
POS
NEG
POS
NEG
NEG
NEG
NEG
NEG
NEG
POS
POS
NEG
POS
NEG
NEG
NEG
NEG
NEG
NEG
NEG
POS
NEG
POS
POS
POS
NEG
NEG
POS
NEG
POS
POS
NEG
POS
POS
NEG
POS
NEG
POS
NEG
POS
NEG
NEG
NEG
NEG
POS
NEG
NEG
POS
POS
NEG
NEG
POS
NEG
NEG
POS
NEG
NEG
POS
NEG
NEG
POS
POS
NEG
POS
POS
NEG
POS
NEG
POS
POS
NEG
POS
NEG
NEG
POS
POS
NEG
NEG
NEG
POS
NEG
POS
POS
NEG
POS
NEG
NEG
NEG
NEG
NEG
NEG
POS
POS
POS
POS
NEG
NEG
POS
POS
POS
POS
NEG
NEG
POS
POS
POS
NEG
POS
NEG
NEG
NEG
POS
NEG
POS
POS
NEG
POS
POS
POS
NEG
POS
POS
POS
NEG
POS
POS
POS
POS
NEG
NEG
NEG
NEG
NEG
POS
NEG
NEG
NEG
POS
NEG
POS
NEG
POS
POS
POS
NEG
POS
POS
NEG
POS
NEG
NEG
NEG
NEG
NEG
NEG
NEG
POS
POS
POS
POS
POS
POS
POS
NEG
NEG
NEG
POS
NEG
NEG
NEG
NEG
NEG
NEG
NEG
POS
POS
POS
NEG
POS
POS
NEG
POS
NEG
NEG
POS
POS
NEG
NEG
NEG
NEG
POS
POS
POS
NEG
POS
NEG
POS
NEG
NEG
POS
POS
NEG
POS
POS
POS
POS
POS
NEG
POS
POS
NEG
POS
POS
NEG
POS
POS
NEG
POS
NEG
POS
POS
POS
NEG
NEG
POS
POS
POS
NEG
POS
NEG
NEG
NEG
NEG
POS
POS
NEG
POS
POS
NEG
POS
POS
NEG
POS
NEG
POS
NEG
NEG
POS
POS
POS
POS
NEG
POS
NEG
NEG
POS
NEG
NEG
NEG
POS
NEG
NEG
NEG
POS
POS
NEG
NEG
NEG
NEG
NEG
NEG
POS
POS
NEG
POS
POS
NEG
POS
POS
POS
POS
POS
NEG
POS
NEG
POS
POS
NEG
NEG
NEG
NEG
NEG
POS
POS
POS
NEG
NEG
POS
POS
POS
NEG
NEG
POS
POS
NEG
NEG
POS
NEG
NEG
NEG
NEG
NEG
POS
NEG
NEG
NEG
NEG
NEG
NEG
NEG
NEG
POS
NEG
NEG
NEG
NEG
POS
NEG
NEG
POS
POS
NEG
POS
NEG
POS
NEG
POS
NEG
POS
POS
POS
POS
NEG
NEG
POS
POS
NEG
NEG
POS
NEG
NEG
NEG
NEG
POS
POS
NEG
NEG
NEG
NEG
NEG
NEG
NEG
POS
POS
NEG
NEG
NEG
POS
NEG
POS
NEG
NEG
NEG
POS
POS
NEG
NEG
POS
POS
NEG
NEG
NEG
POS
POS
NEG
POS
POS
NEG
NEG
NEG
POS
NEG
POS
NEG
NEG
POS
POS
POS
POS
NEG
POS
POS
NEG
NEG
POS
NEG
POS
NEG
NEG
POS
NEG
NEG
NEG
NEG
NEG
POS
NEG
POS
NEG
POS
NEG
POS
POS
POS
NEG
NEG
NEG
NEG
NEG
POS
NEG
NEG
NEG
POS
POS
POS
POS
NEG
POS
NEG
NEG
NEG
NEG
POS
NEG
NEG
POS
POS
POS
NEG
POS
NEG
POS
POS
POS
NEG
NEG
POS
NEG
NEG
NEG
NEG
POS
NEG
NEG
POS
NEG
POS
NEG
NEG
POS
POS
POS
NEG
POS
POS
NEG
NEG
POS
NEG
NEG
POS
POS
NEG
NEG
NEG
NEG
POS
NEG
NEG
POS
POS
POS
POS
NEG
NEG
POS
NEG
NEG
POS
NEG
NEG
POS
NEG
NEG
POS
NEG
NEG
POS
POS
NEG
NEG
POS
NEG
POS
NEG
NEG
POS
NEG
POS
NEG
POS
POS
NEG
POS
POS
NEG
NEG
POS
NEG
NEG
NEG
POS
POS
NEG
NEG
NEG
NEG
NEG
NEG
NEG
NEG
NEG
POS
POS
NEG
NEG
NEG
POS
NEG
NEG
POS
NEG
NEG
POS
POS
NEG
NEG
NEG
POS
NEG
NEG
POS
NEG
NEG
NEG
NEG
NEG
NEG
NEG
NEG
POS
POS
NEG
NEG
NEG
NEG
POS
POS
NEG
NEG
POS
NEG
NEG
POS
NEG
POS
NEG
NEG
POS
POS
POS
POS
POS
NEG
NEG
POS
NEG
NEG
NEG
POS
POS
POS
POS
NEG
NEG
NEG
POS
POS
NEG
POS
NEG
NEG
NEG
NEG
POS
POS
POS
NEG
NEG
NEG
POS
NEG
POS
POS
POS
POS
NEG
NEG
POS
POS
NEG
NEG
NEG
POS
POS
POS
NEG
POS
POS
POS
NEG
POS
POS
NEG
NEG
NEG
NEG
POS
NEG
POS
NEG
POS
POS
POS
NEG
NEG
POS
POS
POS
POS
POS
NEG
POS
POS
POS
POS
POS
NEG
NEG
NEG
NEG
POS
NEG
POS
POS
NEG
NEG
NEG
POS
POS
POS
POS
NEG
NEG
NEG
POS
POS
NEG
POS
POS
NEG
POS
NEG
POS
POS
NEG
POS
NEG
NEG
NEG
POS
NEG
NEG
NEG
NEG
NEG
NEG
POS
POS
POS
POS
NEG
POS
POS
POS
NEG
NEG
POS
POS
NEG
POS
POS
NEG
NEG
NEG
POS
POS
POS
POS
NEG
POS
POS
NEG
NEG
NEG
POS
POS
NEG
NEG
NEG
NEG
POS
POS
POS
NEG
NEG
POS
NEG
NEG
POS
NEG
NEG
NEG
POS
POS
POS
NEG
NEG
POS
POS
POS
POS
NEG
POS
POS
NEG
POS
NEG
NEG
POS
NEG
POS
POS
NEG
NEG
NEG
POS
NEG
NEG
POS
POS
NEG
POS
POS
NEG
NEG
POS
POS
POS
NEG
NEG
NEG
POS
NEG
NEG
POS
POS
NEG
NEG
NEG
NEG
POS
NEG
NEG
POS
POS
POS
POS
POS
NEG
POS
NEG
NEG
NEG
POS
NEG
NEG
NEG
NEG
NEG
POS
POS
NEG
POS
POS
POS
POS
NEG
POS
NEG
NEG
POS
NEG
NEG
POS
POS
POS
POS
POS
NEG
NEG
NEG
POS
POS
POS
NEG
POS
POS
NEG
NEG
NEG
NEG
NEG
NEG
NEG
NEG
NEG
POS
POS
NEG
NEG
POS
NEG
NEG
POS
NEG
POS
POS
POS
NEG
POS
NEG
NEG
NEG
NEG
NEG
POS
NEG
NEG
NEG
NEG
NEG
NEG
NEG
NEG
NEG
NEG
NEG
NEG
POS
NEG
NEG
NEG
POS
POS
NEG
NEG
POS
NEG
POS
NEG
POS
NEG
POS
NEG
POS
NEG
NEG
NEG
NEG
NEG
POS
NEG
NEG
POS
POS
POS
POS
POS
POS
POS
POS
POS
NEG
NEG
NEG
POS
NEG
POS
POS
NEG
POS
POS
NEG
NEG
POS
NEG
NEG
NEG
NEG
NEG
POS
POS
NEG
POS
NEG
NEG
NEG
NEG
NEG
NEG
NEG
NEG
POS
POS
POS
NEG
NEG
NEG
NEG
POS
POS
POS
NEG
NEG
POS
POS
POS
POS
POS
NEG
NEG
NEG
POS
NEG
POS
NEG
NEG
POS
POS
POS
POS
POS
NEG
POS
NEG
POS
NEG
NEG
NEG
POS
POS
POS
NEG
POS
POS
NEG
NEG
NEG
POS
NEG
NEG
POS
NEG
POS
NEG
NEG
POS
NEG
NEG
NEG
POS
POS
NEG
NEG
POS
NEG
POS
POS
NEG
POS
NEG
NEG
NEG
POS
POS
NEG
POS
NEG
POS
POS
NEG
POS
POS
NEG
NEG
POS
POS
NEG
NEG
POS
NEG
POS
POS
NEG
POS
POS
POS
NEG
NEG
POS
POS
NEG
NEG
POS
NEG
NEG
NEG
NEG
POS
POS
NEG
POS
NEG
POS
POS
POS
POS
NEG
POS
POS
NEG
POS
POS
POS
POS
NEG
NEG
NEG
POS
POS
NEG
NEG
NEG
NEG
NEG
POS
POS
NEG
NEG
NEG
NEG
NEG
NEG
NEG
POS
NEG
NEG
NEG
POS
POS
POS
NEG
NEG
NEG
POS
POS
POS
NEG
POS
POS
NEG
POS
NEG
NEG
NEG
POS
NEG
NEG
NEG
POS
NEG
POS
NEG
POS
NEG
NEG
POS
NEG
POS
POS
NEG
NEG
NEG
NEG
NEG
POS
POS
POS
POS
POS
NEG
NEG
POS
POS
NEG
POS
NEG
NEG
NEG
POS
POS
NEG
NEG
NEG
POS
POS
POS
POS
NEG
NEG
POS
NEG
POS
NEG
POS
NEG
NEG
NEG
POS
NEG
POS
POS
POS
POS
POS
POS
NEG
NEG
NEG
NEG
POS
POS
NEG
POS
NEG
POS
POS
NEG
NEG
POS
NEG
POS
NEG
NEG
POS
NEG
POS
POS
NEG
POS
POS
NEG
NEG
NEG
NEG
POS
POS
POS
POS
POS
NEG
NEG
NEG
NEG
POS
POS
POS
NEG
POS
NEG
POS
NEG
NEG
NEG
NEG
NEG
NEG
NEG
POS
POS
POS
NEG
POS
NEG
POS
NEG
NEG
POS
NEG
NEG
POS
POS
NEG
NEG
NEG
POS
NEG
NEG
NEG
NEG
POS
NEG
POS
NEG
POS
POS
NEG
POS
POS
POS
POS
POS
POS
NEG
POS
POS
NEG
NEG
POS
NEG
POS
NEG
NEG
POS
POS
POS
POS
POS
NEG
NEG
NEG
NEG
NEG
NEG
NEG
POS
NEG
NEG
NEG
POS
POS
NEG
POS
NEG
NEG
POS
POS
NEG
POS
NEG
POS
NEG
NEG
POS
POS
POS
NEG
POS
POS
NEG
NEG
POS
NEG
NEG
POS
NEG
POS
POS
NEG
POS
NEG
NEG
POS
NEG
POS
POS
NEG
NEG
NEG
NEG
POS
NEG
NEG
POS
POS
NEG
NEG
NEG
POS
POS
NEG
NEG
NEG
POS
POS
NEG
NEG
POS
NEG
POS
POS
POS
NEG
NEG
POS
POS
NEG
NEG
POS
NEG
NEG
NEG
POS
NEG
POS
NEG
NEG
POS
POS
POS
POS
POS
POS
POS
NEG
POS
NEG
NEG
POS
NEG
NEG
NEG
NEG
NEG
POS
NEG
POS
NEG
POS
NEG
POS
POS
NEG
NEG
NEG
POS
NEG
NEG
POS
NEG
POS
POS
POS
NEG
NEG
NEG
NEG
NEG
POS
POS
NEG
NEG
POS
POS
POS
POS
NEG
POS
POS
POS
NEG
POS
POS
NEG
NEG
POS
NEG
NEG
NEG
NEG
POS
POS
POS
POS
POS
NEG
POS
NEG
NEG
NEG
NEG
POS
NEG
POS
POS
POS
POS
NEG
POS
NEG
NEG
POS
POS
NEG
NEG
NEG
POS
POS
NEG
POS
NEG
POS
NEG
NEG
POS
POS
NEG
NEG
POS
NEG
POS
NEG
POS
POS
NEG
NEG
NEG
NEG
POS
POS
NEG
NEG
NEG
POS
NEG
POS
NEG
NEG
NEG
POS
POS
POS
NEG
NEG
NEG
POS
POS
POS
NEG
NEG
NEG
NEG
NEG
NEG
POS
POS
POS
NEG
POS
NEG
POS
NEG
POS
NEG
POS
NEG
NEG
POS
NEG
NEG
POS
NEG
POS
NEG
POS
POS
POS
NEG
NEG
POS
NEG
NEG
POS
NEG
POS
POS
NEG
POS
NEG
POS
NEG
NEG
POS
NEG
POS
POS
POS
POS
POS
NEG
POS
NEG
POS
POS
POS
NEG
NEG
NEG
POS
POS
POS
NEG
POS
NEG
POS
NEG
POS
NEG
NEG
POS
POS
NEG
POS
NEG
POS
NEG
POS
NEG
POS
NEG
POS
POS
NEG
NEG
NEG
NEG
POS
NEG
POS
NEG
POS
NEG
POS
NEG
NEG
NEG
NEG
NEG
NEG
POS
NEG
POS
NEG
POS
POS
NEG
NEG
NEG
POS
POS
POS
NEG
NEG
POS
POS
NEG
NEG
POS
NEG
POS
POS
NEG
NEG
NEG
NEG
POS
POS
NEG
NEG
NEG
NEG
POS
POS
NEG
POS
NEG
NEG
NEG
POS
POS
POS
NEG
NEG
NEG
NEG
NEG
NEG
NEG
POS
POS
NEG
NEG
POS
NEG
POS
POS
POS
POS
POS
NEG
NEG
NEG
NEG
POS
NEG
NEG
NEG
NEG
POS
NEG
POS
POS
NEG
NEG
NEG
NEG
NEG
NEG
POS
NEG
POS
POS
NEG
POS
POS
POS
POS
NEG
POS
POS
POS
POS
NEG
POS
NEG
NEG
POS
POS
NEG
POS
NEG
POS
NEG
POS
POS
NEG
NEG
POS
NEG
POS
POS
NEG
POS
POS
NEG
NEG
NEG
NEG
NEG
NEG
POS
POS
POS
NEG
NEG
POS
POS
POS
NEG
POS
POS
NEG
POS
POS
POS
POS
NEG
POS
POS
POS
POS
NEG
NEG
NEG
NEG
NEG
NEG
NEG
POS
NEG
NEG
NEG
NEG
POS
POS
POS
NEG
NEG
NEG
NEG
POS
POS
POS
NEG
POS
POS
NEG
POS
NEG
NEG
NEG
NEG
NEG
NEG
POS
NEG
NEG
NEG
POS
NEG
NEG
NEG
POS
NEG
NEG
NEG
POS
POS
NEG
POS
POS
NEG
NEG
POS
NEG
POS
POS
POS
NEG
POS
NEG
POS
NEG
POS
NEG
NEG
NEG
NEG
NEG
POS
POS
NEG
POS
NEG
NEG
POS
POS
NEG
POS
NEG
NEG
POS
NEG
POS
POS
POS
NEG
POS
NEG
POS
NEG
POS
NEG
POS
POS
NEG
POS
POS
POS
NEG
NEG
NEG
POS
POS
NEG
POS
NEG
NEG
NEG
NEG
POS
NEG
POS
POS
NEG
NEG
POS
NEG
NEG
POS
NEG
POS
NEG
POS
NEG
POS
NEG
POS
POS
POS
POS
POS
POS
NEG
NEG
NEG
NEG
NEG
POS
NEG
POS
POS
NEG
POS
NEG
NEG
NEG
POS
POS
POS
NEG
NEG
NEG
POS
POS
NEG
POS
NEG
NEG
NEG
NEG
NEG
NEG
NEG
POS
NEG
POS
NEG
POS
NEG
POS
NEG
POS
POS
POS
POS
POS
POS
POS
POS
POS
NEG
NEG
POS
NEG
POS
POS
POS
NEG
NEG
POS
POS
POS
NEG
NEG
NEG
NEG
NEG
POS
POS
POS
NEG
NEG
POS
POS
POS
NEG
NEG
NEG
NEG
NEG
NEG
NEG
POS
NEG
POS
NEG
POS
NEG
NEG
NEG
POS
NEG
NEG
POS
NEG
NEG
NEG
POS
NEG
NEG
NEG
POS
NEG
POS
NEG
NEG
NEG
NEG
NEG
NEG
POS
POS
NEG
NEG
NEG
NEG
POS
NEG
POS
POS
POS
NEG
POS
NEG
NEG
POS
POS
NEG
NEG
POS
NEG
POS
POS
POS
NEG
POS
POS
NEG
POS
NEG
POS
NEG
POS
POS
POS
NEG
NEG
POS
NEG
NEG
NEG
NEG
POS
NEG
POS
POS
NEG
NEG
NEG
NEG
POS
POS
NEG
POS
NEG
NEG
NEG
NEG
POS
NEG
NEG
NEG
NEG
POS
POS
NEG
NEG
POS
POS
NEG
POS
NEG
POS
NEG
NEG
POS
NEG
NEG
NEG
POS
POS
POS
NEG
POS
POS
NEG
NEG
NEG
NEG
POS
NEG
NEG
POS
POS
NEG
NEG
POS
POS
NEG
POS
NEG
POS
NEG
NEG
NEG
POS
POS
POS
NEG
NEG
NEG
POS
NEG
POS
NEG
NEG
POS
NEG
POS
POS
POS
POS
NEG
NEG
NEG
NEG
NEG
POS
POS
POS
POS
NEG
NEG
NEG
NEG
POS
NEG
NEG
POS
NEG
POS
POS
POS
POS
NEG
POS
NEG
NEG
NEG
NEG
POS
POS
POS
NEG
POS
POS
NEG
POS
NEG
POS
POS
POS
NEG
NEG
NEG
NEG
POS
POS
NEG
NEG
NEG
NEG
NEG
POS
POS
NEG
NEG
POS
NEG
POS
POS
POS
NEG
NEG
NEG
POS
POS
NEG
POS
POS
NEG
POS
POS
NEG
POS
NEG
NEG
NEG
POS
POS
POS
NEG
NEG
POS
NEG
POS
POS
NEG
POS
NEG
POS
NEG
POS
NEG
NEG
NEG
POS
NEG
NEG
POS
POS
NEG
POS
POS
NEG
NEG
NEG
NEG
POS
POS
NEG
NEG
NEG
POS
POS
NEG
POS
NEG
POS
POS
NEG
NEG
NEG
NEG
POS
POS
NEG
NEG
NEG
NEG
NEG
POS
NEG
POS
POS
NEG
POS
NEG
NEG
POS
POS
NEG
POS
NEG
POS
NEG
NEG
POS
POS
POS
POS
POS
POS
POS
POS
POS
NEG
POS
POS
NEG
POS
POS
POS
NEG
NEG
NEG
POS
NEG
POS
NEG
POS
NEG
POS
NEG
POS
NEG
NEG
NEG
POS
POS
NEG
POS
POS
NEG
NEG
POS
NEG
NEG
POS
POS
NEG
POS
POS
NEG
POS
POS
NEG
NEG
POS
NEG
POS
NEG
NEG
NEG
NEG
NEG
POS
NEG
POS
POS
POS
POS
NEG
NEG
POS
NEG
POS
NEG
POS
NEG
POS
POS
POS
POS
POS
NEG
NEG
NEG
NEG
NEG
NEG
NEG
POS
NEG
NEG
NEG
POS
POS
POS
POS
POS
POS
NEG
POS
POS
NEG
NEG
NEG
NEG
POS
POS
NEG
NEG
POS
POS
POS
POS
NEG
POS
NEG
POS
NEG
NEG
POS
NEG
NEG
NEG
NEG
NEG
POS
POS
NEG
POS
NEG
POS
NEG
NEG
POS
NEG
NEG
POS
POS
NEG
NEG
POS
POS
POS
NEG
NEG
NEG
NEG
NEG
POS
NEG
NEG
NEG
NEG
NEG
NEG
POS
NEG
NEG
NEG
POS
NEG
POS
POS
NEG
NEG
NEG
POS
NEG
POS
POS
POS
NEG
NEG
NEG
NEG
POS
NEG
POS
POS
POS
NEG
NEG
NEG
NEG
POS
POS
NEG
NEG
NEG
POS
POS
NEG
POS
NEG
NEG
POS
POS
NEG
NEG
POS
POS
POS
NEG
NEG
NEG
NEG
NEG
POS
NEG
NEG
POS
POS
NEG
NEG
POS
POS
POS
NEG
NEG
POS
POS
POS
NEG
NEG
NEG
POS
NEG
POS
NEG
NEG
NEG
POS
NEG
NEG
POS
POS
NEG
NEG
POS
POS
POS
NEG
NEG
NEG
NEG
NEG
NEG
NEG
POS
NEG
POS
POS
NEG
NEG
POS
POS
POS
NEG
POS
NEG
NEG
NEG
POS
NEG
NEG
POS
NEG
POS
NEG
NEG
NEG
NEG
NEG
NEG
NEG
NEG
POS
NEG
POS
POS
NEG
POS
NEG
NEG
POS
POS
POS
POS
POS
POS
NEG
NEG
NEG
NEG
NEG
POS
NEG
NEG
POS
NEG
POS
NEG
POS
POS
NEG
NEG
POS
NEG
NEG
NEG
NEG
NEG
NEG
NEG
POS
NEG
NEG
NEG
NEG
NEG
POS
NEG
POS
NEG
POS
NEG
NEG
POS
NEG
POS
NEG
NEG
NEG
POS
POS
POS
POS
NEG
NEG
POS
NEG
NEG
NEG
POS
POS
NEG
POS
NEG
NEG
NEG
POS
NEG
NEG
NEG
POS
POS
POS
POS
POS
NEG
POS
NEG
POS
NEG
POS
POS
POS
NEG
NEG
NEG
POS
NEG
NEG
NEG
POS
NEG
NEG
NEG
POS
POS
NEG
NEG
POS
POS
NEG
NEG
POS
POS
POS
POS
POS
POS
POS
NEG
POS
NEG
NEG
NEG
NEG
NEG
POS
POS
POS
POS
POS
NEG
NEG
POS
POS
NEG
POS
NEG
NEG
POS
NEG
NEG
NEG
NEG
NEG
POS
NEG
POS
NEG
POS
NEG
POS
NEG
NEG
POS
POS
POS
POS
NEG
POS
POS
NEG
POS
POS
POS
NEG
NEG
NEG
POS
POS
POS
NEG
NEG
NEG
POS
NEG
POS
NEG
NEG
POS
NEG
POS
POS
NEG
POS
POS
POS
NEG
POS
NEG
NEG
NEG
POS
NEG
NEG
NEG
NEG
POS
POS
NEG
POS
NEG
POS
POS
NEG
NEG
NEG
POS
NEG
NEG
NEG
POS
NEG
NEG
POS
NEG
POS
NEG
POS
POS
POS
NEG
NEG
NEG
POS
POS
POS
NEG
POS
POS
NEG
NEG
POS
POS
NEG
NEG
NEG
NEG
NEG
POS
POS
NEG
POS
NEG
NEG
NEG
POS
NEG
NEG
POS
NEG
POS
NEG
NEG
POS
POS
NEG
POS
NEG
NEG
POS
POS
NEG
NEG
NEG
POS
NEG
POS
NEG
POS
NEG
POS
POS
POS
NEG
NEG
POS
POS
POS
POS
NEG
NEG
POS
POS
NEG
NEG
POS
NEG
NEG
NEG
NEG
NEG
NEG
NEG
NEG
NEG
POS
POS
POS
POS
POS
NEG
POS
NEG
NEG
POS
POS
POS
NEG
NEG
NEG
POS
POS
NEG
NEG
NEG
POS
POS
POS
POS
POS
NEG
NEG
NEG
NEG
POS
POS
POS
NEG
POS
NEG
POS
NEG
NEG
POS
POS
POS
NEG
NEG
NEG
POS
NEG
NEG
NEG
POS
POS
POS
POS
POS
NEG
NEG
NEG
POS
POS
NEG
POS
NEG
POS
POS
POS
POS
NEG
NEG
NEG
NEG
POS
NEG
POS
NEG
POS
NEG
POS
POS
NEG
POS
POS
NEG
POS
NEG
NEG
NEG
NEG
NEG
NEG
POS
POS
POS
NEG
POS
POS
POS
POS
NEG
POS
POS
POS
NEG
POS
NEG
POS
NEG
POS
NEG
NEG
POS
POS
POS
POS
POS
POS
NEG
NEG
POS
POS
POS
NEG
POS
NEG
NEG
NEG
NEG
POS
NEG
NEG
NEG
POS
NEG
NEG
NEG
POS
NEG
NEG
NEG
POS
POS
NEG
NEG
POS
NEG
POS
NEG
POS
NEG
NEG
NEG
POS
NEG
NEG
POS
POS
NEG
POS
NEG
NEG
NEG
POS
NEG
NEG
POS
NEG
NEG
NEG
POS
POS
NEG
NEG
NEG
NEG
POS
POS
NEG
NEG
NEG
NEG
NEG
NEG
POS
POS
POS
POS
NEG
POS
POS
NEG
POS
NEG
NEG
POS
NEG
POS
NEG
POS
NEG
NEG
POS
POS
NEG
NEG
NEG
POS
NEG
NEG
NEG
NEG
POS
NEG
NEG
POS
NEG
NEG
POS
POS
POS
NEG
NEG
NEG
POS
NEG
NEG
NEG
POS
POS
POS
POS
NEG
NEG
NEG
NEG
POS
NEG
NEG
POS
POS
NEG
POS
POS
NEG
NEG
NEG
NEG
NEG
NEG
POS
NEG
POS
NEG
POS
POS
NEG
POS
NEG
NEG
POS
POS
POS
NEG
NEG
POS
POS
POS
NEG
POS
NEG
NEG
NEG
POS
POS
POS
NEG
NEG
NEG
NEG
NEG
POS
NEG
NEG
NEG
NEG
POS
NEG
POS
NEG
POS
NEG
NEG
POS
NEG
POS
NEG
POS
NEG
NEG
NEG
POS
NEG
POS
NEG
POS
NEG
NEG
POS
POS
POS
POS
POS
NEG
POS
POS
POS
POS
NEG
NEG
POS
NEG
NEG
NEG
POS
NEG
POS
NEG
POS
POS
NEG
POS
POS
NEG
POS
NEG
NEG
NEG
NEG
NEG
NEG
POS
NEG
POS
POS
NEG
NEG
POS
POS
POS
POS
NEG
NEG
NEG
POS
NEG
NEG
POS
POS
NEG
POS
NEG
POS
POS
NEG
NEG
POS
NEG
NEG
POS
POS
NEG
NEG
NEG
NEG
NEG
POS
NEG
NEG
NEG
POS
NEG
POS
NEG
POS
NEG
NEG
NEG
NEG
POS
NEG
NEG
NEG
POS
NEG
POS
NEG
POS
NEG
NEG
NEG
POS
NEG
POS
POS
POS
POS
NEG
POS
POS
NEG
POS
NEG
NEG
POS
POS
POS
NEG
NEG
NEG
POS
POS
NEG
NEG
NEG
POS
NEG
NEG
NEG
POS
POS
POS
NEG
NEG
NEG
POS
NEG
NEG
POS
NEG
NEG
NEG
POS
NEG
NEG
POS
NEG
NEG
NEG
POS
POS
NEG
POS
NEG
POS
NEG
NEG
NEG
NEG
POS
NEG
NEG
NEG
POS
POS
POS
NEG
NEG
POS
NEG
POS
NEG
POS
NEG
NEG
NEG
NEG
NEG
POS
NEG
NEG
POS
POS
NEG
NEG
POS
NEG
POS
POS
POS
POS
NEG
POS
NEG
NEG
NEG
NEG
POS
NEG
NEG
NEG
POS
NEG
NEG
POS
POS
POS
POS
NEG
POS
NEG
POS
POS
POS
NEG
NEG
NEG
NEG
NEG
NEG
POS
POS
NEG
NEG
NEG
NEG
POS
POS
NEG
NEG
POS
NEG
NEG
NEG
NEG
POS
POS
POS
NEG
POS
NEG
NEG
POS
NEG
NEG
NEG
POS
POS
NEG
NEG
NEG
NEG
POS
POS
POS
POS
NEG
POS
NEG
POS
NEG
POS
NEG
NEG
POS
POS
POS
POS
POS
NEG
NEG
POS
NEG
NEG
NEG
NEG
NEG
NEG
NEG
NEG
POS
POS
NEG
NEG
POS
NEG
POS
NEG
POS
POS
NEG
NEG
POS
POS
NEG
NEG
NEG
NEG
NEG
NEG
NEG
POS
POS
NEG
POS
NEG
POS
POS
NEG
NEG
POS
NEG
POS
POS
NEG
NEG
POS
NEG
NEG
POS
NEG
NEG
NEG
POS
POS
POS
POS
POS
NEG
NEG
NEG
NEG
POS
NEG
NEG
NEG
NEG
NEG
POS
POS
POS
NEG
NEG
NEG
NEG
POS
POS
NEG
NEG
POS
POS
POS
NEG
POS
POS
NEG
POS
POS
POS
POS
POS
POS
POS
POS
POS
NEG
POS
NEG
NEG
POS
POS
POS
NEG
NEG
NEG
POS
NEG
NEG
POS
NEG
POS
NEG
POS
NEG
NEG
POS
NEG
NEG
POS
NEG
NEG
POS
POS
NEG
NEG
POS
NEG
POS
POS
NEG
POS
POS
NEG
NEG
NEG
NEG
POS
NEG
NEG
NEG
POS
NEG
NEG
POS
POS
NEG
POS
NEG
POS
NEG
NEG
POS
POS
NEG
POS
NEG
NEG
POS
NEG
NEG
NEG
NEG
NEG
POS
POS
NEG
NEG
POS
NEG
NEG
POS
POS
NEG
NEG
POS
POS
NEG
NEG
NEG
POS
POS
NEG
NEG
POS
NEG
NEG
NEG
NEG
POS
POS
NEG
POS
NEG
NEG
NEG
POS
NEG
POS
NEG
NEG
POS
NEG
POS
POS
POS
POS
NEG
NEG
POS
POS
NEG
NEG
NEG
POS
POS
NEG
POS
NEG
POS
NEG
POS
NEG
POS
NEG
NEG
POS
NEG
POS
NEG
NEG
POS
NEG
NEG
NEG
NEG
NEG
NEG
POS
POS
POS
NEG
POS
NEG
NEG
POS
NEG
POS
POS
POS
POS
NEG
NEG
POS
POS
POS
NEG
POS
NEG
POS
NEG
NEG
POS
POS
POS
POS
POS
POS
POS
NEG
NEG
POS
POS
POS
NEG
NEG
NEG
NEG
POS
NEG
POS
POS
NEG
NEG
NEG
POS
NEG
POS
NEG
NEG
NEG
NEG
POS
POS
NEG
NEG
POS
NEG
POS
POS
POS
POS
NEG
NEG
POS
NEG
NEG
NEG
POS
POS
NEG
NEG
NEG
NEG
NEG
NEG
NEG
NEG
NEG
NEG
NEG
POS
POS
NEG
NEG
NEG
NEG
POS
POS
NEG
NEG
NEG
POS
NEG
POS
NEG
POS
NEG
NEG
NEG
NEG
POS
POS
POS
NEG
NEG
POS
POS
POS
NEG
NEG
NEG
POS
NEG
NEG
NEG
NEG
NEG
POS
NEG
NEG
POS
POS
NEG
NEG
NEG
NEG
POS
POS
NEG
NEG
POS
POS
POS
NEG
NEG
NEG
NEG
POS
NEG
POS
POS
NEG
POS
NEG
NEG
NEG
NEG
NEG
POS
NEG
NEG
NEG
NEG
POS
NEG
NEG
NEG
NEG
POS
NEG
NEG
NEG
NEG
NEG
NEG
POS
NEG
NEG
POS
POS
POS
NEG
NEG
NEG
POS
NEG
POS
POS
POS
POS
NEG
POS
NEG
NEG
NEG
POS
NEG
NEG
POS
NEG
POS
NEG
NEG
NEG
POS
NEG
POS
POS
NEG
POS
NEG
NEG
POS
NEG
NEG
NEG
NEG
NEG
POS
NEG
NEG
NEG
NEG
NEG
NEG
NEG
NEG
NEG
NEG
POS
POS
NEG
POS
NEG
NEG
POS
POS
NEG
NEG
POS
POS
NEG
POS
POS
NEG
NEG
POS
NEG
POS
POS
NEG
POS
NEG
POS
POS
POS
NEG
POS
NEG
POS
NEG
POS
NEG
POS
NEG
POS
NEG
POS
POS
NEG
POS
POS
NEG
NEG
NEG
NEG
NEG
NEG
POS
POS
NEG
POS
POS
NEG
POS
NEG
NEG
NEG
NEG
NEG
POS
POS
NEG
POS
NEG
POS
POS
NEG
NEG
POS
NEG
NEG
NEG
POS
POS
NEG
NEG
NEG
POS
POS
POS
NEG
NEG
NEG
NEG
POS
POS
POS
NEG
NEG
NEG
NEG
NEG
POS
POS
NEG
NEG
NEG
POS
NEG
NEG
POS
POS
NEG
POS
POS
POS
NEG
NEG
NEG
NEG
POS
NEG
POS
POS
POS
NEG
NEG
NEG
NEG
POS
NEG
POS
NEG
NEG
NEG
NEG
POS
NEG
POS
NEG
NEG
POS
POS
POS
NEG
NEG
POS
NEG
NEG
POS
NEG
NEG
NEG
POS
NEG
NEG
POS
NEG
NEG
NEG
NEG
NEG
POS
POS
NEG
NEG
NEG
POS
NEG
NEG
POS
NEG
NEG
POS
NEG
NEG
POS
POS
POS
NEG
POS
NEG
NEG
POS
NEG
POS
NEG
NEG
NEG
NEG
POS
NEG
NEG
NEG
NEG
NEG
NEG
NEG
NEG
NEG
NEG
POS
POS
NEG
NEG
POS
POS
NEG
POS
NEG
POS
POS
POS
NEG
NEG
NEG
POS
POS
NEG
NEG
POS
NEG
NEG
POS
POS
POS
NEG
NEG
NEG
NEG
POS
NEG
POS
NEG
NEG
NEG
NEG
NEG
NEG
POS
NEG
NEG
NEG
NEG
POS
NEG
POS
POS
NEG
NEG
NEG
NEG
NEG
POS
POS
NEG
POS
NEG
POS
NEG
POS
NEG
NEG
POS
NEG
NEG
POS
POS
NEG
NEG
POS
NEG
POS
POS
POS
POS
NEG
POS
NEG
POS
POS
NEG
NEG
POS
POS
POS
NEG
NEG
NEG
NEG
NEG
POS
NEG
POS
NEG
NEG
POS
NEG
NEG
POS
POS
POS
NEG
NEG
POS
POS
POS
POS
NEG
POS
POS
NEG
POS
POS
NEG
NEG
POS
NEG
POS
POS
POS
POS
NEG
NEG
NEG
NEG
NEG
NEG
NEG
NEG
POS
NEG
POS
NEG
POS
NEG
NEG
NEG
NEG
POS
POS
NEG
POS
POS
POS
POS
POS
NEG
POS
NEG
NEG
NEG
NEG
POS
POS
NEG
POS
POS
NEG
NEG
NEG
POS
POS
NEG
NEG
POS
POS
NEG
NEG
POS
POS
NEG
POS
POS
NEG
POS
POS
NEG
POS
POS
NEG
POS
POS
NEG
POS
POS
NEG
NEG
POS
POS
NEG
NEG
POS
NEG
POS
NEG
NEG
NEG
POS
NEG
NEG
NEG
POS
POS
NEG
POS
NEG
POS
POS
POS
POS
NEG
NEG
POS
POS
NEG
POS
POS
NEG
POS
POS
NEG
POS
POS
NEG
POS
NEG
NEG
NEG
POS
POS
POS
NEG
POS
NEG
POS
POS
POS
POS
POS
NEG
NEG
NEG
NEG
NEG
NEG
NEG
POS
NEG
NEG
NEG
POS
NEG
POS
POS
POS
NEG
NEG
POS
NEG
POS
NEG
POS
NEG
POS
POS
NEG
POS
NEG
POS
NEG
POS
NEG
POS
POS
NEG
POS
POS
NEG
POS
NEG
POS
NEG
POS
POS
NEG
POS
NEG
NEG
NEG
NEG
NEG
POS
NEG
NEG
NEG
NEG
NEG
NEG
NEG
POS
POS
NEG
POS
NEG
NEG
POS
POS
POS
POS
POS
POS
POS
NEG
POS
POS
NEG
NEG
NEG
POS
NEG
NEG
NEG
NEG
POS
POS
POS
NEG
POS
NEG
POS
NEG
NEG
NEG
POS
NEG
NEG
NEG
NEG
NEG
NEG
NEG
NEG
NEG
POS
NEG
NEG
NEG
NEG
POS
POS
NEG
POS
POS
POS
NEG
NEG
NEG
NEG
NEG
NEG
POS
NEG
NEG
POS
NEG
NEG
NEG
NEG
POS
NEG
POS
NEG
NEG
POS
POS
POS
POS
NEG
NEG
POS
NEG
POS
POS
POS
NEG
POS
NEG
POS
NEG
POS
POS
NEG
POS
NEG
NEG
NEG
NEG
NEG
POS
NEG
NEG
NEG
POS
POS
NEG
NEG
NEG
NEG
POS
NEG
NEG
POS
POS
NEG
POS
NEG
NEG
NEG
POS
NEG
NEG
NEG
NEG
POS
POS
POS
POS
NEG
POS
NEG
POS
POS
NEG
NEG
NEG
POS
NEG
NEG
POS
NEG
NEG
POS
POS
POS
POS
POS
NEG
POS
POS
NEG
NEG
POS
POS
NEG
POS
POS
POS
NEG
POS
POS
POS
NEG
POS
NEG
POS
NEG
NEG
NEG
POS
POS
POS
NEG
NEG
NEG
NEG
POS
NEG
NEG
POS
POS
POS
POS
NEG
NEG
NEG
NEG
POS
NEG
NEG
POS
POS
NEG
NEG
NEG
NEG
POS
POS
NEG
NEG
POS
POS
POS
NEG
POS
POS
NEG
POS
NEG
NEG
NEG
NEG
POS
NEG
NEG
POS
POS
POS
NEG
POS
POS
POS
POS
POS
POS
POS
NEG
POS
NEG
POS
POS
NEG
POS
POS
NEG
POS
NEG
NEG
NEG
NEG
NEG
POS
POS
NEG
POS
NEG
NEG
POS
NEG
NEG
POS
NEG
POS
NEG
POS
NEG
POS
NEG
NEG
POS
POS
NEG
NEG
POS
NEG
NEG
NEG
NEG
POS
NEG
POS
NEG
POS
POS
POS
NEG
NEG
NEG
POS
POS
NEG
NEG
NEG
NEG
POS
NEG
NEG
POS
POS
NEG
POS
NEG
POS
NEG
NEG
POS
POS
POS
NEG
POS
POS
POS
NEG
NEG
NEG
NEG
POS
NEG
POS
NEG
NEG
POS
NEG
POS
POS
POS
NEG
NEG
POS
NEG
NEG
NEG
NEG
NEG
POS
POS
NEG
NEG
NEG
NEG
NEG
NEG
POS
POS
POS
POS
NEG
POS
NEG
POS
NEG
POS
NEG
NEG
POS
NEG
NEG
NEG
POS
POS
NEG
NEG
NEG
NEG
POS
NEG
NEG
NEG
POS
POS
NEG
POS
POS
NEG
NEG
NEG
POS
NEG
POS
POS
NEG
NEG
NEG
POS
NEG
NEG
NEG
POS
POS
POS
POS
POS
POS
POS
POS
NEG
NEG
POS
POS
NEG
NEG
POS
POS
POS
NEG
NEG
NEG
POS
NEG
NEG
POS
NEG
POS
NEG
POS
POS
NEG
NEG
NEG
POS
NEG
NEG
POS
NEG
NEG
POS
NEG
POS
POS
POS
NEG
POS
POS
POS
NEG
NEG
POS
POS
NEG
NEG
NEG
NEG
POS
POS
POS
NEG
POS
NEG
POS
NEG
POS
POS
POS
POS
POS
POS
NEG
POS
NEG
POS
POS
NEG
NEG
NEG
POS
POS
POS
NEG
POS
POS
NEG
POS
POS
NEG
POS
POS
NEG
NEG
NEG
POS
NEG
POS
NEG
POS
POS
NEG
NEG
POS
NEG
POS
POS
NEG
POS
NEG
NEG
NEG
POS
NEG
NEG
POS
NEG
POS
NEG
POS
NEG
POS
POS
POS
NEG
NEG
POS
POS
NEG
NEG
NEG
POS
POS
NEG
POS
POS
NEG
POS
POS
NEG
NEG
POS
NEG
POS
POS
NEG
NEG
NEG
NEG
POS
POS
POS
NEG
NEG
POS
POS
NEG
NEG
NEG
POS
NEG
NEG
POS
NEG
POS
NEG
NEG
POS
NEG
POS
POS
POS
POS
NEG
NEG
POS
NEG
NEG
POS
NEG
POS
NEG
POS
POS
NEG
NEG
NEG
POS
NEG
NEG
POS
NEG
NEG
NEG
NEG
NEG
POS
POS
POS
POS
POS
POS
POS
POS
POS
POS
POS
POS
POS
NEG
NEG
POS
NEG
NEG
POS
POS
POS
POS
NEG
NEG
NEG
POS
NEG
POS
NEG
POS
NEG
POS
NEG
POS
POS
NEG
NEG
NEG
NEG
NEG
NEG
POS
NEG
POS
NEG
NEG
POS
NEG
NEG
POS
POS
POS
POS
NEG
POS
NEG
POS
NEG
POS
POS
POS
NEG
NEG
POS
NEG
NEG
NEG
NEG
NEG
POS
POS
POS
NEG
NEG
NEG
NEG
NEG
POS
POS
NEG
NEG
NEG
POS
NEG
POS
NEG
POS
POS
NEG
NEG
NEG
NEG
NEG
POS
POS
NEG
NEG
NEG
POS
NEG
NEG
NEG
POS
NEG
NEG
NEG
POS
NEG
POS
NEG
POS
NEG
NEG
POS
NEG
NEG
POS
NEG
NEG
POS
NEG
NEG
POS
NEG
POS
POS
POS
POS
POS
NEG
NEG
NEG
NEG
POS
NEG
NEG
NEG
POS
POS
NEG
NEG
NEG
NEG
NEG
POS
NEG
POS
NEG
NEG
POS
NEG
NEG
POS
NEG
NEG
NEG
POS
NEG
POS
NEG
POS
POS
NEG
POS
POS
POS
NEG
POS
POS
POS
NEG
POS
NEG
NEG
NEG
NEG
NEG
POS
NEG
NEG
POS
POS
NEG
POS
NEG
POS
NEG
NEG
POS
POS
POS
NEG
POS
NEG
POS
NEG
POS
POS
POS
NEG
POS
POS
NEG
POS
NEG
NEG
NEG
NEG
NEG
POS
POS
NEG
NEG
POS
NEG
POS
NEG
POS
POS
POS
NEG
NEG
POS
NEG
POS
POS
POS
POS
NEG
NEG
NEG
POS
NEG
POS
POS
POS
POS
NEG
NEG
NEG
POS
POS
NEG
POS
NEG
NEG
POS
NEG
POS
NEG
NEG
NEG
NEG
POS
POS
POS
NEG
POS
POS
POS
NEG
NEG
POS
NEG
NEG
NEG
POS
POS
NEG
NEG
NEG
NEG
NEG
POS
NEG
NEG
NEG
NEG
NEG
POS
POS
NEG
POS
POS
NEG
POS
POS
POS
NEG
POS
POS
NEG
NEG
POS
POS
POS
POS
NEG
NEG
POS
NEG
POS
POS
POS
NEG
NEG
POS
POS
NEG
NEG
POS
POS
NEG
POS
POS
NEG
POS
POS
NEG
POS
NEG
NEG
NEG
NEG
POS
NEG
POS
NEG
POS
NEG
NEG
NEG
POS
POS
NEG
NEG
POS
POS
POS
NEG
NEG
POS
NEG
POS
NEG
NEG
POS
NEG
NEG
NEG
NEG
NEG
NEG
NEG
NEG
POS
POS
POS
NEG
NEG
POS
POS
NEG
NEG
NEG
POS
POS
NEG
NEG
POS
NEG
NEG
POS
NEG
NEG
NEG
NEG
NEG
POS
NEG
NEG
NEG
POS
NEG
POS
POS
POS
NEG
NEG
NEG
NEG
NEG
POS
POS
NEG
NEG
POS
POS
NEG
NEG
NEG
NEG
NEG
POS
NEG
POS
POS
POS
NEG
POS
NEG
NEG
NEG
POS
NEG
NEG
POS
POS
NEG
POS
NEG
POS
NEG
NEG
POS
NEG
NEG
POS
NEG
NEG
NEG
NEG
NEG
NEG
NEG
POS
NEG
NEG
NEG
POS
POS
NEG
POS
POS
NEG
NEG
POS
POS
NEG
NEG
POS
NEG
POS
NEG
POS
NEG
POS
NEG
NEG
NEG
NEG
NEG
POS
POS
POS
NEG
NEG
NEG
NEG
POS
NEG
POS
NEG
NEG
NEG
NEG
NEG
POS
NEG
POS
NEG
NEG
NEG
POS
NEG
NEG
POS
POS
NEG
POS
NEG
POS
POS
NEG
NEG
NEG
NEG
POS
NEG
NEG
NEG
POS
NEG
POS
POS
POS
POS
NEG
POS
POS
NEG
NEG
NEG
POS
POS
NEG
NEG
NEG
NEG
NEG
POS
POS
NEG
NEG
POS
POS
POS
POS
NEG
NEG
NEG
POS
POS
NEG
NEG
NEG
NEG
POS
POS
POS
POS
NEG
POS
NEG
NEG
NEG
POS
POS
POS
POS
NEG
POS
NEG
NEG
POS
POS
NEG
POS
POS
NEG
NEG
NEG
NEG
NEG
POS
NEG
POS
NEG
NEG
POS
NEG
NEG
POS
NEG
POS
NEG
POS
NEG
NEG
NEG
NEG
NEG
NEG
NEG
POS
NEG
POS
NEG
NEG
POS
POS
POS
POS
NEG
POS
POS
POS
NEG
POS
NEG
NEG
POS
NEG
NEG
NEG
NEG
NEG
NEG
NEG
POS
POS
NEG
POS
POS
NEG
POS
NEG
POS
POS
NEG
POS
POS
NEG
NEG
NEG
POS
POS
NEG
NEG
NEG
NEG
POS
NEG
POS
POS
POS
NEG
NEG
NEG
NEG
POS
NEG
POS
POS
NEG
NEG
NEG
NEG
POS
NEG
NEG
POS
POS
POS
POS
POS
POS
NEG
NEG
POS
NEG
NEG
NEG
POS
POS
NEG
POS
NEG
NEG
NEG
NEG
NEG
NEG
NEG
NEG
POS
NEG
NEG
NEG
NEG
POS
POS
NEG
POS
NEG
NEG
NEG
NEG
NEG
NEG
POS
NEG
NEG
POS
NEG
POS
NEG
NEG
POS
POS
NEG
POS
NEG
POS
NEG
POS
POS
POS
NEG
POS
NEG
NEG
NEG
NEG
POS
NEG
POS
POS
POS
NEG
POS
POS
NEG
POS
POS
POS
NEG
POS
NEG
NEG
POS
NEG
NEG
POS
NEG
NEG
NEG
POS
NEG
POS
POS
NEG
NEG
NEG
POS
POS
POS
NEG
POS
POS
NEG
NEG
POS
POS
NEG
POS
NEG
NEG
NEG
NEG
POS
NEG
POS
NEG
NEG
NEG
POS
POS
POS
NEG
NEG
POS
NEG
POS
NEG
NEG
POS
NEG
POS
POS
NEG
NEG
NEG
NEG
POS
NEG
POS
POS
POS
NEG
POS
NEG
NEG
POS
POS
POS
NEG
NEG
POS
NEG
NEG
POS
NEG
NEG
POS
POS
POS
POS
POS
NEG
POS
POS
POS
NEG
NEG
POS
NEG
NEG
NEG
NEG
NEG
POS
NEG
POS
POS
POS
POS
NEG
NEG
NEG
NEG
NEG
NEG
NEG
NEG
NEG
POS
POS
POS
NEG
POS
POS
NEG
POS
POS
NEG
NEG
NEG
NEG
NEG
POS
NEG
POS
NEG
NEG
NEG
POS
POS
POS
NEG
POS
NEG
NEG
POS
POS
POS
POS
POS
NEG
POS
NEG
NEG
NEG
NEG
POS
POS
NEG
NEG
NEG
NEG
NEG
POS
NEG
NEG
NEG
POS
NEG
POS
POS
NEG
POS
NEG
NEG
NEG
NEG
POS
NEG
NEG
NEG
POS
POS
POS
NEG
POS
NEG
POS
NEG
NEG
POS
POS
NEG
NEG
POS
NEG
POS
POS
POS
NEG
NEG
POS
NEG
POS
NEG
POS
NEG
POS
NEG
NEG
POS
NEG
NEG
NEG
NEG
POS
NEG
POS
POS
POS
POS
POS
NEG
NEG
POS
NEG
POS
POS
NEG
NEG
NEG
NEG
POS
NEG
POS
NEG
POS
POS
POS
NEG
NEG
NEG
POS
NEG
NEG
NEG
NEG
POS
POS
NEG
NEG
NEG
POS
NEG
NEG
NEG
POS
NEG
POS
NEG
NEG
POS
POS
NEG
NEG
POS
POS
POS
NEG
NEG
NEG
NEG
POS
POS
NEG
POS
POS
POS
POS
POS
NEG
NEG
POS
NEG
POS
POS
POS
NEG
POS
POS
NEG
NEG
NEG
NEG
NEG
POS
POS
NEG
POS
POS
POS
NEG
NEG
NEG
NEG
POS
POS
POS
NEG
POS
NEG
POS
NEG
POS
NEG
NEG
NEG
POS
POS
POS
NEG
POS
POS
NEG
NEG
NEG
POS
POS
POS
POS
POS
POS
NEG
NEG
POS
NEG
POS
NEG
POS
NEG
NEG
NEG
NEG
NEG
NEG
NEG
NEG
NEG
NEG
POS
NEG
POS
NEG
POS
POS
NEG
POS
NEG
NEG
POS
NEG
NEG
NEG
POS
NEG
NEG
NEG
POS
NEG
POS
POS
POS
NEG
POS
NEG
NEG
NEG
NEG
POS
POS
NEG
POS
POS
NEG
NEG
NEG
POS
POS
NEG
POS
NEG
POS
NEG
NEG
POS
NEG
POS
NEG
NEG
POS
POS
NEG
POS
POS
NEG
NEG
NEG
NEG
POS
NEG
NEG
NEG
POS
NEG
NEG
POS
NEG
POS
NEG
NEG
POS
POS
NEG
POS
POS
NEG
POS
NEG
NEG
POS
POS
POS
POS
NEG
NEG
POS
NEG
POS
POS
NEG
NEG
NEG
POS
NEG
NEG
POS
NEG
POS
NEG
NEG
NEG
POS
POS
NEG
POS
NEG
NEG
NEG
POS
NEG
POS
NEG
POS
POS
POS
NEG
POS
NEG
NEG
POS
NEG
POS
POS
NEG
POS
POS
NEG
NEG
POS
NEG
POS
NEG
POS
POS
NEG
NEG
POS
POS
POS
NEG
POS
NEG
NEG
NEG
NEG
NEG
POS
NEG
NEG
NEG
POS
POS
POS
POS
POS
NEG
POS
NEG
POS
POS
NEG
NEG
NEG
NEG
POS
NEG
POS
POS
POS
POS
NEG
POS
NEG
NEG
NEG
NEG
NEG
NEG
NEG
NEG
POS
POS
POS
NEG
NEG
POS
POS
NEG
NEG
POS
POS
POS
NEG
POS
POS
NEG
NEG
POS
NEG
POS
POS
NEG
NEG
NEG
NEG
POS
POS
NEG
NEG
NEG
POS
NEG
NEG
POS
POS
POS
NEG
NEG
POS
NEG
NEG
NEG
NEG
NEG
POS
POS
POS
POS
NEG
POS
NEG
POS
NEG
NEG
POS
NEG
POS
NEG
POS
POS
NEG
POS
NEG
NEG
POS
POS
POS
POS
NEG
NEG
NEG
NEG
POS
NEG
NEG
POS
NEG
NEG
NEG
NEG
NEG
NEG
NEG
POS
POS
POS
POS
POS
POS
POS
POS
POS
NEG
POS
NEG
POS
POS
NEG
NEG
NEG
NEG
NEG
POS
NEG
POS
NEG
NEG
POS
NEG
NEG
NEG
NEG
NEG
NEG
POS
POS
POS
POS
POS
NEG
POS
POS
POS
NEG
NEG
POS
NEG
NEG
POS
POS
NEG
POS
NEG
NEG
NEG
POS
NEG
NEG
NEG
POS
POS
POS
POS
POS
POS
POS
NEG
NEG
NEG
NEG
NEG
POS
NEG
POS
POS
NEG
POS
NEG
POS
NEG
POS
POS
NEG
POS
NEG
POS
NEG
NEG
NEG
POS
POS
NEG
POS
POS
NEG
NEG
NEG
POS
POS
NEG
POS
POS
POS
POS
NEG
NEG
NEG
NEG
POS
POS
NEG
POS
POS
NEG
NEG
POS
POS
NEG
POS
NEG
POS
POS
NEG
NEG
POS
POS
NEG
POS
NEG
NEG
POS
NEG
NEG
POS
POS
POS
NEG
POS
NEG
NEG
NEG
POS
NEG
NEG
POS
POS
NEG
POS
NEG
NEG
POS
POS
NEG
NEG
NEG
NEG
NEG
NEG
NEG
NEG
POS
POS
NEG
NEG
NEG
NEG
POS
NEG
NEG
NEG
POS
POS
NEG
NEG
NEG
POS
NEG
NEG
NEG
NEG
POS
NEG
NEG
POS
POS
POS
POS
NEG
NEG
NEG
NEG
NEG
NEG
NEG
NEG
POS
POS
NEG
NEG
POS
NEG
NEG
NEG
NEG
NEG
NEG
NEG
POS
NEG
POS
POS
POS
POS
POS
NEG
POS
NEG
POS
POS
NEG
POS
POS
NEG
POS
POS
POS
POS
POS
POS
NEG
NEG
NEG
NEG
NEG
POS
POS
NEG
NEG
POS
NEG
NEG
NEG
NEG
POS
NEG
NEG
POS
POS
POS
NEG
POS
NEG
POS
NEG
POS
POS
POS
NEG
NEG
POS
NEG
NEG
NEG
NEG
POS
POS
NEG
NEG
NEG
POS
NEG
NEG
POS
NEG
POS
POS
NEG
NEG
POS
NEG
NEG
NEG
POS
POS
NEG
NEG
NEG
NEG
POS
NEG
NEG
NEG
POS
POS
POS
NEG
NEG
NEG
POS
NEG
POS
NEG
NEG
NEG
NEG
NEG
POS
POS
NEG
POS
NEG
NEG
POS
POS
NEG
NEG
POS
NEG
POS
NEG
POS
NEG
NEG
POS
POS
NEG
NEG
POS
POS
NEG
POS
NEG
NEG
NEG
POS
POS
POS
NEG
NEG
POS
NEG
NEG
NEG
NEG
NEG
POS
NEG
NEG
NEG
POS
POS
POS
POS
POS
POS
POS
NEG
NEG
NEG
POS
POS
NEG
POS
NEG
POS
POS
POS
POS
POS
NEG
POS
NEG
NEG
POS
POS
NEG
NEG
NEG
NEG
NEG
NEG
NEG
NEG
NEG
NEG
NEG
NEG
NEG
NEG
NEG
NEG
NEG
NEG
NEG
NEG
POS
POS
POS
POS
NEG
NEG
NEG
NEG
POS
POS
NEG
NEG
POS
POS
POS
POS
NEG
NEG
NEG
NEG
NEG
NEG
POS
POS
POS
NEG
NEG
POS
NEG
POS
NEG
POS
NEG
POS
NEG
NEG
POS
POS
NEG
NEG
NEG
NEG
POS
NEG
NEG
NEG
POS
POS
NEG
NEG
NEG
NEG
POS
POS
NEG
POS
NEG
NEG
NEG
NEG
NEG
NEG
POS
NEG
POS
NEG
POS
NEG
NEG
POS
POS
NEG
NEG
NEG
NEG
POS
NEG
POS
POS
POS
NEG
NEG
NEG
POS
NEG
NEG
NEG
NEG
POS
POS
NEG
NEG
NEG
POS
POS
POS
POS
NEG
POS
POS
NEG
POS
NEG
NEG
NEG
POS
POS
POS
NEG
POS
NEG
POS
NEG
NEG
POS
POS
NEG
NEG
POS
POS
NEG
POS
NEG
NEG
POS
POS
NEG
POS
NEG
NEG
NEG
NEG
NEG
POS
POS
NEG
NEG
NEG
POS
POS
NEG
NEG
NEG
NEG
NEG
NEG
NEG
POS
POS
NEG
NEG
NEG
POS
NEG
NEG
POS
POS
NEG
POS
POS
NEG
NEG
POS
POS
NEG
NEG
POS
NEG
NEG
POS
POS
NEG
NEG
NEG
NEG
NEG
NEG
POS
POS
POS
NEG
POS
POS
POS
POS
POS
NEG
POS
POS
NEG
POS
NEG
NEG
NEG
NEG
NEG
POS
NEG
POS
NEG
NEG
POS
POS
NEG
NEG
POS
NEG
NEG
NEG
POS
NEG
POS
NEG
NEG
NEG
POS
POS
POS
NEG
POS
NEG
NEG
NEG
POS
POS
POS
POS
POS
POS
POS
NEG
POS
POS
POS
NEG
NEG
NEG
NEG
POS
NEG
NEG
POS
POS
POS
POS
POS
NEG
POS
POS
POS
NEG
NEG
POS
POS
NEG
POS
NEG
NEG
POS
NEG
POS
POS
POS
NEG
NEG
NEG
NEG
NEG
POS
NEG
POS
POS
NEG
POS
NEG
NEG
POS
POS
NEG
NEG
NEG
POS
NEG
POS
NEG
POS
NEG
POS
NEG
NEG
POS
POS
POS
POS
NEG
POS
NEG
NEG
NEG
NEG
NEG
POS
NEG
NEG
NEG
NEG
NEG
NEG
NEG
POS
NEG
NEG
NEG
NEG
NEG
POS
NEG
POS
POS
NEG
POS
POS
NEG
POS
NEG
POS
POS
NEG
POS
NEG
NEG
NEG
POS
NEG
POS
POS
NEG
NEG
POS
POS
NEG
POS
NEG
NEG
NEG
POS
POS
NEG
POS
POS
NEG
NEG
NEG
NEG
NEG
POS
NEG
NEG
NEG
POS
NEG
NEG
POS
NEG
NEG
POS
POS
POS
NEG
NEG
POS
POS
NEG
POS
POS
NEG
NEG
NEG
POS
POS
POS
POS
POS
POS
POS
NEG
NEG
POS
NEG
POS
POS
POS
NEG
NEG
NEG
NEG
NEG
NEG
POS
POS
POS
POS
POS
NEG
POS
POS
NEG
NEG
POS
NEG
NEG
NEG
NEG
NEG
NEG
NEG
NEG
NEG
POS
NEG
POS
POS
POS
POS
POS
POS
NEG
POS
POS
NEG
POS
NEG
NEG
NEG
POS
NEG
POS
NEG
POS
POS
POS
POS
POS
POS
NEG
POS
POS
POS
NEG
NEG
NEG
POS
NEG
POS
NEG
POS
POS
NEG
POS
POS
POS
POS
POS
POS
POS
POS
NEG
NEG
NEG
NEG
NEG
POS
POS
NEG
NEG
NEG
POS
NEG
NEG
POS
NEG
POS
NEG
NEG
NEG
NEG
POS
NEG
NEG
NEG
POS
NEG
NEG
NEG
POS
NEG
POS
POS
POS
POS
NEG
POS
NEG
NEG
POS
NEG
NEG
POS
NEG
NEG
POS
POS
POS
POS
POS
POS
NEG
POS
POS
NEG
POS
POS
POS
NEG
POS
NEG
POS
NEG
NEG
NEG
NEG
NEG
POS
NEG
POS
NEG
NEG
POS
POS
POS
POS
POS
POS
NEG
NEG
POS
NEG
POS
NEG
NEG
NEG
NEG
NEG
POS
NEG
NEG
POS
POS
POS
NEG
NEG
NEG
POS
POS
NEG
POS
NEG
POS
POS
NEG
NEG
POS
POS
POS
NEG
NEG
POS
POS
POS
POS
POS
POS
NEG
NEG
NEG
NEG
NEG
NEG
POS
NEG
NEG
NEG
NEG
POS
POS
NEG
POS
POS
POS
POS
POS
NEG
NEG
POS
POS
POS
POS
NEG
POS
POS
NEG
POS
POS
POS
POS
NEG
POS
NEG
NEG
NEG
POS
POS
NEG
NEG
POS
NEG
NEG
NEG
NEG
NEG
NEG
POS
NEG
NEG
NEG
NEG
POS
NEG
NEG
NEG
NEG
POS
NEG
POS
NEG
NEG
NEG
NEG
NEG
NEG
NEG
NEG
POS
NEG
NEG
NEG
NEG
NEG
NEG
NEG
NEG
POS
POS
NEG
NEG
NEG
NEG
POS
NEG
NEG
POS
NEG
POS
POS
NEG
POS
POS
POS
NEG
POS
NEG
POS
NEG
POS
NEG
NEG
POS
POS
NEG
POS
POS
NEG
POS
POS
NEG
NEG
NEG
NEG
POS
NEG
NEG
POS
NEG
NEG
POS
NEG
NEG
POS
POS
NEG
NEG
NEG
POS
NEG
NEG
NEG
NEG
NEG
NEG
POS
POS
POS
POS
NEG
NEG
POS
POS
POS
NEG
NEG
NEG
NEG
POS
NEG
NEG
NEG
POS
POS
POS
NEG
NEG
POS
NEG
NEG
NEG
POS
POS
POS
NEG
NEG
NEG
NEG
POS
NEG
NEG
NEG
NEG
POS
POS
POS
NEG
POS
NEG
NEG
NEG
NEG
POS
NEG
POS
POS
POS
NEG
NEG
POS
POS
NEG
NEG
NEG
POS
POS
POS
POS
POS
POS
NEG
POS
POS
NEG
NEG
NEG
POS
NEG
NEG
NEG
NEG
POS
NEG
NEG
NEG
POS
POS
NEG
NEG
POS
POS
POS
NEG
NEG
NEG
POS
NEG
NEG
NEG
NEG
NEG
NEG
POS
POS
POS
POS
NEG
NEG
NEG
NEG
POS
POS
POS
NEG
POS
POS
NEG
POS
POS
NEG
NEG
POS
NEG
POS
NEG
POS
POS
NEG
NEG
POS
POS
NEG
NEG
POS
NEG
POS
NEG
POS
NEG
POS
NEG
NEG
POS
NEG
NEG
POS
NEG
NEG
POS
NEG
NEG
NEG
POS
POS
NEG
POS
POS
POS
NEG
POS
NEG
POS
NEG
NEG
NEG
NEG
POS
NEG
POS
NEG
POS
POS
NEG
NEG
POS
NEG
NEG
NEG
NEG
POS
NEG
POS
NEG
NEG
NEG
POS
POS
NEG
POS
POS
NEG
POS
NEG
NEG
POS
NEG
POS
POS
NEG
POS
NEG
NEG
NEG
POS
NEG
NEG
POS
POS
POS
NEG
POS
NEG
NEG
NEG
NEG
NEG
NEG
NEG
POS
POS
NEG
NEG
POS
POS
NEG
NEG
POS
NEG
NEG
NEG
NEG
POS
POS
POS
POS
NEG
NEG
POS
NEG
NEG
POS
NEG
NEG
POS
POS
NEG
POS
POS
NEG
NEG
POS
POS
POS
POS
NEG
NEG
NEG
POS
POS
NEG
NEG
POS
NEG
POS
POS
NEG
POS
POS
NEG
NEG
NEG
POS
POS
NEG
NEG
POS
NEG
NEG
NEG
NEG
POS
NEG
NEG
POS
NEG
POS
NEG
NEG
NEG
NEG
NEG
NEG
POS
POS
NEG
POS
NEG
POS
NEG
POS
POS
POS
NEG
NEG
POS
NEG
NEG
POS
POS
POS
NEG
NEG
NEG
NEG
NEG
POS
NEG
POS
NEG
POS
POS
POS
NEG
NEG
POS
NEG
NEG
POS
POS
NEG
NEG
NEG
POS
POS
POS
NEG
POS
NEG
POS
POS
NEG
POS
NEG
NEG
POS
NEG
NEG
NEG
POS
NEG
NEG
NEG
POS
NEG
NEG
POS
POS
POS
NEG
POS
POS
NEG
NEG
NEG
NEG
POS
NEG
NEG
POS
NEG
NEG
NEG
NEG
POS
NEG
POS
NEG
NEG
NEG
POS
NEG
NEG
NEG
NEG
NEG
POS
NEG
POS
NEG
POS
POS
POS
NEG
NEG
NEG
NEG
POS
NEG
POS
NEG
POS
POS
NEG
POS
NEG
POS
NEG
POS
NEG
POS
NEG
NEG
NEG
POS
NEG
NEG
POS
NEG
POS
POS
NEG
NEG
NEG
POS
NEG
POS
NEG
NEG
POS
POS
NEG
NEG
POS
NEG
POS
POS
NEG
POS
POS
NEG
POS
POS
NEG
POS
NEG
NEG
NEG
NEG
POS
NEG
NEG
POS
NEG
POS
NEG
POS
POS
NEG
NEG
POS
NEG
NEG
NEG
POS
NEG
POS
POS
POS
NEG
POS
POS
NEG
NEG
POS
NEG
NEG
POS
POS
POS
NEG
POS
POS
POS
NEG
POS
NEG
NEG
POS
NEG
POS
NEG
POS
POS
POS
POS
NEG
POS
NEG
POS
NEG
NEG
POS
POS
POS
NEG
POS
POS
POS
NEG
NEG
NEG
NEG
POS
NEG
POS
NEG
NEG
NEG
POS
NEG
NEG
NEG
POS
POS
NEG
NEG
POS
NEG
NEG
POS
POS
NEG
POS
NEG
NEG
NEG
POS
POS
POS
POS
NEG
POS
NEG
POS
POS
NEG
NEG
POS
POS
POS
NEG
NEG
POS
NEG
POS
POS
POS
NEG
NEG
NEG
POS
NEG
NEG
NEG
POS
POS
NEG
POS
NEG
NEG
POS
POS
NEG
POS
NEG
NEG
NEG
POS
NEG
POS
NEG
POS
NEG
NEG
POS
POS
NEG
NEG
NEG
NEG
NEG
POS
NEG
POS
POS
POS
NEG
NEG
POS
POS
POS
POS
POS
POS
NEG
POS
NEG
POS
NEG
POS
NEG
NEG
NEG
POS
POS
NEG
NEG
POS
POS
NEG
NEG
POS
NEG
POS
POS
POS
NEG
POS
NEG
POS
NEG
POS
NEG
POS
POS
NEG
POS
POS
POS
NEG
POS
POS
NEG
POS
POS
POS
NEG
POS
POS
POS
NEG
POS
NEG
NEG
POS
NEG
NEG
POS
POS
POS
NEG
POS
NEG
POS
NEG
POS
NEG
POS
POS
NEG
POS
NEG
POS
NEG
NEG
POS
NEG
POS
NEG
NEG
NEG
NEG
NEG
NEG
POS
POS
POS
NEG
NEG
POS
POS
NEG
NEG
POS
POS
POS
NEG
POS
NEG
NEG
POS
NEG
POS
NEG
NEG
NEG
NEG
POS
NEG
POS
POS
POS
POS
POS
POS
NEG
POS
POS
POS
NEG
NEG
POS
NEG
NEG
NEG
NEG
NEG
NEG
NEG
POS
POS
POS
NEG
POS
NEG
NEG
NEG
NEG
NEG
NEG
NEG
POS
NEG
POS
NEG
NEG
POS
NEG
POS
NEG
NEG
POS
NEG
NEG
POS
NEG
NEG
POS
NEG
POS
NEG
NEG
POS
POS
NEG
POS
POS
POS
NEG
NEG
POS
POS
NEG
POS
NEG
NEG
NEG
NEG
POS
NEG
POS
POS
NEG
NEG
POS
NEG
POS
POS
NEG
NEG
POS
NEG
POS
POS
NEG
POS
POS
POS
NEG
NEG
NEG
NEG
POS
NEG
POS
POS
NEG
NEG
NEG
NEG
POS
POS
POS
POS
NEG
NEG
NEG
NEG
NEG
POS
POS
NEG
NEG
NEG
NEG
NEG
NEG
POS
POS
NEG
NEG
NEG
POS
NEG
NEG
NEG
POS
NEG
NEG
NEG
NEG
NEG
NEG
NEG
NEG
NEG
POS
NEG
NEG
POS
POS
POS
NEG
POS
NEG
NEG
NEG
POS
POS
NEG
POS
NEG
NEG
NEG
NEG
NEG
POS
POS
POS
NEG
POS
NEG
POS
NEG
POS
NEG
NEG
NEG
NEG
NEG
POS
POS
POS
POS
POS
NEG
NEG
POS
NEG
NEG
POS
NEG
POS
NEG
POS
POS
POS
POS
POS
POS
POS
POS
POS
POS
POS
NEG
POS
POS
POS
POS
NEG
NEG
POS
POS
NEG
NEG
POS
NEG
NEG
NEG
POS
NEG
POS
NEG
POS
POS
NEG
NEG
NEG
NEG
POS
NEG
POS
NEG
POS
POS
NEG
POS
POS
NEG
NEG
POS
NEG
NEG
NEG
POS
POS
NEG
POS
NEG
POS
NEG
NEG
NEG
POS
NEG
NEG
NEG
NEG
NEG
NEG
POS
NEG
POS
NEG
NEG
POS
POS
POS
NEG
POS
POS
POS
NEG
POS
NEG
NEG
NEG
NEG
NEG
NEG
NEG
NEG
POS
POS
NEG
POS
POS
NEG
NEG
NEG
NEG
POS
NEG
NEG
POS
POS
NEG
NEG
NEG
POS
NEG
POS
POS
POS
NEG
POS
NEG
NEG
NEG
POS
POS
POS
POS
POS
POS
POS
NEG
POS
NEG
POS
NEG
NEG
NEG
NEG
NEG
POS
NEG
NEG
NEG
NEG
POS
NEG
NEG
NEG
POS
POS
POS
POS
NEG
NEG
POS
POS
POS
NEG
POS
POS
POS
NEG
NEG
NEG
POS
POS
POS
POS
NEG
NEG
NEG
NEG
NEG
NEG
POS
POS
NEG
NEG
POS
POS
NEG
POS
NEG
POS
POS
NEG
NEG
POS
NEG
POS
POS
POS
POS
POS
POS
NEG
NEG
NEG
POS
NEG
NEG
POS
POS
POS
NEG
POS
NEG
POS
POS
NEG
NEG
POS
POS
NEG
NEG
POS
NEG
NEG
POS
POS
POS
POS
NEG
NEG
NEG
NEG
NEG
POS
POS
POS
POS
POS
NEG
NEG
POS
NEG
POS
POS
POS
POS
NEG
NEG
POS
NEG
POS
NEG
POS
NEG
NEG
NEG
NEG
NEG
NEG
POS
NEG
NEG
NEG
NEG
POS
POS
POS
NEG
POS
NEG
NEG
POS
POS
NEG
NEG
POS
NEG
NEG
POS
NEG
NEG
NEG
NEG
POS
POS
NEG
NEG
POS
NEG
POS
NEG
POS
NEG
NEG
POS
POS
NEG
POS
POS
POS
NEG
POS
POS
NEG
NEG
NEG
NEG
NEG
NEG
NEG
NEG
NEG
POS
NEG
POS
NEG
POS
POS
NEG
POS
POS
POS
NEG
NEG
NEG
POS
NEG
POS
NEG
NEG
NEG
POS
POS
NEG
NEG
POS
NEG
NEG
POS
NEG
NEG
NEG
NEG
POS
NEG
POS
NEG
POS
NEG
NEG
POS
POS
POS
POS
POS
NEG
NEG
POS
POS
POS
NEG
NEG
POS
NEG
NEG
POS
POS
POS
NEG
NEG
NEG
NEG
NEG
POS
NEG
POS
POS
POS
NEG
NEG
NEG
NEG
POS
POS
NEG
POS
NEG
POS
POS
NEG
NEG
NEG
POS
NEG
NEG
NEG
NEG
POS
NEG
POS
NEG
POS
NEG
NEG
NEG
NEG
POS
POS
NEG
NEG
POS
POS
POS
NEG
POS
NEG
POS
POS
NEG
NEG
NEG
NEG
NEG
NEG
POS
NEG
NEG
NEG
NEG
NEG
POS
NEG
POS
POS
NEG
POS
NEG
NEG
NEG
NEG
NEG
NEG
POS
NEG
NEG
POS
NEG
POS
POS
NEG
NEG
POS
NEG
POS
NEG
POS
NEG
NEG
NEG
POS
POS
NEG
POS
NEG
POS
POS
NEG
NEG
POS
POS
NEG
POS
NEG
POS
POS
NEG
NEG
POS
POS
NEG
NEG
POS
POS
NEG
NEG
POS
POS
NEG
POS
NEG
POS
NEG
NEG
NEG
NEG
NEG
POS
NEG
POS
POS
NEG
POS
POS
NEG
POS
POS
NEG
NEG
NEG
NEG
POS
NEG
POS
POS
POS
NEG
POS
POS
POS
NEG
NEG
NEG
POS
POS
NEG
POS
NEG
NEG
NEG
POS
NEG
NEG
NEG
POS
NEG
NEG
NEG
NEG
POS
NEG
NEG
NEG
NEG
NEG
POS
POS
NEG
NEG
POS
NEG
POS
NEG
NEG
NEG
POS
POS
NEG
NEG
NEG
NEG
POS
NEG
POS
POS
NEG
NEG
NEG
POS
NEG
NEG
NEG
POS
POS
NEG
NEG
POS
NEG
NEG
NEG
POS
NEG
NEG
NEG
NEG
NEG
NEG
NEG
POS
NEG
NEG
NEG
NEG
POS
NEG
POS
NEG
POS
NEG
POS
NEG
NEG
POS
NEG
NEG
NEG
POS
POS
POS
NEG
NEG
NEG
POS
NEG
NEG
POS
POS
POS
NEG
NEG
NEG
NEG
POS
NEG
NEG
POS
POS
NEG
POS
POS
NEG
NEG
NEG
POS
POS
POS
NEG
NEG
POS
POS
POS
POS
NEG
POS
NEG
POS
NEG
NEG
NEG
NEG
POS
POS
POS
NEG
POS
POS
NEG
POS
POS
POS
POS
POS
NEG
POS
NEG
POS
POS
POS
POS
POS
POS
NEG
NEG
POS
POS
POS
POS
POS
NEG
POS
NEG
NEG
NEG
POS
NEG
POS
NEG
NEG
POS
NEG
POS
NEG
NEG
NEG
POS
POS
NEG
POS
NEG
NEG
NEG
NEG
NEG
POS
POS
POS
NEG
POS
POS
POS
NEG
NEG
NEG
NEG
NEG
NEG
POS
NEG
NEG
POS
POS
POS
NEG
NEG
NEG
NEG
NEG
NEG
POS
POS
NEG
POS
POS
POS
NEG
NEG
POS
NEG
NEG
POS
NEG
POS
NEG
POS
POS
NEG
POS
POS
NEG
POS
NEG
POS
NEG
POS
POS
POS
POS
NEG
POS
POS
NEG
NEG
POS
NEG
POS
NEG
NEG
POS
POS
POS
NEG
NEG
POS
NEG
POS
NEG
POS
POS
POS
NEG
NEG
POS
POS
NEG
NEG
POS
POS
NEG
NEG
POS
NEG
POS
POS
POS
NEG
POS
POS
NEG
POS
NEG
NEG
NEG
NEG
POS
NEG
POS
POS
NEG
NEG
POS
POS
NEG
POS
POS
NEG
POS
POS
NEG
POS
NEG
NEG
POS
NEG
POS
NEG
NEG
POS
POS
POS
NEG
NEG
POS
NEG
POS
NEG
POS
POS
POS
NEG
POS
POS
NEG
NEG
NEG
POS
NEG
POS
NEG
NEG
NEG
NEG
NEG
POS
POS
NEG
POS
NEG
NEG
POS
NEG
NEG
POS
NEG
POS
NEG
NEG
NEG
POS
POS
POS
NEG
NEG
POS
NEG
POS
NEG
NEG
POS
POS
POS
POS
POS
POS
NEG
NEG
POS
NEG
NEG
POS
NEG
POS
NEG
POS
NEG
NEG
NEG
POS
POS
NEG
POS
POS
POS
NEG
POS
NEG
POS
POS
POS
NEG
POS
POS
NEG
POS
NEG
NEG
NEG
NEG
NEG
NEG
POS
POS
POS
POS
POS
POS
NEG
NEG
NEG
NEG
POS
NEG
NEG
NEG
POS
NEG
POS
POS
POS
NEG
NEG
NEG
NEG
POS
POS
NEG
NEG
POS
POS
NEG
NEG
NEG
NEG
NEG
POS
POS
POS
NEG
POS
NEG
POS
NEG
NEG
NEG
POS
NEG
POS
POS
POS
POS
POS
NEG
NEG
NEG
NEG
NEG
NEG
POS
NEG
NEG
NEG
POS
POS
NEG
NEG
NEG
POS
NEG
POS
POS
POS
POS
NEG
NEG
POS
NEG
NEG
NEG
POS
NEG
POS
POS
NEG
POS
NEG
NEG
POS
POS
POS
NEG
NEG
POS
POS
NEG
NEG
NEG
POS
POS
NEG
NEG
NEG
NEG
POS
NEG
NEG
POS
NEG
NEG
NEG
NEG
POS
NEG
NEG
NEG
NEG
NEG
NEG
NEG
NEG
POS
NEG
NEG
POS
NEG
NEG
NEG
NEG
NEG
POS
NEG
POS
NEG
NEG
NEG
NEG
POS
POS
NEG
NEG
POS
NEG
NEG
NEG
NEG
NEG
NEG
POS
NEG
NEG
POS
NEG
NEG
NEG
NEG
NEG
POS
NEG
POS
POS
POS
NEG
NEG
POS
POS
POS
NEG
NEG
POS
NEG
NEG
NEG
POS
NEG
POS
NEG
POS
NEG
POS
POS
POS
NEG
NEG
NEG
NEG
POS
POS
POS
POS
POS
NEG
NEG
POS
POS
POS
POS
NEG
NEG
POS
POS
POS
NEG
POS
NEG
NEG
POS
NEG
POS
NEG
POS
NEG
NEG
NEG
NEG
NEG
POS
NEG
NEG
POS
POS
POS
NEG
NEG
NEG
NEG
NEG
POS
POS
POS
NEG
NEG
NEG
POS
POS
NEG
POS
NEG
POS
POS
NEG
POS
NEG
POS
NEG
NEG
POS
NEG
NEG
NEG
POS
NEG
NEG
NEG
NEG
NEG
POS
POS
NEG
NEG
POS
POS
NEG
POS
NEG
POS
NEG
POS
POS
NEG
NEG
POS
POS
POS
POS
NEG
NEG
NEG
POS
NEG
NEG
NEG
NEG
POS
NEG
NEG
POS
POS
NEG
NEG
NEG
POS
NEG
NEG
POS
NEG
POS
POS
POS
POS
POS
POS
POS
NEG
POS
NEG
NEG
POS
POS
NEG
NEG
NEG
POS
NEG
NEG
POS
POS
NEG
NEG
NEG
NEG
POS
NEG
POS
NEG
POS
POS
POS
NEG
POS
NEG
POS
NEG
POS
NEG
POS
POS
NEG
NEG
POS
NEG
NEG
POS
POS
POS
POS
POS
POS
NEG
NEG
NEG
POS
POS
NEG
NEG
NEG
POS
NEG
POS
NEG
POS
POS
POS
NEG
NEG
POS
NEG
NEG
NEG
NEG
POS
NEG
POS
POS
NEG
POS
POS
POS
POS
NEG
POS
POS
NEG
NEG
NEG
POS
NEG
POS
NEG
NEG
NEG
NEG
POS
NEG
NEG
NEG
NEG
NEG
POS
NEG
POS
NEG
POS
POS
NEG
POS
POS
NEG
POS
NEG
POS
NEG
POS
NEG
NEG
NEG
POS
NEG
POS
POS
POS
NEG
POS
POS
NEG
NEG
NEG
NEG
POS
NEG
POS
POS
POS
POS
NEG
POS
POS
POS
POS
NEG
NEG
POS
POS
POS
NEG
NEG
POS
NEG
POS
POS
POS
NEG
POS
NEG
POS
NEG
POS
NEG
NEG
NEG
NEG
NEG
POS
POS
NEG
POS
NEG
POS
NEG
NEG
POS
NEG
POS
NEG
NEG
POS
POS
NEG
POS
POS
NEG
POS
POS
NEG
NEG
POS
NEG
NEG
POS
NEG
NEG
NEG
NEG
POS
NEG
NEG
NEG
POS
NEG
NEG
POS
NEG
POS
POS
POS
NEG
NEG
NEG
POS
POS
POS
POS
POS
POS
POS
NEG
NEG
NEG
NEG
POS
NEG
POS
NEG
POS
POS
NEG
POS
POS
NEG
POS
NEG
NEG
NEG
NEG
NEG
POS
NEG
POS
NEG
POS
POS
NEG
NEG
NEG
POS
NEG
NEG
NEG
POS
POS
POS
NEG
POS
POS
NEG
NEG
NEG
POS
NEG
POS
NEG
NEG
NEG
POS
POS
NEG
NEG
POS
NEG
NEG
NEG
NEG
NEG
POS
NEG
NEG
NEG
POS
NEG
NEG
POS
NEG
NEG
NEG
POS
NEG
POS
POS
NEG
POS
POS
POS
POS
NEG
NEG
NEG
NEG
POS
POS
NEG
POS
POS
NEG
NEG
NEG
NEG
POS
NEG
NEG
NEG
POS
POS
NEG
POS
POS
POS
POS
NEG
POS
POS
NEG
POS
NEG
NEG
NEG
POS
POS
NEG
POS
NEG
POS
NEG
NEG
POS
NEG
NEG
NEG
POS
NEG
NEG
POS
NEG
NEG
NEG
POS
POS
NEG
POS
NEG
NEG
NEG
NEG
NEG
NEG
NEG
NEG
NEG
POS
NEG
POS
NEG
POS
POS
NEG
NEG
POS
NEG
POS
POS
NEG
POS
NEG
NEG
NEG
POS
POS
NEG
NEG
NEG
NEG
NEG
POS
POS
POS
NEG
POS
NEG
POS
POS
NEG
POS
NEG
NEG
POS
POS
NEG
NEG
POS
POS
POS
POS
NEG
NEG
NEG
NEG
POS
POS
POS
POS
POS
POS
POS
NEG
POS
NEG
POS
POS
POS
POS
NEG
NEG
NEG
NEG
POS
POS
NEG
POS
NEG
NEG
NEG
POS
POS
POS
NEG
POS
POS
NEG
POS
POS
NEG
POS
POS
NEG
POS
NEG
NEG
POS
POS
POS
NEG
NEG
NEG
NEG
NEG
NEG
POS
POS
NEG
NEG
POS
NEG
POS
POS
POS
NEG
POS
NEG
POS
POS
NEG
POS
NEG
POS
NEG
NEG
POS
POS
POS
NEG
NEG
POS
POS
POS
NEG
NEG
NEG
NEG
NEG
POS
NEG
NEG
POS
POS
POS
NEG
NEG
POS
NEG
NEG
NEG
POS
NEG
POS
POS
NEG
NEG
NEG
POS
POS
POS
POS
NEG
NEG
NEG
POS
POS
NEG
POS
NEG
NEG
NEG
NEG
NEG
NEG
POS
NEG
POS
POS
NEG
POS
NEG
NEG
NEG
NEG
POS
POS
NEG
NEG
NEG
NEG
NEG
POS
NEG
POS
POS
NEG
NEG
NEG
NEG
NEG
POS
NEG
POS
POS
POS
NEG
POS
NEG
NEG
NEG
POS
NEG
POS
POS
NEG
NEG
NEG
POS
POS
NEG
NEG
NEG
POS
NEG
NEG
POS
POS
POS
NEG
POS
NEG
POS
POS
POS
NEG
NEG
NEG
NEG
NEG
NEG
POS
NEG
POS
NEG
POS
NEG
NEG
POS
NEG
NEG
NEG
POS
NEG
NEG
POS
NEG
NEG
NEG
NEG
POS
POS
POS
POS
POS
NEG
NEG
NEG
NEG
POS
POS
POS
NEG
NEG
POS
POS
NEG
POS
POS
POS
POS
POS
NEG
POS
NEG
POS
NEG
POS
POS
POS
POS
POS
NEG
NEG
NEG
POS
NEG
NEG
NEG
POS
POS
NEG
POS
POS
NEG
POS
POS
NEG
POS
POS
NEG
NEG
NEG
POS
NEG
POS
NEG
NEG
NEG
POS
POS
POS
NEG
POS
NEG
POS
POS
NEG
NEG
NEG
POS
POS
NEG
NEG
POS
NEG
NEG
POS
POS
NEG
POS
POS
NEG
NEG
NEG
NEG
NEG
NEG
NEG
POS
NEG
POS
NEG
NEG
POS
POS
POS
POS
NEG
NEG
POS
POS
NEG
NEG
NEG
NEG
NEG
NEG
POS
NEG
POS
NEG
NEG
NEG
NEG
NEG
NEG
NEG
POS
POS
POS
POS
NEG
NEG
POS
NEG
POS
POS
NEG
NEG
NEG
NEG
NEG
NEG
POS
NEG
NEG
POS
POS
NEG
NEG
NEG
NEG
POS
POS
NEG
NEG
POS
POS
POS
POS
NEG
NEG
POS
POS
NEG
NEG
POS
POS
NEG
POS
POS
POS
POS
NEG
NEG
NEG
POS
POS
POS
NEG
POS
POS
NEG
NEG
NEG
POS
NEG
NEG
POS
NEG
POS
NEG
NEG
NEG
NEG
NEG
NEG
POS
POS
POS
NEG
NEG
POS
POS
POS
NEG
NEG
POS
POS
POS
NEG
POS
POS
NEG
POS
NEG
POS
POS
NEG
POS
NEG
POS
POS
NEG
NEG
POS
POS
POS
NEG
NEG
NEG
NEG
NEG
NEG
POS
NEG
NEG
POS
POS
POS
POS
NEG
NEG
POS
POS
NEG
POS
NEG
POS
NEG
NEG
POS
POS
NEG
POS
NEG
NEG
NEG
POS
POS
POS
POS
NEG
NEG
NEG
NEG
NEG
POS
NEG
NEG
NEG
POS
POS
POS
POS
NEG
NEG
POS
NEG
POS
POS
POS
NEG
POS
POS
POS
POS
NEG
POS
POS
NEG
NEG
POS
POS
POS
POS
NEG
NEG
POS
POS
NEG
NEG
NEG
NEG
NEG
NEG
POS
POS
POS
POS
NEG
POS
POS
POS
NEG
POS
NEG
POS
NEG
NEG
POS
POS
NEG
POS
NEG
POS
NEG
POS
NEG
NEG
POS
NEG
NEG
POS
POS
NEG
POS
POS
POS
NEG
NEG
NEG
NEG
POS
NEG
POS
POS
NEG
POS
POS
POS
POS
NEG
POS
NEG
NEG
NEG
POS
POS
POS
NEG
NEG
NEG
POS
POS
NEG
POS
NEG
NEG
POS
POS
NEG
NEG
POS
NEG
POS
NEG
NEG
NEG
NEG
NEG
POS
NEG
POS
NEG
POS
POS
NEG
NEG
POS
POS
POS
NEG
NEG
POS
NEG
POS
NEG
NEG
POS
POS
NEG
NEG
NEG
NEG
POS
POS
POS
NEG
POS
NEG
NEG
NEG
NEG
POS
POS
NEG
NEG
POS
NEG
NEG
NEG
POS
POS
NEG
NEG
NEG
NEG
NEG
NEG
POS
POS
POS
NEG
POS
POS
NEG
POS
NEG
NEG
NEG
NEG
POS
POS
NEG
POS
NEG
NEG
NEG
POS
POS
NEG
NEG
NEG
POS
POS
NEG
POS
POS
NEG
POS
POS
POS
NEG
NEG
POS
NEG
NEG
NEG
NEG
NEG
POS
POS
NEG
POS
NEG
NEG
POS
NEG
NEG
NEG
NEG
POS
NEG
POS
POS
NEG
POS
POS
NEG
POS
POS
NEG
POS
POS
POS
POS
NEG
NEG
POS
NEG
NEG
NEG
NEG
POS
POS
NEG
NEG
POS
NEG
NEG
NEG
POS
POS
NEG
POS
NEG
NEG
NEG
POS
NEG
NEG
NEG
NEG
NEG
NEG
POS
NEG
NEG
POS
POS
POS
POS
POS
NEG
NEG
POS
NEG
POS
NEG
POS
NEG
NEG
POS
NEG
POS
POS
POS
NEG
POS
POS
NEG
POS
NEG
POS
POS
NEG
POS
POS
NEG
NEG
NEG
NEG
POS
NEG
NEG
NEG
NEG
POS
NEG
POS
NEG
POS
NEG
NEG
POS
POS
NEG
POS
NEG
NEG
POS
POS
POS
NEG
POS
POS
NEG
NEG
NEG
NEG
NEG
NEG
POS
POS
NEG
POS
POS
POS
POS
NEG
NEG
NEG
POS
POS
NEG
NEG
NEG
NEG
NEG
POS
NEG
POS
POS
POS
POS
NEG
NEG
POS
POS
POS
NEG
POS
NEG
NEG
NEG
NEG
POS
NEG
POS
NEG
NEG
POS
NEG
NEG
NEG
POS
NEG
NEG
POS
POS
NEG
POS
POS
NEG
NEG
POS
POS
NEG
POS
NEG
POS
POS
NEG
NEG
NEG
NEG
POS
POS
POS
POS
POS
POS
NEG
NEG
NEG
NEG
NEG
NEG
NEG
NEG
POS
NEG
NEG
POS
NEG
POS
POS
POS
POS
POS
NEG
POS
NEG
POS
POS
NEG
POS
NEG
NEG
POS
NEG
NEG
POS
POS
NEG
POS
NEG
NEG
POS
POS
NEG
POS
POS
POS
POS
POS
POS
NEG
NEG
POS
POS
POS
POS
NEG
POS
NEG
NEG
NEG
POS
POS
NEG
NEG
POS
NEG
POS
POS
POS
POS
NEG
POS
POS
POS
POS
POS
NEG
NEG
POS
NEG
NEG
POS
NEG
POS
NEG
POS
POS
NEG
POS
NEG
NEG
NEG
NEG
POS
NEG
NEG
POS
NEG
POS
NEG
NEG
POS
POS
POS
NEG
POS
NEG
POS
NEG
NEG
POS
NEG
NEG
POS
NEG
NEG
POS
NEG
NEG
POS
NEG
POS
NEG
POS
POS
POS
NEG
POS
POS
POS
NEG
POS
POS
NEG
NEG
POS
POS
POS
POS
POS
POS
NEG
POS
POS
POS
POS
POS
NEG
NEG
POS
NEG
NEG
NEG
NEG
NEG
NEG
POS
NEG
POS
NEG
POS
POS
NEG
NEG
NEG
NEG
POS
POS
POS
POS
NEG
POS
POS
POS
POS
POS
POS
POS
POS
POS
NEG
NEG
NEG
NEG
NEG
NEG
POS
NEG
NEG
NEG
POS
NEG
NEG
POS
NEG
NEG
NEG
POS
POS
POS
POS
NEG
POS
NEG
POS
NEG
NEG
NEG
NEG
NEG
POS
NEG
NEG
NEG
NEG
NEG
POS
NEG
POS
POS
POS
POS
NEG
NEG
POS
NEG
NEG
NEG
NEG
NEG
NEG
POS
NEG
NEG
POS
NEG
NEG
POS
NEG
POS
NEG
NEG
NEG
NEG
NEG
POS
NEG
NEG
NEG
POS
POS
POS
POS
NEG
NEG
POS
NEG
NEG
POS
POS
NEG
NEG
POS
NEG
NEG
NEG
POS
NEG
POS
POS
NEG
POS
POS
NEG
NEG
NEG
NEG
NEG
NEG
POS
NEG
NEG
NEG
POS
POS
NEG
POS
NEG
POS
POS
POS
NEG
POS
NEG
POS
NEG
POS
NEG
NEG
NEG
POS
POS
NEG
NEG
NEG
POS
NEG
POS
NEG
NEG
POS
POS
NEG
POS
POS
POS
NEG
NEG
NEG
POS
POS
POS
NEG
NEG
POS
NEG
NEG
POS
POS
NEG
POS
POS
NEG
NEG
NEG
NEG
NEG
NEG
POS
POS
NEG
POS
POS
POS
NEG
POS
POS
NEG
NEG
POS
POS
NEG
NEG
POS
POS
POS
NEG
NEG
POS
POS
NEG
NEG
NEG
POS
NEG
POS
NEG
NEG
POS
POS
NEG
NEG
POS
POS
NEG
NEG
POS
NEG
NEG
NEG
NEG
NEG
POS
POS
POS
NEG
NEG
NEG
POS
NEG
POS
NEG
NEG
NEG
NEG
POS
POS
POS
NEG
NEG
NEG
POS
NEG
POS
NEG
NEG
POS
NEG
POS
NEG
POS
NEG
NEG
NEG
POS
POS
NEG
NEG
POS
POS
POS
POS
POS
NEG
NEG
POS
POS
NEG
NEG
POS
POS
NEG
NEG
POS
POS
NEG
NEG
POS
NEG
POS
NEG
POS
NEG
NEG
NEG
NEG
POS
POS
POS
NEG
NEG
NEG
POS
NEG
NEG
NEG
NEG
POS
NEG
POS
POS
NEG
POS
POS
POS
NEG
NEG
POS
NEG
POS
NEG
NEG
NEG
NEG
NEG
NEG
NEG
POS
POS
NEG
NEG
POS
NEG
NEG
POS
NEG
POS
NEG
NEG
POS
POS
NEG
POS
NEG
NEG
NEG
NEG
POS
NEG
POS
POS
POS
NEG
NEG
POS
POS
NEG
NEG
POS
NEG
POS
POS
POS
POS
NEG
NEG
POS
NEG
POS
NEG
NEG
POS
NEG
NEG
POS
POS
POS
POS
NEG
POS
POS
NEG
POS
NEG
POS
NEG
NEG
NEG
NEG
POS
NEG
POS
NEG
NEG
NEG
POS
NEG
POS
NEG
POS
NEG
NEG
POS
POS
POS
NEG
POS
NEG
POS
POS
POS
NEG
POS
NEG
NEG
NEG
NEG
POS
POS
NEG
NEG
POS
POS
NEG
POS
NEG
NEG
POS
NEG
NEG
NEG
NEG
POS
POS
NEG
POS
NEG
NEG
POS
POS
NEG
POS
POS
NEG
NEG
POS
NEG
NEG
POS
NEG
NEG
POS
POS
POS
NEG
NEG
NEG
NEG
POS
NEG
POS
POS
POS
POS
POS
NEG
POS
NEG
POS
NEG
POS
NEG
POS
NEG
NEG
POS
NEG
POS
NEG
NEG
NEG
NEG
POS
NEG
NEG
NEG
NEG
POS
NEG
NEG
POS
NEG
POS
NEG
NEG
NEG
POS
POS
POS
POS
NEG
NEG
NEG
NEG
POS
POS
POS
NEG
NEG
POS
NEG
NEG
POS
POS
POS
NEG
NEG
POS
NEG
POS
POS
NEG
POS
POS
NEG
NEG
POS
NEG
POS
NEG
NEG
POS
NEG
NEG
NEG
POS
POS
POS
POS
POS
NEG
POS
POS
POS
NEG
NEG
POS
NEG
NEG
POS
POS
POS
POS
POS
POS
POS
NEG
POS
POS
POS
NEG
POS
NEG
POS
NEG
POS
NEG
NEG
POS
POS
POS
POS
NEG
NEG
POS
NEG
NEG
POS
POS
NEG
NEG
NEG
NEG
NEG
POS
POS
NEG
NEG
NEG
POS
POS
POS
POS
NEG
NEG
POS
NEG
NEG
NEG
POS
POS
NEG
POS
POS
POS
NEG
NEG
NEG
POS
NEG
NEG
POS
NEG
NEG
POS
NEG
NEG
NEG
POS
NEG
NEG
POS
POS
POS
NEG
NEG
NEG
POS
NEG
NEG
NEG
NEG
NEG
NEG
NEG
NEG
NEG
NEG
NEG
NEG
POS
NEG
NEG
NEG
POS
NEG
POS
NEG
NEG
NEG
POS
NEG
POS
NEG
NEG
NEG
NEG
NEG
NEG
POS
NEG
NEG
NEG
NEG
NEG
POS
NEG
NEG
NEG
POS
POS
NEG
POS
NEG
POS
NEG
NEG
POS
NEG
NEG
NEG
NEG
NEG
NEG
POS
NEG
NEG
NEG
POS
NEG
NEG
POS
NEG
NEG
NEG
POS
NEG
NEG
NEG
POS
NEG
POS
NEG
POS
POS
POS
POS
POS
POS
NEG
POS
POS
NEG
NEG
NEG
POS
NEG
POS
POS
NEG
NEG
NEG
NEG
POS
POS
NEG
POS
NEG
NEG
NEG
NEG
NEG
POS
POS
POS
POS
NEG
NEG
NEG
NEG
POS
POS
NEG
POS
NEG
POS
NEG
NEG
POS
POS
NEG
POS
POS
NEG
NEG
POS
NEG
NEG
NEG
NEG
NEG
NEG
NEG
POS
NEG
POS
NEG
POS
NEG
NEG
NEG
NEG
NEG
NEG
NEG
NEG
POS
POS
POS
NEG
POS
NEG
POS
POS
POS
NEG
NEG
NEG
POS
POS
POS
NEG
NEG
POS
NEG
NEG
NEG
POS
POS
POS
POS
NEG
POS
POS
POS
NEG
NEG
POS
POS
NEG
POS
POS
POS
POS
NEG
NEG
POS
POS
NEG
NEG
NEG
POS
NEG
NEG
NEG
POS
POS
POS
NEG
POS
NEG
NEG
NEG
NEG
NEG
POS
POS
NEG
POS
POS
NEG
POS
POS
NEG
NEG
NEG
NEG
POS
NEG
NEG
NEG
NEG
NEG
NEG
NEG
POS
POS
POS
NEG
POS
POS
NEG
NEG
NEG
NEG
POS
NEG
POS
POS
NEG
POS
POS
NEG
NEG
POS
NEG
NEG
POS
NEG
NEG
POS
POS
NEG
NEG
POS
POS
NEG
NEG
NEG
NEG
POS
NEG
POS
NEG
NEG
POS
POS
NEG
NEG
NEG
POS
POS
POS
POS
NEG
POS
POS
NEG
NEG
NEG
POS
POS
POS
POS
POS
POS
NEG
NEG
NEG
NEG
NEG
NEG
POS
NEG
NEG
NEG
POS
POS
POS
NEG
POS
NEG
NEG
NEG
NEG
NEG
POS
NEG
NEG
NEG
POS
POS
POS
POS
NEG
NEG
NEG
POS
NEG
NEG
NEG
NEG
NEG
NEG
POS
POS
POS
POS
POS
POS
NEG
POS
POS
NEG
NEG
NEG
NEG
NEG
POS
NEG
POS
NEG
NEG
NEG
POS
NEG
NEG
POS
NEG
POS
NEG
POS
POS
NEG
NEG
NEG
NEG
POS
NEG
NEG
POS
POS
NEG
NEG
POS
NEG
NEG
NEG
POS
POS
POS
NEG
POS
NEG
POS
POS
NEG
POS
POS
POS
POS
NEG
NEG
NEG
NEG
NEG
NEG
NEG
POS
POS
POS
NEG
POS
NEG
POS
NEG
POS
NEG
NEG
NEG
NEG
POS
NEG
NEG
NEG
NEG
POS
NEG
NEG
NEG
NEG
NEG
POS
POS
NEG
NEG
NEG
POS
NEG
POS
POS
POS
NEG
NEG
POS
POS
POS
POS
NEG
NEG
NEG
NEG
POS
NEG
POS
NEG
NEG
NEG
NEG
POS
POS
POS
POS
POS
NEG
POS
NEG
POS
POS
NEG
NEG
POS
NEG
NEG
NEG
POS
NEG
NEG
POS
NEG
POS
POS
POS
POS
POS
POS
NEG
POS
NEG
POS
NEG
POS
NEG
POS
NEG
POS
NEG
POS
POS
POS
POS
NEG
POS
NEG
NEG
POS
POS
POS
NEG
NEG
POS
POS
NEG
NEG
NEG
POS
NEG
NEG
POS
NEG
NEG
NEG
NEG
NEG
POS
POS
POS
POS
NEG
POS
POS
POS
NEG
POS
NEG
NEG
NEG
NEG
NEG
NEG
NEG
POS
POS
NEG
NEG
POS
POS
POS
NEG
POS
POS
NEG
NEG
POS
POS
NEG
NEG
NEG
NEG
NEG
NEG
NEG
POS
NEG
NEG
POS
NEG
NEG
NEG
POS
NEG
POS
POS
NEG
POS
POS
POS
NEG
POS
NEG
NEG
POS
POS
NEG
POS
POS
POS
NEG
NEG
NEG
POS
POS
POS
POS
NEG
POS
NEG
NEG
POS
NEG
POS
NEG
POS
POS
NEG
NEG
NEG
NEG
POS
POS
NEG
NEG
POS
NEG
NEG
NEG
NEG
NEG
NEG
POS
NEG
POS
NEG
POS
POS
POS
POS
NEG
NEG
POS
NEG
POS
NEG
NEG
NEG
NEG
POS
NEG
POS
POS
POS
NEG
NEG
POS
NEG
NEG
NEG
NEG
POS
POS
NEG
POS
POS
POS
POS
NEG
NEG
NEG
POS
POS
NEG
NEG
NEG
POS
NEG
NEG
POS
NEG
NEG
POS
NEG
NEG
NEG
NEG
POS
NEG
NEG
NEG
POS
NEG
POS
POS
NEG
POS
NEG
NEG
NEG
POS
NEG
NEG
POS
NEG
POS
POS
POS
NEG
NEG
NEG
NEG
NEG
POS
NEG
NEG
POS
POS
NEG
POS
NEG
POS
NEG
NEG
POS
POS
NEG
NEG
NEG
POS
NEG
POS
NEG
POS
NEG
POS
POS
NEG
NEG
NEG
POS
POS
NEG
POS
NEG
NEG
NEG
NEG
NEG
NEG
POS
POS
POS
POS
NEG
NEG
NEG
POS
POS
NEG
POS
POS
POS
NEG
POS
NEG
NEG
NEG
POS
POS
NEG
POS
POS
POS
NEG
NEG
POS
NEG
NEG
POS
POS
POS
NEG
NEG
NEG
NEG
NEG
NEG
POS
NEG
NEG
NEG
NEG
NEG
NEG
POS
POS
NEG
POS
NEG
NEG
POS
NEG
NEG
POS
NEG
NEG
NEG
NEG
POS
POS
NEG
NEG
NEG
POS
POS
NEG
NEG
NEG
NEG
NEG
POS
POS
NEG
POS
NEG
POS
NEG
POS
POS
NEG
NEG
NEG
NEG
POS
NEG
NEG
NEG
POS
NEG
NEG
POS
POS
POS
NEG
NEG
NEG
POS
POS
NEG
NEG
NEG
NEG
NEG
NEG
POS
POS
NEG
POS
NEG
POS
POS
NEG
POS
NEG
POS
NEG
POS
POS
NEG
POS
NEG
POS
NEG
POS
NEG
NEG
NEG
NEG
POS
POS
POS
NEG
NEG
POS
POS
POS
POS
NEG
POS
POS
NEG
POS
NEG
NEG
POS
NEG
NEG
NEG
POS
NEG
POS
NEG
NEG
NEG
POS
NEG
POS
NEG
POS
NEG
NEG
NEG
NEG
POS
NEG
NEG
NEG
POS
POS
NEG
POS
NEG
POS
POS
POS
NEG
POS
NEG
NEG
POS
POS
POS
POS
NEG
POS
POS
NEG
POS
NEG
NEG
NEG
POS
NEG
NEG
NEG
POS
POS
POS
POS
POS
NEG
POS
POS
NEG
NEG
NEG
NEG
POS
POS
POS
POS
POS
POS
NEG
NEG
POS
POS
POS
NEG
NEG
NEG
NEG
POS
POS
NEG
NEG
NEG
POS
NEG
NEG
POS
NEG
POS
POS
NEG
POS
POS
NEG
NEG
POS
NEG
POS
NEG
POS
POS
POS
NEG
POS
NEG
POS
NEG
POS
POS
NEG
NEG
NEG
POS
NEG
NEG
NEG
POS
POS
NEG
NEG
POS
NEG
NEG
NEG
NEG
POS
NEG
POS
POS
NEG
POS
NEG
NEG
POS
POS
NEG
POS
POS
NEG
NEG
NEG
POS
POS
NEG
POS
NEG
NEG
NEG
NEG
POS
POS
NEG
NEG
NEG
NEG
POS
POS
NEG
NEG
NEG
POS
NEG
NEG
NEG
NEG
POS
NEG
NEG
NEG
POS
POS
NEG
NEG
POS
POS
POS
NEG
NEG
NEG
NEG
POS
POS
NEG
POS
POS
NEG
POS
NEG
NEG
POS
NEG
NEG
NEG
POS
NEG
NEG
POS
NEG
POS
POS
POS
POS
NEG
POS
NEG
POS
NEG
NEG
POS
POS
NEG
NEG
NEG
POS
NEG
NEG
POS
NEG
POS
POS
POS
NEG
POS
POS
NEG
POS
NEG
POS
POS
NEG
POS
NEG
POS
POS
NEG
NEG
NEG
POS
POS
POS
POS
POS
NEG
NEG
NEG
NEG
NEG
NEG
NEG
NEG
NEG
POS
NEG
NEG
POS
POS
NEG
NEG
POS
NEG
POS
NEG
NEG
NEG
NEG
NEG
POS
POS
POS
NEG
NEG
NEG
NEG
POS
NEG
NEG
POS
POS
NEG
POS
NEG
POS
NEG
NEG
POS
POS
NEG
NEG
NEG
POS
NEG
POS
NEG
POS
NEG
POS
POS
POS
NEG
NEG
NEG
POS
NEG
POS
POS
NEG
POS
NEG
POS
POS
POS
NEG
NEG
NEG
NEG
POS
NEG
NEG
POS
NEG
NEG
POS
POS
NEG
NEG
NEG
NEG
NEG
NEG
NEG
NEG
POS
POS
POS
NEG
NEG
NEG
POS
POS
NEG
NEG
NEG
NEG
POS
POS
POS
NEG
POS
NEG
NEG
NEG
NEG
NEG
POS
NEG
NEG
NEG
NEG
NEG
POS
NEG
NEG
NEG
NEG
NEG
POS
NEG
NEG
NEG
NEG
NEG
NEG
NEG
NEG
NEG
NEG
POS
NEG
NEG
POS
NEG
POS
POS
POS
NEG
NEG
POS
NEG
NEG
NEG
NEG
NEG
NEG
POS
POS
POS
NEG
POS
POS
NEG
NEG
POS
NEG
POS
NEG
NEG
POS
POS
NEG
POS
NEG
NEG
POS
NEG
NEG
NEG
POS
POS
POS
POS
NEG
NEG
POS
POS
POS
POS
NEG
NEG
NEG
NEG
NEG
POS
NEG
POS
POS
POS
NEG
NEG
NEG
NEG
NEG
NEG
NEG
POS
POS
POS
POS
NEG
POS
NEG
POS
POS
NEG
POS
NEG
NEG
NEG
NEG
POS
NEG
NEG
NEG
NEG
NEG
NEG
NEG
POS
NEG
NEG
POS
NEG
POS
POS
NEG
POS
NEG
NEG
NEG
POS
NEG
POS
POS
NEG
NEG
POS
NEG
NEG
NEG
POS
NEG
POS
NEG
POS
NEG
NEG
NEG
NEG
POS
POS
NEG
POS
NEG
POS
NEG
NEG
POS
NEG
POS
NEG
NEG
NEG
NEG
NEG
NEG
NEG
NEG
NEG
POS
POS
POS
POS
POS
NEG
NEG
NEG
NEG
POS
NEG
NEG
POS
POS
POS
NEG
POS
POS
POS
NEG
POS
NEG
NEG
POS
POS
POS
NEG
POS
NEG
NEG
POS
NEG
NEG
NEG
NEG
NEG
POS
NEG
NEG
POS
NEG
POS
POS
NEG
POS
NEG
POS
NEG
NEG
NEG
POS
POS
POS
POS
POS
POS
NEG
NEG
POS
NEG
NEG
POS
NEG
NEG
NEG
NEG
NEG
NEG
NEG
NEG
POS
POS
POS
POS
POS
POS
POS
POS
POS
POS
NEG
POS
POS
NEG
NEG
NEG
NEG
POS
NEG
NEG
NEG
POS
NEG
POS
POS
POS
NEG
NEG
POS
NEG
POS
POS
NEG
NEG
NEG
NEG
NEG
POS
NEG
POS
POS
NEG
NEG
POS
POS
NEG
NEG
POS
NEG
NEG
POS
POS
NEG
NEG
NEG
POS
NEG
NEG
POS
NEG
NEG
POS
NEG
NEG
POS
POS
POS
NEG
NEG
POS
NEG
NEG
NEG
POS
NEG
NEG
POS
POS
NEG
POS
POS
POS
POS
NEG
NEG
POS
NEG
POS
POS
POS
NEG
NEG
NEG
POS
NEG
NEG
NEG
POS
NEG
POS
POS
NEG
POS
NEG
POS
POS
NEG
POS
NEG
NEG
POS
POS
POS
NEG
POS
NEG
POS
NEG
NEG
POS
NEG
NEG
NEG
NEG
POS
NEG
NEG
POS
NEG
NEG
NEG
NEG
NEG
POS
NEG
NEG
NEG
POS
NEG
POS
POS
NEG
NEG
POS
POS
POS
POS
POS
NEG
POS
POS
POS
POS
NEG
POS
POS
POS
NEG
NEG
NEG
NEG
NEG
POS
NEG
NEG
POS
NEG
POS
NEG
NEG
NEG
POS
POS
POS
NEG
NEG
NEG
NEG
POS
NEG
POS
NEG
NEG
POS
POS
NEG
NEG
NEG
POS
POS
POS
POS
POS
POS
NEG
POS
POS
NEG
POS
NEG
NEG
POS
NEG
POS
NEG
POS
POS
NEG
POS
NEG
POS
NEG
POS
NEG
NEG
NEG
POS
POS
POS
POS
POS
POS
NEG
POS
POS
NEG
POS
NEG
POS
NEG
POS
POS
POS
POS
POS
POS
POS
POS
NEG
NEG
NEG
POS
NEG
NEG
NEG
POS
NEG
NEG
NEG
NEG
POS
POS
NEG
NEG
NEG
NEG
NEG
NEG
POS
NEG
POS
POS
POS
POS
NEG
NEG
NEG
NEG
POS
NEG
NEG
POS
NEG
POS
NEG
NEG
POS
POS
NEG
POS
POS
NEG
NEG
NEG
POS
NEG
POS
POS
NEG
NEG
NEG
POS
POS
POS
POS
POS
NEG
POS
POS
NEG
NEG
NEG
NEG
POS
NEG
NEG
NEG
NEG
POS
POS
POS
NEG
POS
POS
POS
NEG
NEG
POS
NEG
NEG
NEG
NEG
NEG
POS
NEG
POS
POS
NEG
NEG
POS
NEG
POS
NEG
NEG
NEG
POS
POS
POS
NEG
POS
POS
NEG
POS
POS
POS
POS
NEG
NEG
NEG
POS
POS
POS
NEG
NEG
POS
NEG
POS
POS
NEG
NEG
NEG
POS
NEG
NEG
POS
NEG
NEG
NEG
NEG
NEG
POS
NEG
NEG
POS
POS
POS
NEG
NEG
POS
POS
NEG
POS
NEG
NEG
POS
NEG
NEG
NEG
NEG
POS
NEG
NEG
NEG
NEG
POS
POS
NEG
POS
NEG
NEG
NEG
POS
POS
NEG
NEG
NEG
POS
NEG
NEG
POS
NEG
NEG
POS
NEG
NEG
NEG
NEG
NEG
NEG
NEG
POS
NEG
POS
NEG
POS
NEG
NEG
POS
NEG
NEG
NEG
POS
NEG
NEG
POS
POS
POS
NEG
NEG
POS
POS
POS
NEG
NEG
POS
NEG
NEG
NEG
NEG
NEG
NEG
NEG
POS
NEG
NEG
NEG
POS
POS
POS
NEG
NEG
NEG
POS
NEG
POS
POS
NEG
NEG
POS
NEG
NEG
POS
NEG
NEG
POS
POS
POS
POS
NEG
POS
POS
POS
POS
NEG
NEG
POS
NEG
POS
NEG
NEG
NEG
NEG
POS
NEG
POS
NEG
POS
POS
NEG
POS
NEG
NEG
NEG
NEG
NEG
POS
NEG
POS
NEG
POS
POS
NEG
POS
NEG
NEG
POS
POS
POS
NEG
NEG
NEG
NEG
POS
POS
NEG
POS
POS
NEG
POS
POS
NEG
NEG
POS
POS
POS
POS
NEG
NEG
NEG
NEG
POS
POS
POS
NEG
POS
POS
POS
NEG
POS
NEG
NEG
NEG
POS
NEG
POS
NEG
POS
POS
POS
NEG
NEG
NEG
NEG
POS
NEG
NEG
POS
NEG
POS
NEG
POS
POS
POS
POS
POS
NEG
POS
POS
NEG
NEG
POS
POS
NEG
NEG
POS
POS
NEG
NEG
NEG
POS
POS
POS
POS
NEG
POS
POS
POS
POS
POS
POS
POS
NEG
POS
POS
NEG
NEG
NEG
NEG
NEG
NEG
NEG
NEG
NEG
POS
NEG
POS
NEG
NEG
POS
NEG
NEG
NEG
NEG
NEG
NEG
POS
POS
POS
POS
NEG
POS
POS
NEG
POS
NEG
NEG
NEG
POS
POS
POS
NEG
NEG
POS
POS
NEG
NEG
NEG
POS
NEG
POS
NEG
POS
POS
NEG
POS
POS
NEG
POS
POS
POS
NEG
POS
NEG
POS
NEG
NEG
NEG
POS
NEG
NEG
NEG
NEG
POS
POS
NEG
NEG
NEG
NEG
NEG
NEG
POS
NEG
NEG
POS
NEG
NEG
POS
POS
POS
POS
NEG
POS
NEG
POS
NEG
POS
NEG
POS
POS
NEG
POS
POS
NEG
NEG
POS
POS
NEG
POS
NEG
NEG
NEG
POS
POS
POS
NEG
POS
POS
POS
NEG
NEG
NEG
NEG
POS
POS
POS
NEG
NEG
NEG
NEG
NEG
NEG
NEG
NEG
POS
POS
NEG
POS
NEG
POS
POS
POS
POS
NEG
POS
POS
NEG
NEG
NEG
NEG
NEG
NEG
POS
POS
POS
POS
NEG
POS
NEG
NEG
NEG
NEG
POS
NEG
POS
POS
NEG
NEG
NEG
POS
NEG
NEG
POS
NEG
POS
POS
NEG
NEG
POS
NEG
NEG
POS
NEG
NEG
NEG
POS
NEG
NEG
POS
NEG
POS
POS
POS
NEG
NEG
NEG
NEG
NEG
NEG
NEG
POS
POS
POS
POS
NEG
NEG
NEG
NEG
POS
NEG
NEG
POS
NEG
NEG
NEG
POS
NEG
POS
NEG
POS
NEG
NEG
POS
NEG
NEG
POS
POS
POS
NEG
NEG
POS
NEG
POS
POS
NEG
NEG
POS
NEG
NEG
NEG
POS
POS
NEG
POS
NEG
POS
NEG
NEG
NEG
POS
NEG
POS
NEG
NEG
NEG
NEG
POS
POS
POS
POS
NEG
NEG
POS
NEG
NEG
NEG
NEG
POS
POS
NEG
POS
NEG
POS
POS
NEG
NEG
POS
NEG
NEG
POS
NEG
POS
POS
POS
NEG
POS
POS
NEG
NEG
POS
NEG
NEG
NEG
POS
POS
NEG
POS
POS
POS
POS
NEG
POS
POS
NEG
POS
NEG
POS
POS
POS
NEG
NEG
NEG
NEG
NEG
NEG
POS
NEG
NEG
POS
POS
POS
POS
NEG
NEG
POS
POS
NEG
NEG
NEG
POS
NEG
POS
NEG
NEG
NEG
POS
NEG
NEG
NEG
POS
POS
POS
POS
NEG
POS
NEG
NEG
POS
POS
NEG
POS
NEG
NEG
POS
POS
NEG
NEG
POS
POS
NEG
POS
NEG
NEG
NEG
POS
NEG
POS
NEG
NEG
POS
POS
POS
NEG
POS
POS
POS
NEG
POS
NEG
NEG
NEG
POS
POS
POS
NEG
NEG
NEG
POS
NEG
NEG
POS
POS
POS
POS
POS
NEG
POS
POS
NEG
POS
POS
NEG
NEG
NEG
NEG
NEG
NEG
NEG
NEG
POS
NEG
NEG
POS
NEG
NEG
NEG
NEG
NEG
POS
POS
POS
POS
NEG
POS
POS
POS
POS
NEG
POS
POS
POS
POS
NEG
POS
POS
NEG
POS
POS
NEG
POS
POS
POS
NEG
NEG
NEG
NEG
NEG
POS
NEG
NEG
NEG
NEG
POS
NEG
NEG
POS
POS
NEG
POS
POS
NEG
NEG
POS
NEG
NEG
POS
POS
POS
NEG
NEG
NEG
NEG
POS
NEG
NEG
POS
POS
POS
POS
NEG
POS
NEG
NEG
POS
NEG
POS
NEG
POS
NEG
NEG
POS
POS
NEG
POS
NEG
POS
NEG
NEG
POS
POS
POS
NEG
NEG
NEG
NEG
POS
POS
POS
POS
NEG
NEG
POS
POS
POS
POS
POS
NEG
NEG
POS
POS
POS
NEG
POS
NEG
POS
POS
POS
POS
POS
NEG
NEG
POS
NEG
POS
NEG
POS
POS
POS
NEG
NEG
NEG
NEG
POS
POS
POS
NEG
POS
NEG
NEG
POS
POS
NEG
NEG
NEG
NEG
POS
NEG
POS
POS
NEG
NEG
POS
POS
POS
POS
POS
POS
NEG
NEG
POS
NEG
NEG
NEG
POS
POS
POS
POS
NEG
POS
NEG
POS
POS
NEG
POS
NEG
POS
NEG
NEG
POS
POS
POS
NEG
NEG
NEG
POS
POS
POS
POS
NEG
POS
POS
POS
NEG
NEG
NEG
POS
NEG
NEG
NEG
NEG
NEG
POS
NEG
NEG
NEG
NEG
POS
NEG
POS
NEG
NEG
NEG
POS
POS
POS
NEG
NEG
POS
NEG
POS
NEG
POS
NEG
NEG
POS
NEG
POS
NEG
POS
NEG
POS
POS
POS
NEG
NEG
NEG
POS
POS
POS
NEG
NEG
NEG
POS
POS
NEG
POS
NEG
NEG
NEG
POS
POS
NEG
POS
POS
NEG
NEG
POS
NEG
POS
NEG
NEG
POS
NEG
POS
NEG
NEG
NEG
POS
NEG
POS
POS
NEG
POS
POS
NEG
NEG
POS
POS
POS
NEG
POS
NEG
POS
NEG
POS
NEG
NEG
NEG
POS
NEG
POS
POS
NEG
NEG
POS
NEG
NEG
NEG
NEG
NEG
NEG
NEG
NEG
POS
NEG
POS
POS
POS
NEG
NEG
POS
NEG
POS
NEG
NEG
POS
POS
POS
NEG
NEG
NEG
POS
NEG
NEG
NEG
POS
POS
POS
NEG
NEG
NEG
NEG
POS
NEG
NEG
NEG
NEG
POS
NEG
NEG
NEG
NEG
POS
POS
NEG
NEG
NEG
NEG
POS
POS
POS
NEG
NEG
POS
NEG
NEG
POS
POS
NEG
NEG
POS
POS
NEG
NEG
NEG
NEG
POS
POS
POS
NEG
NEG
POS
POS
POS
POS
POS
POS
POS
POS
NEG
POS
NEG
POS
NEG
NEG
NEG
NEG
POS
POS
POS
NEG
POS
POS
POS
POS
POS
POS
POS
NEG
NEG
NEG
POS
NEG
NEG
NEG
NEG
POS
POS
POS
POS
POS
NEG
NEG
POS
NEG
POS
POS
POS
NEG
POS
NEG
POS
NEG
NEG
NEG
NEG
NEG
NEG
POS
NEG
NEG
POS
NEG
NEG
NEG
NEG
POS
NEG
POS
POS
NEG
NEG
NEG
NEG
POS
NEG
POS
NEG
POS
POS
NEG
NEG
POS
POS
NEG
NEG
POS
POS
NEG
NEG
POS
NEG
POS
POS
POS
NEG
POS
NEG
NEG
POS
POS
NEG
NEG
POS
NEG
NEG
NEG
NEG
NEG
NEG
POS
NEG
NEG
NEG
POS
POS
NEG
NEG
NEG
NEG
POS
NEG
POS
NEG
POS
NEG
POS
NEG
NEG
NEG
NEG
NEG
POS
NEG
NEG
POS
NEG
POS
NEG
NEG
POS
NEG
NEG
NEG
NEG
NEG
POS
POS
NEG
NEG
POS
NEG
POS
POS
NEG
NEG
NEG
NEG
NEG
POS
NEG
POS
POS
POS
POS
POS
NEG
NEG
POS
POS
NEG
NEG
NEG
NEG
POS
NEG
NEG
NEG
NEG
NEG
NEG
NEG
POS
POS
NEG
NEG
NEG
POS
POS
POS
POS
POS
NEG
POS
POS
NEG
NEG
POS
NEG
POS
POS
NEG
NEG
POS
POS
POS
NEG
NEG
POS
NEG
NEG
POS
POS
NEG
POS
NEG
POS
POS
POS
POS
NEG
POS
POS
POS
POS
POS
NEG
NEG
NEG
POS
NEG
NEG
NEG
NEG
NEG
POS
POS
POS
POS
NEG
NEG
NEG
POS
POS
NEG
POS
NEG
NEG
NEG
POS
POS
POS
POS
POS
POS
NEG
NEG
NEG
POS
NEG
NEG
NEG
NEG
POS
NEG
NEG
NEG
NEG
POS
POS
POS
NEG
POS
POS
POS
NEG
POS
POS
NEG
POS
NEG
POS
NEG
NEG
NEG
NEG
NEG
NEG
POS
POS
NEG
NEG
POS
NEG
NEG
NEG
NEG
POS
NEG
POS
NEG
NEG
NEG
NEG
POS
NEG
NEG
POS
NEG
POS
POS
POS
POS
NEG
POS
POS
POS
POS
NEG
NEG
POS
NEG
POS
NEG
POS
POS
POS
NEG
NEG
POS
NEG
POS
NEG
POS
NEG
NEG
NEG
NEG
POS
NEG
NEG
POS
POS
NEG
NEG
POS
NEG
POS
NEG
POS
POS
NEG
POS
POS
POS
NEG
POS
POS
NEG
POS
NEG
NEG
POS
NEG
NEG
POS
POS
POS
NEG
POS
POS
NEG
POS
NEG
POS
POS
POS
NEG
POS
POS
NEG
NEG
POS
POS
NEG
POS
NEG
POS
NEG
NEG
POS
POS
POS
NEG
POS
POS
NEG
POS
POS
POS
NEG
POS
NEG
POS
NEG
NEG
NEG
NEG
NEG
POS
POS
NEG
NEG
POS
POS
POS
NEG
NEG
NEG
POS
NEG
NEG
NEG
POS
POS
NEG
NEG
POS
POS
POS
NEG
POS
POS
POS
NEG
NEG
POS
POS
NEG
NEG
NEG
NEG
POS
NEG
NEG
POS
NEG
NEG
NEG
NEG
NEG
NEG
POS
NEG
NEG
POS
NEG
POS
POS
POS
POS
POS
POS
POS
POS
POS
POS
POS
POS
POS
NEG
NEG
NEG
POS
POS
POS
POS
POS
POS
POS
NEG
NEG
NEG
POS
POS
NEG
POS
POS
POS
NEG
NEG
POS
NEG
NEG
NEG
POS
POS
NEG
POS
NEG
NEG
POS
NEG
POS
NEG
NEG
POS
POS
NEG
POS
NEG
NEG
NEG
NEG
NEG
NEG
POS
NEG
NEG
POS
NEG
NEG
POS
NEG
POS
POS
POS
NEG
NEG
NEG
NEG
NEG
NEG
POS
NEG
NEG
NEG
NEG
NEG
NEG
NEG
NEG
NEG
NEG
NEG
NEG
POS
POS
POS
POS
NEG
POS
POS
NEG
POS
POS
NEG
POS
NEG
POS
NEG
NEG
POS
POS
POS
POS
NEG
NEG
NEG
NEG
NEG
NEG
NEG
POS
NEG
POS
NEG
POS
POS
NEG
POS
POS
NEG
POS
NEG
POS
POS
NEG
POS
NEG
NEG
NEG
NEG
NEG
NEG
NEG
POS
NEG
NEG
NEG
POS
NEG
POS
NEG
NEG
NEG
POS
NEG
NEG
POS
NEG
POS
POS
POS
POS
NEG
NEG
NEG
NEG
NEG
POS
NEG
NEG
POS
POS
POS
POS
POS
POS
POS
POS
POS
NEG
POS
POS
NEG
NEG
NEG
POS
NEG
NEG
NEG
POS
NEG
NEG
NEG
NEG
POS
NEG
NEG
POS
POS
NEG
POS
NEG
NEG
POS
NEG
POS
NEG
NEG
NEG
NEG
POS
POS
NEG
NEG
POS
NEG
POS
NEG
POS
NEG
POS
NEG
NEG
NEG
POS
NEG
POS
NEG
POS
POS
NEG
NEG
NEG
POS
POS
NEG
NEG
NEG
NEG
POS
NEG
NEG
POS
POS
POS
NEG
POS
POS
POS
NEG
POS
NEG
NEG
POS
POS
POS
NEG
NEG
POS
POS
POS
NEG
POS
NEG
POS
POS
NEG
POS
POS
POS
POS
POS
NEG
NEG
POS
NEG
POS
POS
NEG
POS
NEG
NEG
NEG
POS
NEG
NEG
POS
NEG
NEG
NEG
NEG
POS
NEG
POS
NEG
POS
POS
NEG
NEG
POS
POS
NEG
POS
NEG
POS
NEG
NEG
POS
NEG
NEG
POS
POS
NEG
POS
POS
NEG
POS
POS
POS
NEG
POS
POS
NEG
POS
POS
NEG
POS
NEG
NEG
NEG
NEG
NEG
POS
POS
NEG
NEG
POS
NEG
POS
POS
POS
POS
NEG
NEG
POS
POS
POS
NEG
NEG
NEG
NEG
POS
POS
POS
POS
NEG
NEG
NEG
NEG
NEG
POS
NEG
NEG
NEG
POS
POS
POS
POS
NEG
POS
POS
NEG
NEG
POS
POS
NEG
NEG
NEG
POS
POS
NEG
NEG
POS
POS
POS
NEG
POS
NEG
NEG
NEG
POS
POS
NEG
POS
NEG
POS
POS
POS
NEG
POS
NEG
NEG
POS
NEG
NEG
NEG
NEG
NEG
POS
NEG
POS
NEG
POS
POS
POS
POS
POS
POS
POS
POS
NEG
NEG
NEG
NEG
NEG
NEG
POS
POS
NEG
POS
NEG
NEG
NEG
NEG
NEG
NEG
POS
NEG
NEG
NEG
NEG
POS
NEG
NEG
NEG
NEG
NEG
NEG
NEG
POS
POS
NEG
NEG
NEG
POS
NEG
POS
NEG
NEG
POS
NEG
NEG
NEG
NEG
NEG
NEG
POS
NEG
NEG
NEG
POS
NEG
NEG
NEG
NEG
POS
POS
NEG
POS
POS
NEG
POS
POS
NEG
NEG
POS
POS
NEG
NEG
POS
NEG
POS
POS
NEG
POS
NEG
POS
NEG
POS
NEG
POS
NEG
POS
NEG
POS
NEG
NEG
POS
NEG
POS
NEG
POS
NEG
NEG
POS
NEG
NEG
NEG
POS
NEG
NEG
NEG
POS
NEG
NEG
NEG
POS
NEG
NEG
NEG
POS
POS
POS
POS
NEG
POS
NEG
NEG
POS
POS
POS
NEG
NEG
NEG
NEG
NEG
NEG
NEG
POS
NEG
NEG
NEG
NEG
NEG
NEG
POS
POS
NEG
POS
NEG
NEG
NEG
NEG
NEG
POS
NEG
POS
POS
POS
POS
POS
NEG
NEG
POS
POS
NEG
NEG
NEG
POS
POS
NEG
POS
POS
NEG
POS
NEG
POS
NEG
POS
POS
NEG
POS
NEG
POS
POS
NEG
NEG
POS
POS
NEG
NEG
NEG
NEG
NEG
NEG
NEG
POS
NEG
NEG
NEG
NEG
NEG
POS
NEG
POS
NEG
NEG
POS
NEG
POS
NEG
POS
POS
NEG
POS
NEG
NEG
POS
POS
NEG
POS
NEG
POS
POS
POS
POS
NEG
POS
NEG
NEG
POS
NEG
NEG
NEG
POS
NEG
POS
NEG
POS
NEG
POS
POS
NEG
NEG
NEG
POS
POS
POS
NEG
NEG
POS
POS
NEG
POS
NEG
NEG
POS
POS
NEG
POS
NEG
NEG
POS
POS
POS
NEG
POS
NEG
NEG
NEG
NEG
POS
POS
POS
POS
POS
POS
NEG
POS
NEG
NEG
POS
NEG
NEG
NEG
NEG
POS
NEG
POS
NEG
POS
POS
NEG
NEG
POS
NEG
POS
POS
POS
NEG
POS
NEG
POS
POS
NEG
POS
NEG
POS
POS
NEG
NEG
NEG
NEG
POS
NEG
NEG
POS
NEG
NEG
POS
POS
NEG
POS
POS
NEG
POS
POS
POS
POS
POS
POS
NEG
POS
NEG
POS
NEG
NEG
NEG
NEG
NEG
POS
NEG
POS
NEG
NEG
NEG
NEG
NEG
POS
NEG
NEG
NEG
NEG
POS
NEG
NEG
POS
NEG
POS
NEG
POS
NEG
NEG
NEG
POS
POS
NEG
NEG
NEG
NEG
NEG
POS
POS
NEG
POS
NEG
POS
NEG
NEG
NEG
NEG
NEG
POS
NEG
NEG
POS
NEG
NEG
NEG
POS
POS
NEG
NEG
NEG
NEG
POS
POS
POS
NEG
POS
NEG
POS
POS
POS
NEG
NEG
POS
NEG
NEG
NEG
POS
POS
POS
POS
NEG
POS
POS
POS
POS
NEG
POS
NEG
POS
POS
POS
NEG
POS
POS
NEG
NEG
POS
POS
POS
NEG
POS
POS
NEG
NEG
POS
NEG
POS
POS
NEG
NEG
NEG
NEG
NEG
POS
NEG
NEG
NEG
NEG
POS
POS
NEG
NEG
NEG
NEG
NEG
NEG
POS
POS
POS
POS
NEG
POS
NEG
POS
POS
NEG
POS
NEG
NEG
NEG
POS
POS
POS
POS
NEG
NEG
POS
POS
POS
POS
POS
POS
NEG
POS
NEG
NEG
POS
POS
POS
POS
POS
NEG
NEG
POS
NEG
NEG
NEG
NEG
NEG
POS
POS
POS
NEG
POS
NEG
NEG
NEG
POS
NEG
NEG
NEG
NEG
NEG
POS
POS
POS
NEG
NEG
NEG
NEG
NEG
POS
NEG
NEG
POS
POS
NEG
POS
NEG
NEG
NEG
NEG
POS
POS
NEG
POS
NEG
POS
NEG
POS
NEG
NEG
NEG
NEG
NEG
NEG
POS
NEG
POS
NEG
POS
POS
NEG
POS
NEG
POS
POS
POS
POS
POS
POS
POS
POS
NEG
POS
NEG
POS
NEG
NEG
POS
NEG
NEG
NEG
POS
NEG
POS
POS
NEG
NEG
NEG
NEG
NEG
NEG
POS
NEG
POS
POS
NEG
NEG
NEG
POS
NEG
NEG
NEG
POS
NEG
POS
NEG
NEG
NEG
NEG
NEG
POS
NEG
POS
POS
POS
NEG
NEG
NEG
NEG
POS
NEG
NEG
NEG
POS
NEG
NEG
POS
POS
NEG
NEG
NEG
POS
POS
POS
POS
POS
POS
NEG
POS
POS
POS
POS
POS
NEG
POS
POS
NEG
POS
NEG
POS
POS
NEG
POS
POS
POS
NEG
POS
POS
NEG
POS
NEG
NEG
NEG
POS
NEG
NEG
NEG
NEG
NEG
POS
NEG
POS
POS
POS
POS
POS
NEG
NEG
POS
NEG
NEG
POS
POS
NEG
POS
POS
NEG
POS
NEG
NEG
POS
POS
POS
POS
POS
NEG
POS
POS
NEG
POS
NEG
NEG
NEG
NEG
NEG
POS
POS
NEG
NEG
POS
POS
POS
NEG
POS
POS
POS
NEG
POS
NEG
NEG
POS
POS
POS
POS
POS
POS
NEG
POS
POS
NEG
POS
POS
NEG
NEG
POS
NEG
POS
POS
NEG
NEG
NEG
NEG
NEG
NEG
NEG
NEG
NEG
POS
NEG
POS
POS
POS
POS
POS
NEG
NEG
NEG
POS
NEG
NEG
NEG
POS
POS
NEG
POS
POS
NEG
NEG
NEG
NEG
NEG
NEG
NEG
POS
NEG
NEG
NEG
NEG
NEG
POS
NEG
POS
NEG
POS
NEG
NEG
NEG
POS
NEG
NEG
NEG
POS
NEG
POS
NEG
NEG
NEG
NEG
NEG
POS
POS
POS
POS
NEG
POS
POS
NEG
NEG
NEG
POS
POS
NEG
POS
NEG
POS
POS
POS
NEG
NEG
NEG
POS
POS
NEG
NEG
POS
POS
NEG
NEG
NEG
POS
NEG
POS
NEG
NEG
POS
NEG
POS
POS
NEG
NEG
POS
POS
NEG
NEG
NEG
NEG
POS
NEG
POS
POS
NEG
NEG
POS
NEG
NEG
POS
NEG
NEG
POS
POS
NEG
POS
NEG
NEG
NEG
NEG
NEG
POS
NEG
NEG
POS
NEG
POS
NEG
POS
NEG
NEG
POS
POS
POS
NEG
NEG
NEG
NEG
POS
POS
NEG
NEG
POS
NEG
POS
NEG
NEG
POS
NEG
NEG
NEG
POS
POS
POS
NEG
NEG
NEG
POS
POS
NEG
NEG
NEG
NEG
POS
NEG
NEG
NEG
POS
POS
POS
NEG
NEG
POS
POS
POS
NEG
POS
POS
NEG
NEG
POS
NEG
POS
NEG
NEG
POS
POS
POS
NEG
NEG
POS
POS
POS
NEG
NEG
NEG
NEG
POS
POS
POS
POS
NEG
NEG
POS
NEG
NEG
NEG
POS
NEG
NEG
POS
NEG
NEG
POS
NEG
POS
POS
NEG
NEG
NEG
NEG
NEG
NEG
POS
NEG
NEG
NEG
POS
NEG
NEG
POS
NEG
POS
POS
POS
POS
NEG
NEG
POS
NEG
NEG
POS
NEG
POS
NEG
NEG
NEG
NEG
NEG
POS
NEG
NEG
POS
POS
POS
POS
NEG
POS
POS
NEG
POS
POS
NEG
POS
NEG
POS
NEG
POS
POS
NEG
NEG
NEG
NEG
POS
POS
POS
POS
POS
NEG
POS
NEG
POS
NEG
NEG
NEG
NEG
POS
POS
NEG
POS
NEG
POS
NEG
POS
POS
POS
POS
NEG
POS
POS
POS
NEG
POS
NEG
NEG
POS
NEG
NEG
POS
POS
POS
NEG
NEG
NEG
POS
NEG
POS
NEG
NEG
NEG
POS
NEG
NEG
NEG
POS
POS
NEG
POS
POS
NEG
NEG
NEG
NEG
POS
POS
POS
POS
NEG
POS
POS
POS
NEG
NEG
POS
NEG
NEG
POS
POS
NEG
POS
POS
NEG
POS
NEG
NEG
POS
POS
POS
POS
NEG
NEG
NEG
NEG
NEG
NEG
NEG
NEG
POS
NEG
NEG
POS
NEG
POS
NEG
POS
POS
POS
NEG
POS
POS
NEG
NEG
POS
NEG
NEG
NEG
NEG
NEG
NEG
POS
POS
POS
NEG
NEG
NEG
POS
POS
NEG
POS
NEG
NEG
NEG
POS
NEG
NEG
NEG
POS
NEG
NEG
NEG
POS
NEG
POS
POS
NEG
POS
NEG
POS
POS
POS
POS
POS
NEG
NEG
POS
POS
NEG
NEG
NEG
NEG
NEG
POS
NEG
POS
POS
POS
NEG
NEG
NEG
NEG
NEG
NEG
POS
POS
NEG
NEG
NEG
NEG
POS
POS
NEG
NEG
NEG
NEG
NEG
POS
NEG
POS
POS
NEG
POS
NEG
NEG
POS
POS
POS
POS
NEG
NEG
POS
NEG
POS
NEG
NEG
NEG
POS
NEG
POS
NEG
POS
NEG
POS
POS
POS
NEG
NEG
NEG
NEG
POS
POS
NEG
NEG
POS
POS
POS
POS
POS
NEG
POS
NEG
POS
NEG
NEG
POS
NEG
NEG
NEG
NEG
POS
NEG
NEG
NEG
NEG
NEG
NEG
NEG
NEG
POS
POS
NEG
POS
NEG
POS
NEG
POS
POS
NEG
NEG
POS
POS
NEG
POS
POS
NEG
NEG
NEG
NEG
NEG
POS
NEG
NEG
POS
POS
POS
POS
POS
POS
POS
POS
POS
POS
NEG
POS
POS
NEG
NEG
NEG
POS
NEG
NEG
POS
NEG
NEG
POS
NEG
NEG
NEG
POS
NEG
POS
NEG
POS
NEG
NEG
POS
NEG
NEG
POS
NEG
NEG
NEG
POS
NEG
NEG
POS
NEG
NEG
POS
NEG
NEG
NEG
NEG
NEG
NEG
NEG
NEG
POS
NEG
NEG
POS
POS
POS
NEG
POS
NEG
NEG
POS
NEG
NEG
POS
POS
POS
POS
POS
POS
NEG
NEG
NEG
NEG
NEG
NEG
POS
NEG
POS
NEG
NEG
NEG
NEG
POS
POS
POS
NEG
NEG
POS
POS
POS
NEG
NEG
NEG
NEG
POS
POS
POS
POS
NEG
NEG
POS
NEG
NEG
POS
NEG
NEG
NEG
NEG
POS
NEG
NEG
NEG
NEG
POS
NEG
POS
NEG
NEG
POS
POS
POS
NEG
NEG
POS
POS
POS
NEG
NEG
NEG
NEG
POS
POS
POS
POS
POS
NEG
POS
NEG
POS
NEG
POS
POS
NEG
NEG
POS
NEG
POS
POS
NEG
POS
NEG
NEG
NEG
POS
POS
POS
POS
NEG
POS
NEG
NEG
NEG
NEG
NEG
POS
NEG
NEG
NEG
POS
POS
NEG
POS
POS
NEG
NEG
NEG
NEG
NEG
NEG
POS
NEG
NEG
POS
POS
POS
POS
NEG
NEG
POS
POS
POS
NEG
NEG
NEG
POS
NEG
NEG
POS
POS
NEG
POS
POS
POS
NEG
POS
NEG
POS
POS
POS
NEG
NEG
POS
NEG
NEG
POS
NEG
NEG
POS
NEG
POS
NEG
NEG
POS
POS
NEG
NEG
POS
POS
POS
NEG
POS
NEG
POS
NEG
POS
NEG
NEG
POS
NEG
NEG
NEG
POS
NEG
NEG
POS
NEG
NEG
NEG
NEG
NEG
POS
POS
POS
POS
NEG
NEG
NEG
POS
NEG
POS
NEG
POS
NEG
NEG
POS
NEG
POS
NEG
POS
NEG
POS
NEG
NEG
NEG
POS
NEG
POS
NEG
POS
NEG
NEG
NEG
POS
NEG
POS
NEG
NEG
POS
POS
NEG
NEG
NEG
POS
POS
POS
NEG
NEG
POS
POS
NEG
POS
NEG
NEG
NEG
NEG
NEG
POS
POS
NEG
POS
POS
NEG
POS
POS
POS
NEG
POS
NEG
NEG
NEG
NEG
POS
NEG
POS
NEG
POS
POS
NEG
POS
POS
NEG
NEG
POS
POS
NEG
NEG
NEG
NEG
NEG
POS
POS
POS
POS
POS
NEG
NEG
POS
POS
NEG
POS
POS
POS
NEG
POS
NEG
NEG
POS
NEG
POS
POS
NEG
POS
NEG
NEG
NEG
NEG
NEG
NEG
POS
NEG
POS
POS
POS
NEG
NEG
POS
NEG
POS
NEG
POS
NEG
NEG
NEG
NEG
POS
NEG
POS
NEG
POS
NEG
POS
NEG
POS
POS
NEG
NEG
NEG
NEG
NEG
NEG
POS
POS
NEG
NEG
POS
NEG
POS
POS
NEG
POS
NEG
NEG
POS
POS
NEG
NEG
POS
POS
NEG
NEG
NEG
NEG
POS
POS
POS
NEG
NEG
POS
NEG
NEG
POS
NEG
POS
POS
NEG
POS
NEG
POS
NEG
NEG
NEG
POS
POS
POS
NEG
POS
NEG
POS
NEG
POS
NEG
NEG
POS
POS
NEG
POS
NEG
NEG
NEG
NEG
POS
POS
NEG
NEG
POS
POS
NEG
NEG
POS
NEG
NEG
NEG
POS
POS
POS
NEG
POS
NEG
POS
POS
NEG
NEG
NEG
NEG
POS
NEG
NEG
NEG
NEG
NEG
NEG
NEG
NEG
NEG
NEG
NEG
NEG
NEG
NEG
POS
NEG
NEG
POS
NEG
NEG
NEG
POS
POS
POS
NEG
NEG
NEG
POS
NEG
NEG
POS
NEG
POS
POS
POS
POS
NEG
NEG
NEG
NEG
POS
NEG
POS
NEG
POS
NEG
NEG
POS
POS
POS
POS
NEG
NEG
NEG
NEG
POS
POS
NEG
POS
POS
POS
NEG
NEG
POS
NEG
NEG
NEG
NEG
NEG
NEG
NEG
POS
NEG
NEG
POS
NEG
NEG
POS
NEG
POS
NEG
NEG
NEG
POS
NEG
POS
NEG
POS
POS
POS
NEG
POS
POS
NEG
NEG
NEG
NEG
NEG
POS
NEG
POS
NEG
POS
NEG
POS
NEG
POS
NEG
POS
NEG
POS
POS
POS
POS
NEG
POS
POS
POS
NEG
NEG
NEG
POS
POS
NEG
NEG
POS
POS
POS
NEG
NEG
NEG
POS
NEG
NEG
NEG
NEG
NEG
POS
NEG
NEG
POS
NEG
POS
NEG
POS
NEG
POS
POS
NEG
NEG
NEG
NEG
POS
NEG
NEG
NEG
POS
NEG
POS
NEG
POS
POS
POS
POS
NEG
NEG
POS
NEG
POS
NEG
NEG
NEG
POS
NEG
NEG
POS
POS
POS
NEG
NEG
NEG
NEG
NEG
POS
NEG
NEG
POS
NEG
NEG
POS
POS
NEG
POS
POS
NEG
POS
NEG
NEG
POS
NEG
POS
POS
NEG
POS
POS
NEG
NEG
POS
NEG
NEG
NEG
NEG
NEG
NEG
NEG
NEG
NEG
NEG
NEG
POS
NEG
NEG
POS
NEG
NEG
POS
NEG
NEG
POS
POS
NEG
NEG
NEG
NEG
POS
NEG
POS
POS
NEG
NEG
POS
NEG
NEG
POS
NEG
NEG
NEG
NEG
POS
NEG
POS
POS
NEG
NEG
NEG
NEG
NEG
NEG
NEG
NEG
NEG
NEG
POS
POS
POS
NEG
POS
POS
POS
NEG
NEG
NEG
NEG
NEG
NEG
NEG
NEG
NEG
NEG
NEG
NEG
POS
POS
POS
POS
NEG
NEG
POS
NEG
POS
NEG
NEG
POS
NEG
POS
POS
NEG
NEG
POS
NEG
NEG
NEG
NEG
POS
POS
POS
POS
NEG
POS
NEG
POS
NEG
POS
NEG
NEG
NEG
POS
NEG
POS
NEG
NEG
POS
NEG
POS
NEG
POS
NEG
NEG
NEG
NEG
POS
POS
NEG
NEG
NEG
NEG
NEG
POS
NEG
POS
NEG
POS
NEG
NEG
NEG
POS
POS
NEG
NEG
NEG
POS
POS
POS
POS
POS
NEG
POS
NEG
NEG
POS
POS
NEG
NEG
NEG
NEG
NEG
NEG
POS
NEG
POS
POS
POS
POS
POS
POS
POS
NEG
NEG
POS
POS
POS
NEG
POS
NEG
POS
NEG
NEG
POS
NEG
POS
POS
NEG
POS
NEG
POS
POS
NEG
POS
POS
NEG
POS
NEG
NEG
POS
POS
NEG
POS
POS
NEG
NEG
POS
NEG
POS
NEG
NEG
NEG
NEG
NEG
NEG
POS
NEG
NEG
NEG
POS
POS
POS
NEG
NEG
NEG
POS
POS
NEG
NEG
NEG
NEG
POS
NEG
NEG
POS
POS
NEG
NEG
POS
POS
POS
POS
NEG
NEG
NEG
POS
POS
POS
POS
NEG
NEG
NEG
POS
NEG
NEG
POS
POS
NEG
POS
NEG
POS
NEG
NEG
POS
NEG
POS
NEG
NEG
NEG
NEG
POS
POS
NEG
NEG
NEG
POS
NEG
POS
POS
POS
POS
POS
NEG
POS
POS
POS
POS
NEG
POS
NEG
POS
POS
NEG
POS
NEG
NEG
POS
NEG
NEG
POS
NEG
POS
NEG
NEG
POS
NEG
NEG
POS
NEG
NEG
NEG
NEG
POS
NEG
NEG
POS
NEG
NEG
POS
NEG
NEG
POS
NEG
POS
NEG
NEG
NEG
POS
NEG
POS
NEG
NEG
POS
NEG
POS
NEG
NEG
NEG
POS
NEG
POS
NEG
POS
NEG
NEG
POS
NEG
POS
POS
POS
POS
NEG
POS
POS
POS
NEG
NEG
POS
NEG
POS
POS
NEG
NEG
POS
NEG
POS
POS
POS
NEG
POS
NEG
NEG
POS
POS
NEG
POS
POS
NEG
NEG
NEG
POS
POS
NEG
POS
POS
POS
NEG
NEG
NEG
POS
NEG
POS
NEG
POS
NEG
NEG
POS
NEG
NEG
POS
NEG
POS
POS
POS
NEG
NEG
NEG
POS
NEG
POS
NEG
NEG
NEG
POS
POS
NEG
NEG
NEG
NEG
POS
POS
NEG
POS
NEG
NEG
NEG
NEG
NEG
POS
POS
NEG
NEG
NEG
NEG
NEG
NEG
NEG
POS
POS
NEG
POS
NEG
POS
NEG
NEG
POS
NEG
NEG
POS
NEG
NEG
NEG
NEG
POS
NEG
NEG
POS
POS
POS
NEG
POS
POS
NEG
NEG
NEG
POS
POS
NEG
NEG
POS
NEG
POS
POS
NEG
NEG
POS
NEG
POS
POS
NEG
POS
POS
NEG
POS
NEG
NEG
NEG
NEG
POS
NEG
POS
POS
NEG
POS
NEG
NEG
NEG
POS
NEG
NEG
NEG
POS
NEG
POS
NEG
POS
POS
NEG
NEG
POS
POS
NEG
NEG
NEG
POS
NEG
NEG
NEG
NEG
POS
NEG
POS
NEG
POS
NEG
NEG
POS
POS
NEG
POS
NEG
POS
POS
NEG
POS
NEG
NEG
NEG
POS
NEG
POS
NEG
NEG
NEG
POS
NEG
POS
POS
POS
NEG
POS
POS
POS
NEG
NEG
NEG
POS
NEG
POS
NEG
NEG
POS
POS
POS
POS
NEG
NEG
POS
NEG
POS
POS
POS
NEG
POS
NEG
POS
POS
POS
NEG
NEG
POS
NEG
NEG
NEG
POS
POS
NEG
POS
NEG
NEG
NEG
NEG
NEG
NEG
NEG
POS
POS
NEG
NEG
NEG
POS
NEG
NEG
POS
POS
NEG
POS
POS
NEG
NEG
NEG
POS
POS
NEG
NEG
POS
POS
NEG
NEG
POS
NEG
NEG
POS
POS
POS
NEG
NEG
NEG
NEG
NEG
NEG
NEG
NEG
NEG
POS
NEG
NEG
POS
NEG
NEG
NEG
NEG
NEG
POS
NEG
NEG
POS
NEG
POS
POS
NEG
NEG
NEG
NEG
NEG
POS
NEG
NEG
POS
POS
NEG
POS
NEG
POS
POS
POS
POS
NEG
POS
NEG
POS
NEG
NEG
NEG
POS
NEG
NEG
POS
POS
NEG
NEG
POS
NEG
POS
POS
NEG
NEG
POS
NEG
NEG
NEG
POS
NEG
POS
POS
POS
NEG
NEG
NEG
POS
POS
POS
POS
POS
NEG
NEG
POS
NEG
NEG
NEG
NEG
NEG
POS
NEG
POS
POS
POS
NEG
NEG
POS
POS
POS
NEG
POS
NEG
POS
NEG
POS
NEG
POS
POS
POS
POS
POS
NEG
POS
POS
NEG
NEG
NEG
POS
NEG
POS
NEG
POS
NEG
NEG
POS
NEG
NEG
POS
NEG
POS
NEG
NEG
POS
NEG
POS
NEG
POS
NEG
NEG
NEG
NEG
POS
POS
NEG
POS
POS
POS
POS
NEG
POS
POS
POS
NEG
NEG
NEG
POS
NEG
NEG
NEG
NEG
NEG
POS
NEG
POS
NEG
NEG
NEG
NEG
NEG
NEG
NEG
NEG
NEG
NEG
NEG
POS
NEG
NEG
NEG
NEG
POS
NEG
POS
NEG
POS
POS
NEG
NEG
POS
POS
NEG
POS
NEG
NEG
NEG
POS
NEG
NEG
NEG
POS
NEG
NEG
POS
NEG
NEG
NEG
POS
NEG
NEG
NEG
POS
NEG
POS
POS
POS
POS
NEG
POS
NEG
POS
NEG
NEG
POS
POS
NEG
POS
NEG
NEG
POS
NEG
POS
POS
POS
NEG
NEG
POS
POS
NEG
POS
POS
NEG
NEG
NEG
NEG
POS
NEG
NEG
POS
POS
NEG
NEG
NEG
POS
POS
POS
POS
POS
POS
NEG
POS
POS
POS
NEG
NEG
POS
POS
POS
NEG
NEG
NEG
POS
POS
NEG
POS
POS
NEG
NEG
NEG
NEG
NEG
POS
POS
NEG
NEG
NEG
POS
POS
NEG
POS
NEG
POS
NEG
NEG
NEG
NEG
NEG
POS
POS
POS
NEG
NEG
POS
NEG
NEG
NEG
POS
NEG
POS
POS
NEG
NEG
NEG
NEG
POS
NEG
POS
POS
NEG
NEG
NEG
POS
NEG
NEG
NEG
NEG
NEG
NEG
POS
NEG
POS
POS
POS
POS
POS
NEG
POS
NEG
POS
POS
POS
POS
NEG
NEG
NEG
POS
POS
NEG
NEG
POS
POS
NEG
NEG
NEG
NEG
POS
NEG
POS
NEG
NEG
POS
NEG
NEG
NEG
NEG
POS
NEG
NEG
POS
NEG
NEG
NEG
NEG
NEG
NEG
POS
NEG
POS
POS
NEG
NEG
NEG
POS
NEG
POS
POS
NEG
POS
NEG
NEG
POS
NEG
NEG
POS
NEG
NEG
POS
POS
NEG
NEG
POS
POS
POS
POS
NEG
NEG
NEG
NEG
NEG
NEG
NEG
NEG
POS
POS
POS
POS
NEG
POS
POS
NEG
POS
POS
NEG
POS
NEG
NEG
POS
NEG
NEG
NEG
NEG
POS
POS
NEG
NEG
NEG
NEG
NEG
POS
POS
POS
POS
POS
POS
POS
NEG
NEG
POS
NEG
NEG
POS
POS
NEG
NEG
NEG
NEG
NEG
POS
NEG
POS
NEG
POS
NEG
NEG
POS
POS
NEG
POS
NEG
NEG
NEG
POS
POS
NEG
POS
NEG
NEG
POS
POS
NEG
NEG
NEG
POS
POS
NEG
NEG
NEG
NEG
NEG
POS
NEG
NEG
NEG
POS
NEG
NEG
NEG
NEG
POS
NEG
NEG
POS
POS
NEG
POS
NEG
NEG
POS
POS
POS
POS
NEG
NEG
POS
POS
NEG
POS
NEG
NEG
NEG
POS
NEG
POS
NEG
NEG
NEG
POS
NEG
POS
NEG
NEG
POS
NEG
POS
NEG
POS
POS
POS
NEG
POS
NEG
NEG
POS
NEG
NEG
POS
POS
POS
POS
POS
POS
NEG
POS
NEG
NEG
NEG
POS
POS
NEG
NEG
POS
POS
POS
NEG
POS
NEG
NEG
POS
POS
POS
POS
POS
NEG
NEG
NEG
NEG
NEG
NEG
POS
POS
POS
POS
NEG
POS
NEG
NEG
NEG
NEG
NEG
NEG
NEG
NEG
NEG
NEG
NEG
POS
NEG
NEG
POS
NEG
POS
POS
NEG
POS
NEG
NEG
NEG
NEG
NEG
POS
NEG
POS
NEG
POS
NEG
NEG
NEG
NEG
POS
POS
NEG
NEG
POS
NEG
POS
NEG
NEG
POS
POS
POS
POS
NEG
POS
NEG
POS
NEG
POS
NEG
POS
NEG
POS
POS
NEG
POS
NEG
NEG
NEG
NEG
NEG
NEG
NEG
NEG
POS
POS
POS
NEG
NEG
POS
POS
NEG
NEG
POS
POS
NEG
NEG
NEG
NEG
POS
POS
POS
POS
POS
NEG
NEG
POS
NEG
POS
POS
NEG
POS
POS
POS
NEG
POS
POS
NEG
NEG
NEG
NEG
NEG
NEG
NEG
POS
NEG
POS
NEG
NEG
NEG
POS
POS
NEG
NEG
POS
NEG
POS
POS
NEG
POS
POS
POS
POS
NEG
NEG
NEG
POS
NEG
NEG
POS
POS
POS
NEG
POS
NEG
POS
NEG
POS
POS
NEG
POS
NEG
NEG
NEG
POS
NEG
POS
POS
POS
NEG
POS
POS
NEG
POS
POS
NEG
NEG
NEG
POS
NEG
POS
NEG
NEG
POS
NEG
NEG
NEG
NEG
POS
NEG
POS
POS
NEG
NEG
NEG
NEG
POS
POS
POS
POS
NEG
NEG
POS
NEG
NEG
POS
NEG
NEG
NEG
POS
NEG
POS
NEG
NEG
NEG
NEG
NEG
NEG
POS
NEG
POS
POS
NEG
POS
NEG
POS
POS
NEG
POS
POS
POS
POS
POS
NEG
NEG
NEG
NEG
NEG
NEG
POS
NEG
NEG
NEG
POS
POS
NEG
POS
POS
NEG
NEG
NEG
NEG
NEG
NEG
NEG
NEG
NEG
NEG
POS
POS
POS
NEG
NEG
NEG
NEG
NEG
NEG
POS
POS
NEG
POS
NEG
POS
NEG
POS
NEG
POS
NEG
POS
NEG
NEG
NEG
NEG
POS
POS
NEG
POS
POS
POS
POS
NEG
NEG
NEG
NEG
NEG
POS
POS
NEG
POS
NEG
NEG
NEG
NEG
NEG
POS
NEG
POS
NEG
NEG
POS
NEG
NEG
POS
NEG
NEG
NEG
NEG
POS
POS
POS
POS
POS
POS
POS
POS
POS
NEG
NEG
NEG
NEG
NEG
NEG
POS
POS
NEG
POS
POS
POS
NEG
POS
POS
POS
POS
POS
NEG
NEG
POS
POS
NEG
POS
NEG
NEG
NEG
POS
POS
POS
POS
POS
NEG
POS
POS
POS
NEG
POS
NEG
NEG
NEG
POS
POS
NEG
NEG
NEG
NEG
NEG
NEG
NEG
NEG
NEG
POS
POS
POS
POS
NEG
NEG
NEG
NEG
NEG
POS
NEG
POS
NEG
POS
NEG
NEG
POS
NEG
NEG
POS
NEG
POS
NEG
NEG
NEG
NEG
POS
NEG
NEG
POS
POS
NEG
NEG
POS
POS
POS
POS
POS
POS
POS
NEG
NEG
NEG
POS
POS
NEG
POS
NEG
NEG
POS
NEG
POS
POS
NEG
NEG
POS
NEG
NEG
POS
NEG
NEG
POS
POS
NEG
NEG
NEG
POS
POS
NEG
POS
POS
NEG
POS
POS
NEG
POS
NEG
POS
NEG
POS
NEG
NEG
NEG
POS
POS
POS
POS
POS
NEG
POS
NEG
POS
POS
POS
POS
NEG
NEG
NEG
NEG
POS
NEG
POS
POS
NEG
NEG
NEG
NEG
NEG
POS
POS
POS
POS
POS
NEG
NEG
POS
NEG
NEG
NEG
NEG
NEG
NEG
NEG
POS
POS
NEG
POS
NEG
NEG
NEG
NEG
NEG
NEG
POS
POS
POS
POS
NEG
NEG
NEG
POS
NEG
NEG
POS
POS
NEG
NEG
NEG
POS
NEG
POS
POS
POS
POS
POS
POS
NEG
NEG
POS
POS
POS
POS
NEG
POS
NEG
POS
POS
POS
NEG
POS
POS
POS
POS
NEG
NEG
NEG
POS
NEG
NEG
NEG
NEG
POS
POS
NEG
POS
NEG
POS
NEG
NEG
POS
NEG
POS
NEG
POS
POS
POS
POS
NEG
POS
NEG
NEG
NEG
POS
NEG
NEG
POS
POS
POS
NEG
POS
NEG
POS
NEG
POS
NEG
NEG
NEG
POS
POS
POS
NEG
NEG
NEG
NEG
NEG
NEG
POS
NEG
POS
NEG
POS
NEG
POS
NEG
NEG
POS
NEG
NEG
NEG
NEG
POS
NEG
NEG
POS
NEG
NEG
POS
POS
NEG
NEG
NEG
POS
NEG
NEG
NEG
NEG
POS
POS
POS
POS
POS
NEG
NEG
POS
POS
POS
POS
POS
POS
NEG
NEG
POS
POS
NEG
POS
POS
NEG
NEG
POS
NEG
POS
POS
POS
NEG
NEG
POS
POS
POS
POS
POS
NEG
NEG
POS
POS
NEG
NEG
POS
POS
NEG
NEG
POS
POS
NEG
NEG
POS
POS
NEG
NEG
POS
POS
POS
POS
NEG
NEG
POS
POS
POS
POS
NEG
NEG
NEG
NEG
NEG
NEG
NEG
NEG
POS
NEG
NEG
POS
POS
NEG
NEG
NEG
NEG
POS
NEG
NEG
POS
POS
POS
POS
NEG
POS
POS
POS
NEG
POS
POS
POS
NEG
POS
NEG
NEG
POS
POS
NEG
NEG
POS
POS
NEG
NEG
NEG
POS
NEG
POS
NEG
NEG
NEG
NEG
POS
NEG
POS
NEG
POS
POS
POS
NEG
NEG
NEG
POS
POS
NEG
NEG
NEG
POS
NEG
NEG
POS
NEG
POS
POS
POS
NEG
NEG
NEG
NEG
POS
POS
POS
NEG
NEG
NEG
NEG
NEG
POS
POS
NEG
NEG
NEG
NEG
NEG
POS
POS
POS
POS
NEG
NEG
NEG
POS
POS
POS
NEG
POS
NEG
POS
NEG
POS
POS
POS
NEG
POS
NEG
POS
NEG
POS
POS
NEG
POS
POS
POS
NEG
NEG
POS
POS
POS
NEG
POS
NEG
NEG
NEG
NEG
NEG
NEG
POS
NEG
POS
POS
NEG
NEG
NEG
NEG
POS
POS
POS
NEG
POS
POS
NEG
NEG
POS
POS
POS
POS
POS
NEG
POS
NEG
NEG
NEG
POS
POS
NEG
NEG
POS
NEG
POS
NEG
POS
NEG
NEG
POS
NEG
NEG
NEG
POS
NEG
POS
POS
NEG
NEG
NEG
POS
POS
NEG
NEG
NEG
POS
NEG
NEG
POS
POS
POS
NEG
POS
NEG
NEG
POS
NEG
POS
POS
NEG
NEG
NEG
NEG
POS
NEG
POS
NEG
POS
NEG
POS
POS
NEG
POS
POS
POS
NEG
NEG
POS
NEG
POS
NEG
NEG
NEG
NEG
POS
POS
NEG
NEG
POS
NEG
NEG
POS
POS
NEG
POS
NEG
NEG
NEG
NEG
NEG
NEG
POS
NEG
POS
NEG
POS
POS
POS
POS
POS
POS
POS
NEG
NEG
POS
POS
NEG
NEG
POS
NEG
POS
POS
POS
NEG
POS
NEG
NEG
NEG
POS
POS
POS
NEG
NEG
NEG
NEG
POS
POS
POS
POS
POS
NEG
POS
POS
POS
NEG
POS
NEG
NEG
NEG
NEG
POS
POS
NEG
POS
POS
NEG
NEG
NEG
POS
POS
NEG
NEG
NEG
NEG
NEG
NEG
NEG
POS
POS
NEG
POS
POS
NEG
POS
NEG
NEG
NEG
NEG
POS
NEG
NEG
NEG
NEG
POS
NEG
POS
POS
POS
POS
NEG
NEG
POS
POS
POS
NEG
POS
NEG
NEG
POS
NEG
NEG
POS
NEG
NEG
POS
POS
NEG
POS
NEG
POS
POS
NEG
POS
NEG
NEG
NEG
POS
POS
NEG
NEG
POS
NEG
NEG
NEG
POS
NEG
NEG
NEG
POS
NEG
NEG
NEG
POS
POS
NEG
NEG
POS
NEG
NEG
POS
POS
POS
NEG
POS
POS
NEG
POS
NEG
NEG
NEG
POS
POS
POS
NEG
POS
POS
POS
NEG
POS
NEG
NEG
NEG
NEG
POS
NEG
POS
NEG
NEG
POS
NEG
NEG
POS
POS
NEG
POS
POS
POS
NEG
NEG
POS
POS
POS
NEG
POS
POS
POS
POS
NEG
POS
NEG
POS
POS
NEG
NEG
POS
POS
POS
NEG
NEG
POS
POS
NEG
NEG
POS
NEG
NEG
NEG
POS
POS
POS
POS
NEG
NEG
NEG
POS
POS
POS
NEG
NEG
POS
POS
NEG
POS
POS
NEG
NEG
NEG
NEG
NEG
POS
NEG
NEG
NEG
POS
NEG
NEG
POS
POS
POS
NEG
NEG
POS
NEG
NEG
POS
POS
NEG
NEG
POS
NEG
NEG
POS
NEG
POS
NEG
POS
POS
NEG
POS
NEG
NEG
POS
POS
NEG
NEG
NEG
NEG
POS
POS
POS
POS
POS
NEG
POS
NEG
POS
NEG
NEG
POS
POS
POS
POS
POS
NEG
NEG
NEG
POS
POS
NEG
POS
NEG
POS
NEG
POS
NEG
NEG
NEG
NEG
NEG
NEG
NEG
NEG
POS
NEG
POS
NEG
NEG
POS
NEG
NEG
NEG
NEG
NEG
POS
POS
POS
POS
NEG
NEG
NEG
POS
NEG
POS
NEG
NEG
NEG
POS
NEG
POS
POS
POS
POS
NEG
NEG
NEG
NEG
NEG
POS
NEG
POS
NEG
POS
POS
POS
NEG
NEG
POS
NEG
NEG
POS
POS
POS
POS
POS
NEG
POS
POS
NEG
NEG
NEG
POS
NEG
NEG
NEG
POS
POS
POS
NEG
POS
NEG
NEG
POS
POS
NEG
POS
POS
NEG
POS
POS
POS
NEG
POS
POS
NEG
NEG
POS
POS
NEG
NEG
NEG
NEG
NEG
NEG
POS
NEG
NEG
POS
POS
NEG
NEG
POS
NEG
NEG
NEG
NEG
POS
POS
NEG
POS
POS
POS
NEG
NEG
NEG
NEG
NEG
NEG
NEG
NEG
NEG
POS
NEG
POS
NEG
POS
NEG
POS
POS
POS
POS
NEG
NEG
POS
POS
NEG
NEG
NEG
POS
NEG
NEG
NEG
POS
POS
POS
NEG
POS
NEG
POS
NEG
NEG
POS
POS
NEG
NEG
NEG
NEG
POS
NEG
POS
POS
POS
NEG
POS
NEG
NEG
POS
NEG
POS
NEG
NEG
POS
NEG
NEG
NEG
NEG
NEG
POS
NEG
NEG
NEG
POS
NEG
NEG
NEG
POS
NEG
POS
POS
POS
NEG
NEG
POS
POS
NEG
NEG
NEG
NEG
NEG
POS
NEG
NEG
NEG
POS
NEG
NEG
NEG
NEG
NEG
NEG
NEG
POS
POS
NEG
NEG
NEG
POS
POS
NEG
NEG
NEG
POS
NEG
NEG
NEG
POS
NEG
NEG
NEG
NEG
NEG
NEG
NEG
NEG
POS
POS
NEG
NEG
POS
POS
POS
POS
NEG
NEG
POS
POS
POS
POS
NEG
NEG
NEG
NEG
NEG
NEG
NEG
NEG
POS
POS
NEG
NEG
POS
NEG
POS
POS
NEG
NEG
NEG
NEG
NEG
POS
POS
NEG
POS
POS
POS
NEG
NEG
NEG
NEG
POS
POS
NEG
NEG
POS
POS
POS
POS
POS
NEG
NEG
NEG
NEG
POS
NEG
NEG
NEG
NEG
NEG
NEG
POS
NEG
NEG
NEG
POS
POS
POS
POS
POS
NEG
NEG
POS
NEG
POS
POS
NEG
NEG
NEG
POS
POS
POS
NEG
NEG
POS
POS
NEG
POS
POS
NEG
POS
POS
NEG
POS
NEG
NEG
NEG
NEG
NEG
NEG
NEG
POS
NEG
POS
NEG
POS
POS
NEG
NEG
NEG
POS
POS
POS
POS
POS
NEG
POS
NEG
POS
POS
POS
NEG
NEG
NEG
NEG
NEG
POS
NEG
NEG
NEG
NEG
NEG
POS
NEG
POS
POS
POS
NEG
NEG
NEG
POS
POS
NEG
NEG
POS
POS
POS
POS
NEG
POS
POS
NEG
NEG
NEG
POS
NEG
NEG
POS
NEG
POS
POS
POS
POS
NEG
NEG
POS
NEG
POS
NEG
NEG
NEG
POS
POS
NEG
NEG
NEG
NEG
POS
POS
NEG
POS
POS
NEG
POS
POS
NEG
NEG
POS
POS
POS
NEG
NEG
POS
NEG
NEG
NEG
NEG
NEG
NEG
NEG
NEG
POS
NEG
NEG
NEG
NEG
NEG
NEG
POS
POS
POS
POS
NEG
NEG
NEG
NEG
POS
POS
NEG
NEG
NEG
POS
NEG
NEG
POS
POS
NEG
NEG
POS
NEG
NEG
NEG
POS
POS
NEG
NEG
NEG
NEG
POS
NEG
POS
POS
POS
NEG
POS
POS
NEG
NEG
NEG
NEG
POS
POS
NEG
NEG
NEG
POS
POS
NEG
POS
NEG
POS
POS
NEG
POS
NEG
POS
POS
NEG
NEG
NEG
POS
POS
POS
NEG
NEG
POS
POS
POS
NEG
POS
NEG
NEG
NEG
NEG
NEG
NEG
NEG
NEG
NEG
NEG
POS
NEG
NEG
POS
NEG
POS
NEG
NEG
POS
POS
NEG
POS
POS
POS
POS
NEG
NEG
NEG
POS
POS
POS
POS
POS
NEG
POS
POS
POS
NEG
NEG
POS
NEG
POS
POS
NEG
NEG
NEG
NEG
POS
NEG
POS
POS
POS
NEG
NEG
POS
POS
NEG
NEG
POS
POS
POS
POS
POS
POS
POS
POS
NEG
NEG
NEG
POS
POS
NEG
NEG
NEG
POS
NEG
POS
POS
NEG
POS
POS
POS
NEG
NEG
NEG
POS
NEG
NEG
NEG
NEG
NEG
NEG
POS
NEG
NEG
POS
POS
NEG
NEG
NEG
POS
NEG
NEG
POS
NEG
NEG
NEG
POS
POS
POS
POS
NEG
POS
NEG
POS
POS
POS
NEG
NEG
POS
NEG
NEG
NEG
POS
NEG
POS
POS
POS
POS
POS
NEG
NEG
POS
NEG
POS
NEG
NEG
POS
NEG
POS
NEG
NEG
POS
POS
NEG
NEG
POS
NEG
NEG
POS
NEG
POS
NEG
NEG
NEG
POS
NEG
POS
NEG
NEG
NEG
POS
POS
NEG
NEG
NEG
POS
POS
NEG
NEG
POS
POS
POS
NEG
POS
NEG
POS
NEG
NEG
POS
NEG
NEG
POS
POS
NEG
NEG
POS
NEG
NEG
POS
NEG
NEG
POS
NEG
NEG
NEG
POS
POS
POS
POS
NEG
NEG
NEG
NEG
POS
NEG
NEG
NEG
NEG
NEG
POS
NEG
POS
NEG
NEG
NEG
NEG
NEG
POS
NEG
NEG
POS
NEG
NEG
NEG
POS
NEG
POS
NEG
NEG
NEG
NEG
POS
POS
NEG
POS
POS
POS
POS
POS
NEG
NEG
POS
POS
NEG
POS
NEG
POS
NEG
POS
NEG
POS
NEG
POS
NEG
NEG
NEG
POS
POS
NEG
POS
NEG
NEG
NEG
NEG
POS
POS
NEG
POS
POS
NEG
NEG
NEG
POS
NEG
POS
POS
NEG
NEG
POS
NEG
POS
NEG
POS
POS
NEG
NEG
POS
NEG
POS
POS
POS
POS
NEG
NEG
POS
POS
NEG
POS
NEG
POS
NEG
POS
NEG
NEG
POS
NEG
POS
NEG
NEG
POS
POS
NEG
POS
NEG
NEG
NEG
POS
POS
NEG
NEG
NEG
NEG
NEG
NEG
POS
POS
NEG
NEG
POS
NEG
NEG
NEG
NEG
POS
NEG
POS
NEG
POS
NEG
NEG
NEG
POS
NEG
NEG
POS
POS
NEG
NEG
POS
NEG
NEG
NEG
POS
POS
NEG
POS
NEG
POS
NEG
POS
NEG
NEG
NEG
POS
POS
NEG
NEG
NEG
NEG
NEG
NEG
NEG
POS
POS
POS
NEG
POS
NEG
NEG
POS
NEG
NEG
POS
NEG
NEG
NEG
POS
NEG
NEG
POS
NEG
NEG
NEG
NEG
POS
POS
POS
NEG
NEG
POS
NEG
POS
NEG
NEG
NEG
NEG
NEG
NEG
NEG
POS
POS
NEG
NEG
NEG
NEG
POS
NEG
POS
POS
NEG
NEG
NEG
POS
POS
POS
NEG
NEG
NEG
POS
POS
POS
NEG
NEG
NEG
NEG
POS
NEG
NEG
NEG
POS
NEG
POS
POS
NEG
NEG
POS
NEG
POS
POS
POS
NEG
POS
NEG
POS
NEG
NEG
POS
POS
NEG
POS
NEG
POS
NEG
POS
POS
POS
POS
POS
NEG
NEG
NEG
NEG
NEG
NEG
POS
POS
POS
NEG
POS
NEG
POS
NEG
POS
POS
NEG
NEG
NEG
NEG
POS
NEG
POS
NEG
POS
NEG
NEG
NEG
POS
POS
NEG
POS
POS
POS
NEG
NEG
NEG
POS
POS
POS
NEG
NEG
NEG
NEG
NEG
NEG
NEG
POS
POS
POS
POS
NEG
NEG
POS
POS
POS
POS
POS
POS
NEG
POS
NEG
POS
POS
NEG
NEG
NEG
NEG
NEG
POS
POS
NEG
POS
NEG
POS
POS
NEG
NEG
POS
NEG
NEG
POS
NEG
NEG
POS
NEG
NEG
NEG
POS
NEG
POS
POS
POS
POS
NEG
NEG
POS
NEG
POS
NEG
NEG
POS
NEG
POS
NEG
NEG
POS
POS
POS
NEG
NEG
NEG
NEG
POS
POS
NEG
POS
POS
NEG
NEG
POS
NEG
POS
NEG
POS
NEG
NEG
POS
NEG
NEG
NEG
POS
NEG
NEG
NEG
NEG
POS
NEG
POS
POS
NEG
NEG
NEG
NEG
NEG
NEG
POS
POS
NEG
POS
NEG
NEG
POS
POS
NEG
NEG
NEG
POS
NEG
NEG
POS
NEG
POS
NEG
NEG
POS
POS
NEG
POS
POS
POS
NEG
POS
NEG
NEG
NEG
NEG
NEG
NEG
NEG
NEG
POS
NEG
NEG
POS
POS
NEG
POS
POS
NEG
POS
NEG
NEG
NEG
NEG
POS
NEG
POS
POS
NEG
POS
POS
POS
NEG
POS
POS
NEG
POS
NEG
POS
NEG
POS
NEG
POS
POS
NEG
POS
POS
NEG
NEG
POS
POS
POS
POS
NEG
NEG
POS
POS
POS
POS
NEG
POS
POS
POS
NEG
NEG
POS
POS
NEG
POS
POS
POS
NEG
POS
NEG
POS
NEG
POS
POS
POS
NEG
NEG
NEG
NEG
POS
NEG
NEG
NEG
POS
NEG
NEG
NEG
POS
POS
POS
NEG
NEG
NEG
POS
NEG
NEG
NEG
NEG
POS
POS
NEG
NEG
NEG
NEG
NEG
POS
NEG
POS
POS
NEG
NEG
POS
NEG
POS
POS
POS
NEG
NEG
POS
NEG
NEG
POS
POS
POS
NEG
NEG
POS
NEG
POS
NEG
POS
NEG
NEG
POS
POS
NEG
POS
POS
NEG
POS
NEG
NEG
NEG
NEG
NEG
NEG
POS
NEG
NEG
POS
POS
NEG
POS
POS
NEG
POS
POS
POS
POS
POS
POS
POS
NEG
NEG
NEG
NEG
POS
POS
POS
NEG
POS
NEG
POS
NEG
POS
NEG
POS
POS
POS
NEG
NEG
NEG
POS
NEG
NEG
POS
NEG
NEG
NEG
POS
NEG
POS
NEG
NEG
NEG
NEG
POS
NEG
NEG
NEG
POS
NEG
POS
NEG
POS
NEG
NEG
NEG
POS
NEG
POS
POS
POS
POS
NEG
POS
NEG
POS
POS
POS
POS
POS
NEG
NEG
POS
NEG
NEG
POS
POS
NEG
NEG
POS
NEG
NEG
NEG
POS
POS
POS
NEG
POS
POS
POS
NEG
NEG
POS
POS
NEG
NEG
POS
POS
NEG
NEG
POS
NEG
NEG
POS
POS
NEG
NEG
NEG
NEG
POS
POS
NEG
NEG
POS
POS
NEG
NEG
POS
NEG
NEG
NEG
POS
NEG
NEG
NEG
NEG
POS
POS
POS
POS
POS
NEG
POS
NEG
NEG
POS
POS
POS
NEG
POS
POS
NEG
NEG
NEG
NEG
POS
NEG
POS
POS
NEG
NEG
POS
NEG
NEG
NEG
NEG
POS
POS
NEG
NEG
POS
NEG
POS
NEG
NEG
NEG
NEG
POS
NEG
POS
NEG
NEG
NEG
NEG
POS
NEG
NEG
NEG
POS
POS
NEG
POS
NEG
POS
NEG
NEG
POS
NEG
NEG
NEG
POS
NEG
POS
NEG
NEG
